[    16.303] (--) Log file renamed from "/var/lib/gdm/.local/share/xorg/Xorg.pid-744.log" to "/var/lib/gdm/.local/share/xorg/Xorg.0.log"
[    16.303] 
X.Org X Server 1.21.1.4
X Protocol Version 11, Revision 0
[    16.303] Current Operating System: Linux desktop 6.1.23 #1 SMP PREEMPT_DYNAMIC 1 x86_64
[    16.303] Kernel command line: BOOT_IMAGE=/gnu/store/4rx684ikrxsrnjnfbx5hw6kkm8xpn28n-linux-6.1.23/bzImage root=5fdf4f83-3625-4a63-a65b-361da87376f0 gnu.system=/gnu/store/1kl0ssix6g2q65b2iwi91ljbnscmj9q4-system gnu.load=/gnu/store/1kl0ssix6g2q65b2iwi91ljbnscmj9q4-system/boot modprobe.blacklist=nouveau modprobe.blacklist=usbmouse,usbkbd quiet
[    16.303]  
[    16.303] Current version of pixman: 0.40.0
[    16.303] 	Before reporting problems, check http://wiki.x.org
	to make sure that you have the latest version.
[    16.303] Markers: (--) probed, (**) from config file, (==) default setting,
	(++) from command line, (!!) notice, (II) informational,
	(WW) warning, (EE) error, (NI) not implemented, (??) unknown.
[    16.303] (==) Log file: "/var/lib/gdm/.local/share/xorg/Xorg.0.log", Time: Sat Apr  8 09:47:21 2023
[    16.306] (++) Using config file: "/gnu/store/ibinii5vjxfiy4d9z28fi6ndpvdq2kx7-xserver.conf"
[    16.306] (++) Using config directory: "/gnu/store/c4v1zdplb95d955anlyy9qp3gdnkf5wp-xorg.conf.d"
[    16.306] (==) Using system config directory "/gnu/store/7gscf7hxwc4qr78ih2s1anyz1pk7lx7c-xorg-server-21.1.4/share/X11/xorg.conf.d"
[    16.306] (==) No Layout section.  Using the first Screen section.
[    16.306] (**) |-->Screen "screen-nvidia" (0)
[    16.306] (**) |   |-->Monitor "<default monitor>"
[    16.307] (**) |   |-->Device "device-nvidia"
[    16.307] (==) No monitor specified for screen "screen-nvidia".
	Using a default monitor configuration.
[    16.307] (**) Option "AllowMouseOpenFail" "on"
[    16.307] (==) Automatically adding devices
[    16.307] (==) Automatically enabling devices
[    16.307] (==) Automatically adding GPU devices
[    16.307] (==) Automatically binding GPU devices
[    16.307] (==) Max clients allowed: 256, resource mask: 0x1fffff
[    16.309] (**) FontPath set to:
	/gnu/store/mhs4wss4yi51wcb9hqg5lag6liv24bd7-font-alias-1.0.4/share/fonts/X11/75dpi,
	/gnu/store/mhs4wss4yi51wcb9hqg5lag6liv24bd7-font-alias-1.0.4/share/fonts/X11/100dpi,
	/gnu/store/mhs4wss4yi51wcb9hqg5lag6liv24bd7-font-alias-1.0.4/share/fonts/X11/misc,
	/gnu/store/mhs4wss4yi51wcb9hqg5lag6liv24bd7-font-alias-1.0.4/share/fonts/X11/cyrillic,
	/gnu/store/m4ggkiz0qrc97gyz9i2xsyvvlx0s310v-font-misc-misc-1.1.2/share/fonts/X11/misc,
	/gnu/store/yia882nfzcajv2gz5riarip820r0jn7y-font-adobe75dpi-1.0.3/share/fonts/X11/75dpi
[    16.309] (**) ModulePath set to "/gnu/store/2y9b2pwny9q91l6lzqdz8b7d80cxdbd8-nvidia-driver-515.76/lib/xorg/modules/drivers,/gnu/store/2y9b2pwny9q91l6lzqdz8b7d80cxdbd8-nvidia-driver-515.76/lib/xorg/modules/extensions,/gnu/store/qabg4sw93acij4sbn1r65di80ic5baaq-xf86-video-vesa-2.6.0/lib/xorg/modules/drivers,/gnu/store/nqrb2khahnziyf7jvrss3qcgbpr4hcdh-xf86-video-fbdev-0.5.0/lib/xorg/modules/drivers,/gnu/store/31bm96d0wcsb9ifn2zsca2mqbfgxr6pv-xf86-video-amdgpu-22.0.0/lib/xorg/modules/drivers,/gnu/store/vn7rqg5s5hkqxkbwwq2vnrpz2ph6x2bl-xf86-video-ati-19.1.0-1.5eba006/lib/xorg/modules/drivers,/gnu/store/zx2imsnbdwaiw5mhwm533wnk2063gapp-xf86-video-cirrus-1.6.0/lib/xorg/modules/drivers,/gnu/store/vx9ly3bzd6vhx7f4wa5iqqir44p0mmm5-xf86-video-intel-2.99.917-18.31486f4/lib/xorg/modules/drivers,/gnu/store/d2m9r1gx05h3lq49ihvmmgh502ifv2a4-xf86-video-mach64-6.9.7/lib/xorg/modules/drivers,/gnu/store/rnrpgmfm6k270s746zk7rfif3lh4c684-xf86-video-nouveau-1.0.17/lib/xorg/modules/drivers,/gnu/store/zn7xcksvxkp294nc9vldrx77ifcdxz09-xf86-v
[    16.309] (II) The server relies on udev to provide the list of input devices.
	If no devices become available, reconfigure udev or disable AutoAddDevices.
[    16.309] (II) Loader magic: 0x634dc0
[    16.309] (II) Module ABI versions:
[    16.309] 	X.Org ANSI C Emulation: 0.4
[    16.309] 	X.Org Video Driver: 25.2
[    16.309] 	X.Org XInput driver : 24.4
[    16.309] 	X.Org Server Extension : 10.0
[    16.309] (++) using VT number 7

[    16.310] (II) systemd-logind: took control of session /org/freedesktop/login1/session/c1
[    16.310] (II) xfree86: Adding drm device (/dev/dri/card0)
[    16.310] (II) Platform probe for /sys/devices/pci0000:00/0000:00:03.1/0000:26:00.0/drm/card0
[    16.310] (II) systemd-logind: got fd for /dev/dri/card0 226:0 fd 13 paused 0
[    16.313] (--) PCI:*(38@0:0:0) 10de:1e84:1458:4001 rev 161, Mem @ 0xf6000000/16777216, 0xe0000000/268435456, 0xf0000000/33554432, I/O @ 0x0000e000/128, BIOS @ 0x????????/524288
[    16.313] (WW) Open ACPI failed (/var/run/acpid.socket) (No such file or directory)
[    16.313] (II) LoadModule: "glx"
[    16.320] (II) Loading /gnu/store/7gscf7hxwc4qr78ih2s1anyz1pk7lx7c-xorg-server-21.1.4/lib/xorg/modules/extensions/libglx.so
[    16.329] (II) Module glx: vendor="X.Org Foundation"
[    16.329] 	compiled for 1.21.1.4, module version = 1.0.0
[    16.329] 	ABI class: X.Org Server Extension, version 10.0
[    16.329] (II) LoadModule: "nvidia"
[    16.329] (II) Loading /gnu/store/2y9b2pwny9q91l6lzqdz8b7d80cxdbd8-nvidia-driver-515.76/lib/xorg/modules/drivers/nvidia_drv.so
[    16.331] (II) Module nvidia: vendor="NVIDIA Corporation"
[    16.331] 	compiled for 1.6.99.901, module version = 1.0.0
[    16.331] 	Module class: X.Org Video Driver
[    16.331] (II) NVIDIA dlloader X Driver  515.76  Mon Sep 12 19:18:09 UTC 2022
[    16.331] (II) NVIDIA Unified Driver for all Supported NVIDIA GPUs
[    16.331] (II) systemd-logind: releasing fd for 226:0
[    16.332] (II) Loading sub module "fb"
[    16.332] (II) LoadModule: "fb"
[    16.332] (II) Module "fb" already built-in
[    16.332] (II) Loading sub module "wfb"
[    16.332] (II) LoadModule: "wfb"
[    16.332] (II) Loading /gnu/store/7gscf7hxwc4qr78ih2s1anyz1pk7lx7c-xorg-server-21.1.4/lib/xorg/modules/libwfb.so
[    16.333] (II) Module wfb: vendor="X.Org Foundation"
[    16.333] 	compiled for 1.21.1.4, module version = 1.0.0
[    16.333] 	ABI class: X.Org ANSI C Emulation, version 0.4
[    16.333] (II) Loading sub module "ramdac"
[    16.333] (II) LoadModule: "ramdac"
[    16.333] (II) Module "ramdac" already built-in
[    16.333] (WW) VGA arbiter: cannot open kernel arbiter, no multi-card support
[    16.333] (==) NVIDIA(0): Depth 24, (==) framebuffer bpp 32
[    16.333] (==) NVIDIA(0): RGB weight 888
[    16.333] (==) NVIDIA(0): Default visual is TrueColor
[    16.333] (==) NVIDIA(0): Using gamma correction (1.0, 1.0, 1.0)
[    16.333] (**) NVIDIA(0): Enabling 2D acceleration
[    16.333] (II) Loading sub module "glxserver_nvidia"
[    16.333] (II) LoadModule: "glxserver_nvidia"
[    16.333] (II) Loading /gnu/store/2y9b2pwny9q91l6lzqdz8b7d80cxdbd8-nvidia-driver-515.76/lib/xorg/modules/extensions/libglxserver_nvidia.so
[    16.347] (II) Module glxserver_nvidia: vendor="NVIDIA Corporation"
[    16.347] 	compiled for 1.6.99.901, module version = 1.0.0
[    16.347] 	Module class: X.Org Server Extension
[    16.347] (II) NVIDIA GLX Module  515.76  Mon Sep 12 19:14:20 UTC 2022
[    16.348] (II) NVIDIA: The X server supports PRIME Render Offload.
[    17.053] (--) NVIDIA(0): Valid display device(s) on GPU-0 at PCI:38:0:0
[    17.053] (--) NVIDIA(0):     DFP-0
[    17.053] (--) NVIDIA(0):     DFP-1
[    17.053] (--) NVIDIA(0):     DFP-2
[    17.053] (--) NVIDIA(0):     DFP-3
[    17.053] (--) NVIDIA(0):     DFP-4
[    17.053] (--) NVIDIA(0):     DFP-5 (boot)
[    17.053] (--) NVIDIA(0):     DFP-6
[    17.054] (II) NVIDIA(0): NVIDIA GPU NVIDIA GeForce RTX 2070 SUPER (TU104-A) at
[    17.054] (II) NVIDIA(0):     PCI:38:0:0 (GPU-0)
[    17.054] (--) NVIDIA(0): Memory: 8388608 kBytes
[    17.054] (--) NVIDIA(0): VideoBIOS: 90.04.76.80.1a
[    17.054] (II) NVIDIA(0): Detected PCI Express Link width: 16X
[    17.054] (--) NVIDIA(GPU-0): DFP-0: disconnected
[    17.054] (--) NVIDIA(GPU-0): DFP-0: Internal DisplayPort
[    17.054] (--) NVIDIA(GPU-0): DFP-0: 2660.0 MHz maximum pixel clock
[    17.054] (--) NVIDIA(GPU-0): 
[    17.054] (--) NVIDIA(GPU-0): DFP-1: disconnected
[    17.054] (--) NVIDIA(GPU-0): DFP-1: Internal TMDS
[    17.054] (--) NVIDIA(GPU-0): DFP-1: 165.0 MHz maximum pixel clock
[    17.054] (--) NVIDIA(GPU-0): 
[    17.054] (--) NVIDIA(GPU-0): DFP-2: disconnected
[    17.054] (--) NVIDIA(GPU-0): DFP-2: Internal TMDS
[    17.054] (--) NVIDIA(GPU-0): DFP-2: 165.0 MHz maximum pixel clock
[    17.054] (--) NVIDIA(GPU-0): 
[    17.054] (--) NVIDIA(GPU-0): DFP-3: disconnected
[    17.054] (--) NVIDIA(GPU-0): DFP-3: Internal DisplayPort
[    17.054] (--) NVIDIA(GPU-0): DFP-3: 2660.0 MHz maximum pixel clock
[    17.054] (--) NVIDIA(GPU-0): 
[    17.054] (--) NVIDIA(GPU-0): DFP-4: disconnected
[    17.054] (--) NVIDIA(GPU-0): DFP-4: Internal TMDS
[    17.054] (--) NVIDIA(GPU-0): DFP-4: 165.0 MHz maximum pixel clock
[    17.054] (--) NVIDIA(GPU-0): 
[    17.055] (--) NVIDIA(GPU-0): LG Electronics LG ULTRAWIDE (DFP-5): connected
[    17.055] (--) NVIDIA(GPU-0): LG Electronics LG ULTRAWIDE (DFP-5): Internal DisplayPort
[    17.055] (--) NVIDIA(GPU-0): LG Electronics LG ULTRAWIDE (DFP-5): 2660.0 MHz maximum pixel clock
[    17.055] (--) NVIDIA(GPU-0): 
[    17.059] (--) NVIDIA(GPU-0): DFP-6: disconnected
[    17.059] (--) NVIDIA(GPU-0): DFP-6: Internal TMDS
[    17.059] (--) NVIDIA(GPU-0): DFP-6: 165.0 MHz maximum pixel clock
[    17.059] (--) NVIDIA(GPU-0): 
[    17.101] (==) NVIDIA(0): 
[    17.101] (==) NVIDIA(0): No modes were requested; the default mode "nvidia-auto-select"
[    17.101] (==) NVIDIA(0):     will be used as the requested mode.
[    17.101] (==) NVIDIA(0): 
[    17.101] (II) NVIDIA(0): Validated MetaModes:
[    17.101] (II) NVIDIA(0):     "DFP-5:nvidia-auto-select"
[    17.101] (II) NVIDIA(0): Virtual screen size determined to be 2560 x 1080
[    17.153] (--) NVIDIA(0): DPI set to (81, 80); computed from "UseEdidDpi" X config
[    17.153] (--) NVIDIA(0):     option
[    17.154] (WW) NVIDIA: Failed to bind sideband socket to
[    17.154] (WW) NVIDIA:     '/var/run/nvidia-xdriver-f30f8b83' Permission denied
[    17.154] (II) NVIDIA: Reserving 24576.00 MB of virtual memory for indirect memory
[    17.154] (II) NVIDIA:     access.
[    17.159] (II) NVIDIA(0): ACPI: failed to connect to the ACPI event daemon; the daemon
[    17.159] (II) NVIDIA(0):     may not be running or the "AcpidSocketPath" X
[    17.159] (II) NVIDIA(0):     configuration option may not be set correctly.  When the
[    17.159] (II) NVIDIA(0):     ACPI event daemon is available, the NVIDIA X driver will
[    17.159] (II) NVIDIA(0):     try to use it to receive ACPI event notifications.  For
[    17.159] (II) NVIDIA(0):     details, please see the "ConnectToAcpid" and
[    17.159] (II) NVIDIA(0):     "AcpidSocketPath" X configuration options in Appendix B: X
[    17.159] (II) NVIDIA(0):     Config Options in the README.
[    17.174] (II) NVIDIA(0): Setting mode "DFP-5:nvidia-auto-select"
[    17.312] (==) NVIDIA(0): Disabling shared memory pixmaps
[    17.312] (==) NVIDIA(0): Backing store enabled
[    17.312] (==) NVIDIA(0): Silken mouse enabled
[    17.312] (==) NVIDIA(0): DPMS enabled
[    17.312] (II) Loading sub module "dri2"
[    17.312] (II) LoadModule: "dri2"
[    17.312] (II) Module "dri2" already built-in
[    17.312] (II) NVIDIA(0): [DRI2] Setup complete
[    17.312] (II) NVIDIA(0): [DRI2]   VDPAU driver: nvidia
[    17.313] (II) Initializing extension Generic Event Extension
[    17.313] (II) Initializing extension SHAPE
[    17.313] (II) Initializing extension MIT-SHM
[    17.313] (II) Initializing extension XInputExtension
[    17.313] (II) Initializing extension XTEST
[    17.313] (II) Initializing extension BIG-REQUESTS
[    17.313] (II) Initializing extension SYNC
[    17.313] (II) Initializing extension XKEYBOARD
[    17.314] (II) Initializing extension XC-MISC
[    17.314] (II) Initializing extension SECURITY
[    17.314] (II) Initializing extension XFIXES
[    17.314] (II) Initializing extension RENDER
[    17.314] (II) Initializing extension RANDR
[    17.314] (II) Initializing extension COMPOSITE
[    17.314] (II) Initializing extension DAMAGE
[    17.314] (II) Initializing extension MIT-SCREEN-SAVER
[    17.314] (II) Initializing extension DOUBLE-BUFFER
[    17.314] (II) Initializing extension RECORD
[    17.314] (II) Initializing extension DPMS
[    17.314] (II) Initializing extension Present
[    17.314] (II) Initializing extension DRI3
[    17.314] (II) Initializing extension X-Resource
[    17.314] (II) Initializing extension XVideo
[    17.314] (II) Initializing extension XVideo-MotionCompensation
[    17.314] (II) Initializing extension GLX
[    17.314] (II) Initializing extension GLX
[    17.314] (II) Indirect GLX disabled.
[    17.314] (II) GLX: Another vendor is already registered for screen 0
[    17.314] (II) Initializing extension XFree86-VidModeExtension
[    17.315] (II) Initializing extension XFree86-DGA
[    17.315] (II) Initializing extension XFree86-DRI
[    17.315] (II) Initializing extension DRI2
[    17.315] (II) Initializing extension NV-GLX
[    17.315] (II) Initializing extension NV-CONTROL
[    17.315] (II) Initializing extension XINERAMA
[    17.358] (II) config/udev: Adding input device Power Button (/dev/input/event1)
[    17.358] (**) Power Button: Applying InputClass "evdev keyboard catchall"
[    17.358] (**) Power Button: Applying InputClass "libinput keyboard catchall"
[    17.358] (**) Power Button: Applying InputClass "evdev keyboard catchall"
[    17.358] (II) LoadModule: "evdev"
[    17.358] (II) Loading /gnu/store/ysjpdxnb3lqr3h98rqbv4am1ycwdp9p8-xf86-input-evdev-2.10.6/lib/xorg/modules/input/evdev_drv.so
[    17.360] (II) Module evdev: vendor="X.Org Foundation"
[    17.360] 	compiled for 1.21.1.4, module version = 2.10.6
[    17.360] 	Module class: X.Org XInput Driver
[    17.360] 	ABI class: X.Org XInput driver, version 24.4
[    17.360] (II) Using input driver 'evdev' for 'Power Button'
[    17.361] (II) systemd-logind: got fd for /dev/input/event1 13:65 fd 37 paused 0
[    17.361] (**) Power Button: always reports core events
[    17.361] (**) evdev: Power Button: Device: "/dev/input/event1"
[    17.361] (--) evdev: Power Button: Vendor 0 Product 0x1
[    17.361] (--) evdev: Power Button: Found keys
[    17.361] (II) evdev: Power Button: Configuring as keyboard
[    17.361] (**) Option "config_info" "udev:/sys/devices/LNXSYSTM:00/LNXPWRBN:00/input/input1/event1"
[    17.361] (II) XINPUT: Adding extended input device "Power Button" (type: KEYBOARD, id 6)
[    17.361] (**) Option "xkb_rules" "evdev"
[    17.361] (**) Option "xkb_layout" "us"
[    17.361] (II) config/udev: Adding input device Power Button (/dev/input/event0)
[    17.362] (**) Power Button: Applying InputClass "evdev keyboard catchall"
[    17.362] (**) Power Button: Applying InputClass "libinput keyboard catchall"
[    17.362] (**) Power Button: Applying InputClass "evdev keyboard catchall"
[    17.362] (II) Using input driver 'evdev' for 'Power Button'
[    17.362] (II) systemd-logind: got fd for /dev/input/event0 13:64 fd 38 paused 0
[    17.362] (**) Power Button: always reports core events
[    17.362] (**) evdev: Power Button: Device: "/dev/input/event0"
[    17.362] (--) evdev: Power Button: Vendor 0 Product 0x1
[    17.362] (--) evdev: Power Button: Found keys
[    17.362] (II) evdev: Power Button: Configuring as keyboard
[    17.362] (**) Option "config_info" "udev:/sys/devices/LNXSYSTM:00/LNXSYBUS:00/PNP0C0C:00/input/input0/event0"
[    17.362] (II) XINPUT: Adding extended input device "Power Button" (type: KEYBOARD, id 7)
[    17.362] (**) Option "xkb_rules" "evdev"
[    17.362] (**) Option "xkb_layout" "us"
[    17.362] (II) config/udev: Adding input device HDA NVidia HDMI/DP,pcm=7 (/dev/input/event10)
[    17.362] (II) No input driver specified, ignoring this device.
[    17.362] (II) This device may have been added with another device file.
[    17.362] (II) config/udev: Adding input device HDA NVidia HDMI/DP,pcm=8 (/dev/input/event11)
[    17.362] (II) No input driver specified, ignoring this device.
[    17.362] (II) This device may have been added with another device file.
[    17.363] (II) config/udev: Adding input device HDA NVidia HDMI/DP,pcm=9 (/dev/input/event12)
[    17.363] (II) No input driver specified, ignoring this device.
[    17.363] (II) This device may have been added with another device file.
[    17.363] (II) config/udev: Adding input device HDA NVidia HDMI/DP,pcm=3 (/dev/input/event9)
[    17.363] (II) No input driver specified, ignoring this device.
[    17.363] (II) This device may have been added with another device file.
[    17.363] (II) config/udev: Adding input device Cooler Master Technology Inc. CK530 (/dev/input/event2)
[    17.363] (**) Cooler Master Technology Inc. CK530: Applying InputClass "evdev keyboard catchall"
[    17.363] (**) Cooler Master Technology Inc. CK530: Applying InputClass "libinput keyboard catchall"
[    17.363] (**) Cooler Master Technology Inc. CK530: Applying InputClass "evdev keyboard catchall"
[    17.363] (II) Using input driver 'evdev' for 'Cooler Master Technology Inc. CK530'
[    17.363] (II) systemd-logind: got fd for /dev/input/event2 13:66 fd 39 paused 0
[    17.363] (**) Cooler Master Technology Inc. CK530: always reports core events
[    17.363] (**) evdev: Cooler Master Technology Inc. CK530: Device: "/dev/input/event2"
[    17.363] (--) evdev: Cooler Master Technology Inc. CK530: Vendor 0x2516 Product 0x9f
[    17.363] (--) evdev: Cooler Master Technology Inc. CK530: Found keys
[    17.363] (II) evdev: Cooler Master Technology Inc. CK530: Configuring as keyboard
[    17.363] (**) Option "config_info" "udev:/sys/devices/pci0000:00/0000:00:08.1/0000:28:00.3/usb5/5-1/5-1.1/5-1.1:1.0/0003:2516:009F.0001/input/input2/event2"
[    17.363] (II) XINPUT: Adding extended input device "Cooler Master Technology Inc. CK530" (type: KEYBOARD, id 8)
[    17.363] (**) Option "xkb_rules" "evdev"
[    17.363] (**) Option "xkb_layout" "us"
[    17.364] (II) config/udev: Adding input device Cooler Master Technology Inc. CK530 System Control (/dev/input/event3)
[    17.364] (**) Cooler Master Technology Inc. CK530 System Control: Applying InputClass "evdev keyboard catchall"
[    17.364] (**) Cooler Master Technology Inc. CK530 System Control: Applying InputClass "libinput keyboard catchall"
[    17.364] (**) Cooler Master Technology Inc. CK530 System Control: Applying InputClass "evdev keyboard catchall"
[    17.364] (II) Using input driver 'evdev' for 'Cooler Master Technology Inc. CK530 System Control'
[    17.364] (II) systemd-logind: got fd for /dev/input/event3 13:67 fd 40 paused 0
[    17.364] (**) Cooler Master Technology Inc. CK530 System Control: always reports core events
[    17.364] (**) evdev: Cooler Master Technology Inc. CK530 System Control: Device: "/dev/input/event3"
[    17.364] (--) evdev: Cooler Master Technology Inc. CK530 System Control: Vendor 0x2516 Product 0x9f
[    17.364] (--) evdev: Cooler Master Technology Inc. CK530 System Control: Found keys
[    17.364] (II) evdev: Cooler Master Technology Inc. CK530 System Control: Configuring as keyboard
[    17.364] (**) Option "config_info" "udev:/sys/devices/pci0000:00/0000:00:08.1/0000:28:00.3/usb5/5-1/5-1.1/5-1.1:1.2/0003:2516:009F.0003/input/input3/event3"
[    17.364] (II) XINPUT: Adding extended input device "Cooler Master Technology Inc. CK530 System Control" (type: KEYBOARD, id 9)
[    17.364] (**) Option "xkb_rules" "evdev"
[    17.364] (**) Option "xkb_layout" "us"
[    17.365] (II) config/udev: Adding input device Cooler Master Technology Inc. CK530 Consumer Control (/dev/input/event4)
[    17.365] (**) Cooler Master Technology Inc. CK530 Consumer Control: Applying InputClass "evdev keyboard catchall"
[    17.365] (**) Cooler Master Technology Inc. CK530 Consumer Control: Applying InputClass "libinput keyboard catchall"
[    17.365] (**) Cooler Master Technology Inc. CK530 Consumer Control: Applying InputClass "evdev keyboard catchall"
[    17.365] (II) Using input driver 'evdev' for 'Cooler Master Technology Inc. CK530 Consumer Control'
[    17.365] (II) systemd-logind: got fd for /dev/input/event4 13:68 fd 41 paused 0
[    17.365] (**) Cooler Master Technology Inc. CK530 Consumer Control: always reports core events
[    17.365] (**) evdev: Cooler Master Technology Inc. CK530 Consumer Control: Device: "/dev/input/event4"
[    17.365] (--) evdev: Cooler Master Technology Inc. CK530 Consumer Control: Vendor 0x2516 Product 0x9f
[    17.365] (--) evdev: Cooler Master Technology Inc. CK530 Consumer Control: Found keys
[    17.365] (II) evdev: Cooler Master Technology Inc. CK530 Consumer Control: Configuring as keyboard
[    17.365] (**) Option "config_info" "udev:/sys/devices/pci0000:00/0000:00:08.1/0000:28:00.3/usb5/5-1/5-1.1/5-1.1:1.2/0003:2516:009F.0003/input/input4/event4"
[    17.365] (II) XINPUT: Adding extended input device "Cooler Master Technology Inc. CK530 Consumer Control" (type: KEYBOARD, id 10)
[    17.365] (**) Option "xkb_rules" "evdev"
[    17.365] (**) Option "xkb_layout" "us"
[    17.366] (II) config/udev: Adding input device Cooler Master Technology Inc. CK530 Mouse (/dev/input/event5)
[    17.366] (**) Cooler Master Technology Inc. CK530 Mouse: Applying InputClass "evdev pointer catchall"
[    17.366] (**) Cooler Master Technology Inc. CK530 Mouse: Applying InputClass "libinput pointer catchall"
[    17.366] (II) LoadModule: "libinput"
[    17.366] (II) Loading /gnu/store/6ifdphlzjk1yrj65lqzdbcxjxhwrfs8p-xf86-input-libinput-1.2.1/lib/xorg/modules/input/libinput_drv.so
[    17.367] (II) Module libinput: vendor="X.Org Foundation"
[    17.367] 	compiled for 1.21.1.4, module version = 1.2.1
[    17.367] 	Module class: X.Org XInput Driver
[    17.367] 	ABI class: X.Org XInput driver, version 24.4
[    17.367] (II) Using input driver 'libinput' for 'Cooler Master Technology Inc. CK530 Mouse'
[    17.368] (II) systemd-logind: got fd for /dev/input/event5 13:69 fd 42 paused 0
[    17.368] (**) Cooler Master Technology Inc. CK530 Mouse: always reports core events
[    17.368] (**) Option "Device" "/dev/input/event5"
[    17.371] (II) event5  - Cooler Master Technology Inc. CK530 Mouse: is tagged by udev as: Mouse
[    17.371] (II) event5  - Cooler Master Technology Inc. CK530 Mouse: device is a pointer
[    17.371] (II) event5  - Cooler Master Technology Inc. CK530 Mouse: device removed
[    17.371] (**) Option "config_info" "udev:/sys/devices/pci0000:00/0000:00:08.1/0000:28:00.3/usb5/5-1/5-1.1/5-1.1:1.2/0003:2516:009F.0003/input/input5/event5"
[    17.371] (II) XINPUT: Adding extended input device "Cooler Master Technology Inc. CK530 Mouse" (type: MOUSE, id 11)
[    17.371] (**) Option "AccelerationScheme" "none"
[    17.371] (**) Cooler Master Technology Inc. CK530 Mouse: (accel) selected scheme none/0
[    17.371] (**) Cooler Master Technology Inc. CK530 Mouse: (accel) acceleration factor: 2.000
[    17.371] (**) Cooler Master Technology Inc. CK530 Mouse: (accel) acceleration threshold: 4
[    17.372] (II) event5  - Cooler Master Technology Inc. CK530 Mouse: is tagged by udev as: Mouse
[    17.372] (II) event5  - Cooler Master Technology Inc. CK530 Mouse: device is a pointer
[    17.372] (II) config/udev: Adding input device Cooler Master Technology Inc. CK530 Mouse (/dev/input/mouse0)
[    17.372] (II) No input driver specified, ignoring this device.
[    17.372] (II) This device may have been added with another device file.
[    17.372] (II) config/udev: Adding input device Cooler Master Technology Inc. CK530 Keyboard (/dev/input/event6)
[    17.372] (**) Cooler Master Technology Inc. CK530 Keyboard: Applying InputClass "evdev keyboard catchall"
[    17.372] (**) Cooler Master Technology Inc. CK530 Keyboard: Applying InputClass "libinput keyboard catchall"
[    17.372] (**) Cooler Master Technology Inc. CK530 Keyboard: Applying InputClass "evdev keyboard catchall"
[    17.372] (II) Using input driver 'evdev' for 'Cooler Master Technology Inc. CK530 Keyboard'
[    17.373] (II) systemd-logind: got fd for /dev/input/event6 13:70 fd 45 paused 0
[    17.373] (**) Cooler Master Technology Inc. CK530 Keyboard: always reports core events
[    17.373] (**) evdev: Cooler Master Technology Inc. CK530 Keyboard: Device: "/dev/input/event6"
[    17.373] (--) evdev: Cooler Master Technology Inc. CK530 Keyboard: Vendor 0x2516 Product 0x9f
[    17.373] (--) evdev: Cooler Master Technology Inc. CK530 Keyboard: Found keys
[    17.373] (II) evdev: Cooler Master Technology Inc. CK530 Keyboard: Configuring as keyboard
[    17.373] (**) Option "config_info" "udev:/sys/devices/pci0000:00/0000:00:08.1/0000:28:00.3/usb5/5-1/5-1.1/5-1.1:1.2/0003:2516:009F.0003/input/input6/event6"
[    17.373] (II) XINPUT: Adding extended input device "Cooler Master Technology Inc. CK530 Keyboard" (type: KEYBOARD, id 12)
[    17.373] (**) Option "xkb_rules" "evdev"
[    17.373] (**) Option "xkb_layout" "us"
[    17.373] (II) config/udev: Adding input device Logitech USB Optical Mouse (/dev/input/event7)
[    17.373] (**) Logitech USB Optical Mouse: Applying InputClass "evdev pointer catchall"
[    17.373] (**) Logitech USB Optical Mouse: Applying InputClass "libinput pointer catchall"
[    17.373] (II) Using input driver 'libinput' for 'Logitech USB Optical Mouse'
[    17.374] (II) systemd-logind: got fd for /dev/input/event7 13:71 fd 46 paused 0
[    17.374] (**) Logitech USB Optical Mouse: always reports core events
[    17.374] (**) Option "Device" "/dev/input/event7"
[    17.374] (II) event7  - Logitech USB Optical Mouse: is tagged by udev as: Mouse
[    17.374] (II) event7  - Logitech USB Optical Mouse: device is a pointer
[    17.374] (II) event7  - Logitech USB Optical Mouse: device removed
[    17.374] (**) Option "config_info" "udev:/sys/devices/pci0000:00/0000:00:08.1/0000:28:00.3/usb5/5-1/5-1.2/5-1.2:1.0/0003:046D:C077.0004/input/input7/event7"
[    17.374] (II) XINPUT: Adding extended input device "Logitech USB Optical Mouse" (type: MOUSE, id 13)
[    17.374] (**) Option "AccelerationScheme" "none"
[    17.374] (**) Logitech USB Optical Mouse: (accel) selected scheme none/0
[    17.374] (**) Logitech USB Optical Mouse: (accel) acceleration factor: 2.000
[    17.374] (**) Logitech USB Optical Mouse: (accel) acceleration threshold: 4
[    17.375] (II) event7  - Logitech USB Optical Mouse: is tagged by udev as: Mouse
[    17.375] (II) event7  - Logitech USB Optical Mouse: device is a pointer
[    17.375] (II) config/udev: Adding input device Logitech USB Optical Mouse (/dev/input/mouse1)
[    17.375] (II) No input driver specified, ignoring this device.
[    17.375] (II) This device may have been added with another device file.
[    17.375] (II) config/udev: Adding input device HD-Audio Generic Front Mic (/dev/input/event13)
[    17.375] (II) No input driver specified, ignoring this device.
[    17.375] (II) This device may have been added with another device file.
[    17.375] (II) config/udev: Adding input device HD-Audio Generic Rear Mic (/dev/input/event14)
[    17.375] (II) No input driver specified, ignoring this device.
[    17.375] (II) This device may have been added with another device file.
[    17.375] (II) config/udev: Adding input device HD-Audio Generic Line (/dev/input/event15)
[    17.375] (II) No input driver specified, ignoring this device.
[    17.375] (II) This device may have been added with another device file.
[    17.375] (II) config/udev: Adding input device HD-Audio Generic Line Out Front (/dev/input/event16)
[    17.375] (II) No input driver specified, ignoring this device.
[    17.375] (II) This device may have been added with another device file.
[    17.375] (II) config/udev: Adding input device HD-Audio Generic Line Out Surround (/dev/input/event17)
[    17.375] (II) No input driver specified, ignoring this device.
[    17.375] (II) This device may have been added with another device file.
[    17.375] (II) config/udev: Adding input device HD-Audio Generic Line Out CLFE (/dev/input/event18)
[    17.375] (II) No input driver specified, ignoring this device.
[    17.375] (II) This device may have been added with another device file.
[    17.375] (II) config/udev: Adding input device HD-Audio Generic Line Out Side (/dev/input/event19)
[    17.375] (II) No input driver specified, ignoring this device.
[    17.375] (II) This device may have been added with another device file.
[    17.375] (II) config/udev: Adding input device HD-Audio Generic Front Headphone (/dev/input/event20)
[    17.376] (II) No input driver specified, ignoring this device.
[    17.376] (II) This device may have been added with another device file.
[    17.376] (II) config/udev: Adding input device PC Speaker (/dev/input/event8)
[    17.376] (II) No input driver specified, ignoring this device.
[    17.376] (II) This device may have been added with another device file.
[    17.855] (--) NVIDIA(GPU-0): DFP-0: disconnected
[    17.855] (--) NVIDIA(GPU-0): DFP-0: Internal DisplayPort
[    17.855] (--) NVIDIA(GPU-0): DFP-0: 2660.0 MHz maximum pixel clock
[    17.855] (--) NVIDIA(GPU-0): 
[    17.855] (--) NVIDIA(GPU-0): DFP-1: disconnected
[    17.855] (--) NVIDIA(GPU-0): DFP-1: Internal TMDS
[    17.855] (--) NVIDIA(GPU-0): DFP-1: 165.0 MHz maximum pixel clock
[    17.855] (--) NVIDIA(GPU-0): 
[    17.855] (--) NVIDIA(GPU-0): DFP-2: disconnected
[    17.855] (--) NVIDIA(GPU-0): DFP-2: Internal TMDS
[    17.855] (--) NVIDIA(GPU-0): DFP-2: 165.0 MHz maximum pixel clock
[    17.855] (--) NVIDIA(GPU-0): 
[    17.855] (--) NVIDIA(GPU-0): DFP-3: disconnected
[    17.855] (--) NVIDIA(GPU-0): DFP-3: Internal DisplayPort
[    17.855] (--) NVIDIA(GPU-0): DFP-3: 2660.0 MHz maximum pixel clock
[    17.855] (--) NVIDIA(GPU-0): 
[    17.855] (--) NVIDIA(GPU-0): DFP-4: disconnected
[    17.855] (--) NVIDIA(GPU-0): DFP-4: Internal TMDS
[    17.855] (--) NVIDIA(GPU-0): DFP-4: 165.0 MHz maximum pixel clock
[    17.855] (--) NVIDIA(GPU-0): 
[    17.855] (--) NVIDIA(GPU-0): LG Electronics LG ULTRAWIDE (DFP-5): connected
[    17.855] (--) NVIDIA(GPU-0): LG Electronics LG ULTRAWIDE (DFP-5): Internal DisplayPort
[    17.855] (--) NVIDIA(GPU-0): LG Electronics LG ULTRAWIDE (DFP-5): 2660.0 MHz maximum pixel clock
[    17.856] (--) NVIDIA(GPU-0): 
[    17.860] (--) NVIDIA(GPU-0): DFP-6: disconnected
[    17.860] (--) NVIDIA(GPU-0): DFP-6: Internal TMDS
[    17.860] (--) NVIDIA(GPU-0): DFP-6: 165.0 MHz maximum pixel clock
[    17.860] (--) NVIDIA(GPU-0): 
[    18.844] (--) NVIDIA(GPU-0): DFP-0: disconnected
[    18.844] (--) NVIDIA(GPU-0): DFP-0: Internal DisplayPort
[    18.844] (--) NVIDIA(GPU-0): DFP-0: 2660.0 MHz maximum pixel clock
[    18.844] (--) NVIDIA(GPU-0): 
[    18.844] (--) NVIDIA(GPU-0): DFP-1: disconnected
[    18.844] (--) NVIDIA(GPU-0): DFP-1: Internal TMDS
[    18.844] (--) NVIDIA(GPU-0): DFP-1: 165.0 MHz maximum pixel clock
[    18.844] (--) NVIDIA(GPU-0): 
[    18.844] (--) NVIDIA(GPU-0): DFP-2: disconnected
[    18.844] (--) NVIDIA(GPU-0): DFP-2: Internal TMDS
[    18.844] (--) NVIDIA(GPU-0): DFP-2: 165.0 MHz maximum pixel clock
[    18.844] (--) NVIDIA(GPU-0): 
[    18.844] (--) NVIDIA(GPU-0): DFP-3: disconnected
[    18.844] (--) NVIDIA(GPU-0): DFP-3: Internal DisplayPort
[    18.844] (--) NVIDIA(GPU-0): DFP-3: 2660.0 MHz maximum pixel clock
[    18.844] (--) NVIDIA(GPU-0): 
[    18.844] (--) NVIDIA(GPU-0): DFP-4: disconnected
[    18.844] (--) NVIDIA(GPU-0): DFP-4: Internal TMDS
[    18.844] (--) NVIDIA(GPU-0): DFP-4: 165.0 MHz maximum pixel clock
[    18.844] (--) NVIDIA(GPU-0): 
[    18.844] (--) NVIDIA(GPU-0): LG Electronics LG ULTRAWIDE (DFP-5): connected
[    18.844] (--) NVIDIA(GPU-0): LG Electronics LG ULTRAWIDE (DFP-5): Internal DisplayPort
[    18.844] (--) NVIDIA(GPU-0): LG Electronics LG ULTRAWIDE (DFP-5): 2660.0 MHz maximum pixel clock
[    18.844] (--) NVIDIA(GPU-0): 
[    18.849] (--) NVIDIA(GPU-0): DFP-6: disconnected
[    18.849] (--) NVIDIA(GPU-0): DFP-6: Internal TMDS
[    18.849] (--) NVIDIA(GPU-0): DFP-6: 165.0 MHz maximum pixel clock
[    18.849] (--) NVIDIA(GPU-0): 
[    19.139] (--) NVIDIA(GPU-0): DFP-0: disconnected
[    19.139] (--) NVIDIA(GPU-0): DFP-0: Internal DisplayPort
[    19.139] (--) NVIDIA(GPU-0): DFP-0: 2660.0 MHz maximum pixel clock
[    19.139] (--) NVIDIA(GPU-0): 
[    19.139] (--) NVIDIA(GPU-0): DFP-1: disconnected
[    19.139] (--) NVIDIA(GPU-0): DFP-1: Internal TMDS
[    19.139] (--) NVIDIA(GPU-0): DFP-1: 165.0 MHz maximum pixel clock
[    19.139] (--) NVIDIA(GPU-0): 
[    19.139] (--) NVIDIA(GPU-0): DFP-2: disconnected
[    19.139] (--) NVIDIA(GPU-0): DFP-2: Internal TMDS
[    19.139] (--) NVIDIA(GPU-0): DFP-2: 165.0 MHz maximum pixel clock
[    19.139] (--) NVIDIA(GPU-0): 
[    19.139] (--) NVIDIA(GPU-0): DFP-3: disconnected
[    19.139] (--) NVIDIA(GPU-0): DFP-3: Internal DisplayPort
[    19.139] (--) NVIDIA(GPU-0): DFP-3: 2660.0 MHz maximum pixel clock
[    19.139] (--) NVIDIA(GPU-0): 
[    19.139] (--) NVIDIA(GPU-0): DFP-4: disconnected
[    19.139] (--) NVIDIA(GPU-0): DFP-4: Internal TMDS
[    19.139] (--) NVIDIA(GPU-0): DFP-4: 165.0 MHz maximum pixel clock
[    19.139] (--) NVIDIA(GPU-0): 
[    19.139] (--) NVIDIA(GPU-0): LG Electronics LG ULTRAWIDE (DFP-5): connected
[    19.139] (--) NVIDIA(GPU-0): LG Electronics LG ULTRAWIDE (DFP-5): Internal DisplayPort
[    19.139] (--) NVIDIA(GPU-0): LG Electronics LG ULTRAWIDE (DFP-5): 2660.0 MHz maximum pixel clock
[    19.139] (--) NVIDIA(GPU-0): 
[    19.144] (--) NVIDIA(GPU-0): DFP-6: disconnected
[    19.144] (--) NVIDIA(GPU-0): DFP-6: Internal TMDS
[    19.144] (--) NVIDIA(GPU-0): DFP-6: 165.0 MHz maximum pixel clock
[    19.144] (--) NVIDIA(GPU-0): 
[    23.991] (**) Option "fd" "42"
[    23.991] (II) event5  - Cooler Master Technology Inc. CK530 Mouse: device removed
[    23.991] (**) Option "fd" "46"
[    23.991] (II) event7  - Logitech USB Optical Mouse: device removed
[    24.102] (II) systemd-logind: got pause for 13:65
[    24.102] (II) systemd-logind: got pause for 13:70
[    24.102] (II) systemd-logind: got pause for 13:71
[    24.102] (II) systemd-logind: got pause for 13:66
[    24.102] (II) systemd-logind: got pause for 13:68
[    24.102] (II) systemd-logind: got pause for 13:64
[    24.102] (II) systemd-logind: got pause for 13:69
[    24.102] (II) systemd-logind: got pause for 13:67
[    28.021] (II) UnloadModule: "libinput"
[    28.021] (II) systemd-logind: releasing fd for 13:71
[    28.040] (II) evdev: Cooler Master Technology Inc. CK530 Keyboard: Close
[    28.040] (II) UnloadModule: "evdev"
[    28.040] (II) systemd-logind: releasing fd for 13:70
[    28.060] (II) UnloadModule: "libinput"
[    28.060] (II) systemd-logind: releasing fd for 13:69
[    28.084] (II) evdev: Cooler Master Technology Inc. CK530 Consumer Control: Close
[    28.084] (II) UnloadModule: "evdev"
[    28.084] (II) systemd-logind: releasing fd for 13:68
[    28.100] (II) evdev: Cooler Master Technology Inc. CK530 System Control: Close
[    28.100] (II) UnloadModule: "evdev"
[    28.100] (II) systemd-logind: releasing fd for 13:67
[    28.116] (II) evdev: Cooler Master Technology Inc. CK530: Close
[    28.116] (II) UnloadModule: "evdev"
[    28.116] (II) systemd-logind: releasing fd for 13:66
[    28.128] (II) evdev: Power Button: Close
[    28.128] (II) UnloadModule: "evdev"
[    28.128] (II) systemd-logind: releasing fd for 13:64
[    28.144] (II) evdev: Power Button: Close
[    28.144] (II) UnloadModule: "evdev"
[    28.144] (II) systemd-logind: releasing fd for 13:65
[    28.173] (II) NVIDIA(GPU-0): Deleting GPU-0
[    28.174] (II) Server terminated successfully (0). Closing log file.
