Sat Apr  8 10:12:48 2023
+-----------------------------------------------------------------------------+
| NVIDIA-SMI 515.76       Driver Version: 515.76       CUDA Version: 11.7     |
|-------------------------------+----------------------+----------------------+
| GPU  Name        Persistence-M| Bus-Id        Disp.A | Volatile Uncorr. ECC |
| Fan  Temp  Perf  Pwr:Usage/Cap|         Memory-Usage | GPU-Util  Compute M. |
|                               |                      |               MIG M. |
|===============================+======================+======================|
|   0  NVIDIA GeForce ...  Off  | 00000000:26:00.0  On |                  N/A |
|  0%   50C    P5    38W / 215W |    252MiB /  8192MiB |     40%      Default |
|                               |                      |                  N/A |
+-------------------------------+----------------------+----------------------+

+-----------------------------------------------------------------------------+
|  GPU   PID     USER    GPU MEM  %CPU  %MEM      TIME  COMMAND               |
|    0  1168     rdrg      59MiB   1.6   0.2     01:39  /gnu/store/zln2zybyi  |
|    0  2194     rdrg     191MiB  84.9   0.8     00:10  /gnu/store/f05a752hh  |
+-----------------------------------------------------------------------------+
