[    0.000000] Linux version 6.1.23 (guix@guix) (gcc (GCC) 10.3.0, GNU ld (GNU Binutils) 2.37) #1 SMP PREEMPT_DYNAMIC 1
[    0.000000] Command line: BOOT_IMAGE=/gnu/store/4rx684ikrxsrnjnfbx5hw6kkm8xpn28n-linux-6.1.23/bzImage root=5fdf4f83-3625-4a63-a65b-361da87376f0 gnu.system=/gnu/store/lv5isv0zlmmrqw6kf735pbh0jdz0sjdi-system gnu.load=/gnu/store/lv5isv0zlmmrqw6kf735pbh0jdz0sjdi-system/boot modprobe.blacklist=nouveau modprobe.blacklist=usbmouse,usbkbd quiet
[    0.000000] KERNEL supported cpus:
[    0.000000]   Intel GenuineIntel
[    0.000000]   AMD AuthenticAMD
[    0.000000]   Hygon HygonGenuine
[    0.000000]   Centaur CentaurHauls
[    0.000000]   zhaoxin   Shanghai  
[    0.000000] x86/fpu: Supporting XSAVE feature 0x001: 'x87 floating point registers'
[    0.000000] x86/fpu: Supporting XSAVE feature 0x002: 'SSE registers'
[    0.000000] x86/fpu: Supporting XSAVE feature 0x004: 'AVX registers'
[    0.000000] x86/fpu: xstate_offset[2]:  576, xstate_sizes[2]:  256
[    0.000000] x86/fpu: Enabled xstate features 0x7, context size is 832 bytes, using 'compacted' format.
[    0.000000] signal: max sigframe size: 1776
[    0.000000] BIOS-provided physical RAM map:
[    0.000000] BIOS-e820: [mem 0x0000000000000000-0x000000000009ffff] usable
[    0.000000] BIOS-e820: [mem 0x00000000000a0000-0x00000000000fffff] reserved
[    0.000000] BIOS-e820: [mem 0x0000000000100000-0x0000000009d81fff] usable
[    0.000000] BIOS-e820: [mem 0x0000000009d82000-0x0000000009ffffff] reserved
[    0.000000] BIOS-e820: [mem 0x000000000a000000-0x000000000a1fffff] usable
[    0.000000] BIOS-e820: [mem 0x000000000a200000-0x000000000a20bfff] ACPI NVS
[    0.000000] BIOS-e820: [mem 0x000000000a20c000-0x000000000affffff] usable
[    0.000000] BIOS-e820: [mem 0x000000000b000000-0x000000000b01ffff] reserved
[    0.000000] BIOS-e820: [mem 0x000000000b020000-0x00000000db5c2fff] usable
[    0.000000] BIOS-e820: [mem 0x00000000db5c3000-0x00000000db72ffff] reserved
[    0.000000] BIOS-e820: [mem 0x00000000db730000-0x00000000dbbb1fff] usable
[    0.000000] BIOS-e820: [mem 0x00000000dbbb2000-0x00000000dbcc8fff] ACPI NVS
[    0.000000] BIOS-e820: [mem 0x00000000dbcc9000-0x00000000dca01fff] reserved
[    0.000000] BIOS-e820: [mem 0x00000000dca02000-0x00000000dcaacfff] type 20
[    0.000000] BIOS-e820: [mem 0x00000000dcaad000-0x00000000deffffff] usable
[    0.000000] BIOS-e820: [mem 0x00000000df000000-0x00000000dfffffff] reserved
[    0.000000] BIOS-e820: [mem 0x00000000f8000000-0x00000000fbffffff] reserved
[    0.000000] BIOS-e820: [mem 0x00000000fd000000-0x00000000ffffffff] reserved
[    0.000000] BIOS-e820: [mem 0x0000000100000000-0x000000081f37ffff] usable
[    0.000000] NX (Execute Disable) protection: active
[    0.000000] efi: EFI v2.70 by American Megatrends
[    0.000000] efi: ACPI 2.0=0xdbc45000 ACPI=0xdbc45000 SMBIOS=0xdc8eb000 MEMATTR=0xd7fbb698 ESRT=0xd7fbcf98 
[    0.000000] SMBIOS 2.8 present.
[    0.000000] DMI: Micro-Star International Co., Ltd MS-7C02/B450 TOMAHAWK MAX (MS-7C02), BIOS 3.30 09/17/2019
[    0.000000] tsc: Fast TSC calibration failed
[    0.000000] e820: update [mem 0x00000000-0x00000fff] usable ==> reserved
[    0.000000] e820: remove [mem 0x000a0000-0x000fffff] usable
[    0.000000] last_pfn = 0x81f380 max_arch_pfn = 0x400000000
[    0.000000] x86/PAT: Configuration [0-7]: WB  WC  UC- UC  WB  WP  UC- WT  
[    0.000000] total RAM covered: 3583M
[    0.000000] Found optimal setting for mtrr clean up
[    0.000000]  gran_size: 64K 	chunk_size: 64M 	num_reg: 4  	lose cover RAM: 0G
[    0.000000] e820: update [mem 0xdc0b0000-0xdc0bffff] usable ==> reserved
[    0.000000] e820: update [mem 0xe0000000-0xffffffff] usable ==> reserved
[    0.000000] last_pfn = 0xdf000 max_arch_pfn = 0x400000000
[    0.000000] esrt: Reserving ESRT space from 0x00000000d7fbcf98 to 0x00000000d7fbcfd0.
[    0.000000] e820: update [mem 0xd7fbc000-0xd7fbcfff] usable ==> reserved
[    0.000000] Using GB pages for direct mapping
[    0.000000] Secure boot disabled
[    0.000000] RAMDISK: [mem 0x36407000-0x371fafff]
[    0.000000] ACPI: Early table checksum verification disabled
[    0.000000] ACPI: RSDP 0x00000000DBC45000 000024 (v02 ALASKA)
[    0.000000] ACPI: XSDT 0x00000000DBC450A0 0000BC (v01 ALASKA A M I    01072009 AMI  00010013)
[    0.000000] ACPI: FACP 0x00000000DBC4CD10 000114 (v06 ALASKA A M I    01072009 AMI  00010013)
[    0.000000] ACPI: DSDT 0x00000000DBC451F0 007B20 (v02 ALASKA A M I    01072009 INTL 20120913)
[    0.000000] ACPI: FACS 0x00000000DBCB1E00 000040
[    0.000000] ACPI: APIC 0x00000000DBC4CE28 00015E (v03 ALASKA A M I    01072009 AMI  00010013)
[    0.000000] ACPI: FPDT 0x00000000DBC4CF88 000044 (v01 ALASKA A M I    01072009 AMI  00010013)
[    0.000000] ACPI: FIDT 0x00000000DBC4CFD0 00009C (v01 ALASKA A M I    01072009 AMI  00010013)
[    0.000000] ACPI: SSDT 0x00000000DBC4D070 0000FC (v02 ALASKA CPUSSDT  01072009 AMI  01072009)
[    0.000000] ACPI: SSDT 0x00000000DBC4D170 008C98 (v02 AMD    AMD ALIB 00000002 MSFT 04000000)
[    0.000000] ACPI: SSDT 0x00000000DBC55E08 0032ED (v01 AMD    AMD AOD  00000001 INTL 20120913)
[    0.000000] ACPI: MCFG 0x00000000DBC590F8 00003C (v01 ALASKA A M I    01072009 MSFT 00010013)
[    0.000000] ACPI: HPET 0x00000000DBC59138 000038 (v01 ALASKA A M I    01072009 AMI  00000005)
[    0.000000] ACPI: UEFI 0x00000000DBC59170 000042 (v01 ALASKA A M I    00000002      01000013)
[    0.000000] ACPI: IVRS 0x00000000DBC591B8 0000D0 (v02 AMD    AMD IVRS 00000001 AMD  00000000)
[    0.000000] ACPI: PCCT 0x00000000DBC59288 00006E (v01 AMD    AMD PCCT 00000001 AMD  00000000)
[    0.000000] ACPI: SSDT 0x00000000DBC592F8 003EC9 (v01 AMD    AMD CPU  00000001 AMD  00000001)
[    0.000000] ACPI: CRAT 0x00000000DBC5D1C8 001558 (v01 AMD    AMD CRAT 00000001 AMD  00000001)
[    0.000000] ACPI: CDIT 0x00000000DBC5E720 000029 (v01 AMD    AMD CDIT 00000001 AMD  00000001)
[    0.000000] ACPI: BGRT 0x00000000DBC5E750 000038 (v01 ALASKA A M I    01072009 AMI  00010013)
[    0.000000] ACPI: SSDT 0x00000000DBC5E788 001D4A (v01 AMD    AmdTable 00000001 INTL 20120913)
[    0.000000] ACPI: SSDT 0x00000000DBC604D8 0000BF (v01 AMD    AMD PT   00001000 INTL 20120913)
[    0.000000] ACPI: WSMT 0x00000000DBC60598 000028 (v01 ALASKA A M I    01072009 AMI  00010013)
[    0.000000] ACPI: Reserving FACP table memory at [mem 0xdbc4cd10-0xdbc4ce23]
[    0.000000] ACPI: Reserving DSDT table memory at [mem 0xdbc451f0-0xdbc4cd0f]
[    0.000000] ACPI: Reserving FACS table memory at [mem 0xdbcb1e00-0xdbcb1e3f]
[    0.000000] ACPI: Reserving APIC table memory at [mem 0xdbc4ce28-0xdbc4cf85]
[    0.000000] ACPI: Reserving FPDT table memory at [mem 0xdbc4cf88-0xdbc4cfcb]
[    0.000000] ACPI: Reserving FIDT table memory at [mem 0xdbc4cfd0-0xdbc4d06b]
[    0.000000] ACPI: Reserving SSDT table memory at [mem 0xdbc4d070-0xdbc4d16b]
[    0.000000] ACPI: Reserving SSDT table memory at [mem 0xdbc4d170-0xdbc55e07]
[    0.000000] ACPI: Reserving SSDT table memory at [mem 0xdbc55e08-0xdbc590f4]
[    0.000000] ACPI: Reserving MCFG table memory at [mem 0xdbc590f8-0xdbc59133]
[    0.000000] ACPI: Reserving HPET table memory at [mem 0xdbc59138-0xdbc5916f]
[    0.000000] ACPI: Reserving UEFI table memory at [mem 0xdbc59170-0xdbc591b1]
[    0.000000] ACPI: Reserving IVRS table memory at [mem 0xdbc591b8-0xdbc59287]
[    0.000000] ACPI: Reserving PCCT table memory at [mem 0xdbc59288-0xdbc592f5]
[    0.000000] ACPI: Reserving SSDT table memory at [mem 0xdbc592f8-0xdbc5d1c0]
[    0.000000] ACPI: Reserving CRAT table memory at [mem 0xdbc5d1c8-0xdbc5e71f]
[    0.000000] ACPI: Reserving CDIT table memory at [mem 0xdbc5e720-0xdbc5e748]
[    0.000000] ACPI: Reserving BGRT table memory at [mem 0xdbc5e750-0xdbc5e787]
[    0.000000] ACPI: Reserving SSDT table memory at [mem 0xdbc5e788-0xdbc604d1]
[    0.000000] ACPI: Reserving SSDT table memory at [mem 0xdbc604d8-0xdbc60596]
[    0.000000] ACPI: Reserving WSMT table memory at [mem 0xdbc60598-0xdbc605bf]
[    0.000000] No NUMA configuration found
[    0.000000] Faking a node at [mem 0x0000000000000000-0x000000081f37ffff]
[    0.000000] NODE_DATA(0) allocated [mem 0x81f37a000-0x81f37ffff]
[    0.000000] Zone ranges:
[    0.000000]   DMA      [mem 0x0000000000001000-0x0000000000ffffff]
[    0.000000]   DMA32    [mem 0x0000000001000000-0x00000000ffffffff]
[    0.000000]   Normal   [mem 0x0000000100000000-0x000000081f37ffff]
[    0.000000]   Device   empty
[    0.000000] Movable zone start for each node
[    0.000000] Early memory node ranges
[    0.000000]   node   0: [mem 0x0000000000001000-0x000000000009ffff]
[    0.000000]   node   0: [mem 0x0000000000100000-0x0000000009d81fff]
[    0.000000]   node   0: [mem 0x000000000a000000-0x000000000a1fffff]
[    0.000000]   node   0: [mem 0x000000000a20c000-0x000000000affffff]
[    0.000000]   node   0: [mem 0x000000000b020000-0x00000000db5c2fff]
[    0.000000]   node   0: [mem 0x00000000db730000-0x00000000dbbb1fff]
[    0.000000]   node   0: [mem 0x00000000dcaad000-0x00000000deffffff]
[    0.000000]   node   0: [mem 0x0000000100000000-0x000000081f37ffff]
[    0.000000] Initmem setup node 0 [mem 0x0000000000001000-0x000000081f37ffff]
[    0.000000] On node 0, zone DMA: 1 pages in unavailable ranges
[    0.000000] On node 0, zone DMA: 96 pages in unavailable ranges
[    0.000000] On node 0, zone DMA32: 638 pages in unavailable ranges
[    0.000000] On node 0, zone DMA32: 12 pages in unavailable ranges
[    0.000000] On node 0, zone DMA32: 32 pages in unavailable ranges
[    0.000000] On node 0, zone DMA32: 365 pages in unavailable ranges
[    0.000000] On node 0, zone DMA32: 3835 pages in unavailable ranges
[    0.000000] On node 0, zone Normal: 4096 pages in unavailable ranges
[    0.000000] On node 0, zone Normal: 3200 pages in unavailable ranges
[    0.000000] ACPI: PM-Timer IO Port: 0x808
[    0.000000] ACPI: LAPIC_NMI (acpi_id[0xff] high edge lint[0x1])
[    0.000000] IOAPIC[0]: apic_id 17, version 33, address 0xfec00000, GSI 0-23
[    0.000000] IOAPIC[1]: apic_id 18, version 33, address 0xfec01000, GSI 24-55
[    0.000000] ACPI: INT_SRC_OVR (bus 0 bus_irq 0 global_irq 2 dfl dfl)
[    0.000000] ACPI: INT_SRC_OVR (bus 0 bus_irq 9 global_irq 9 low level)
[    0.000000] ACPI: Using ACPI (MADT) for SMP configuration information
[    0.000000] ACPI: HPET id: 0x10228201 base: 0xfed00000
[    0.000000] e820: update [mem 0xd7f21000-0xd7f7dfff] usable ==> reserved
[    0.000000] smpboot: Allowing 16 CPUs, 0 hotplug CPUs
[    0.000000] PM: hibernation: Registered nosave memory: [mem 0x00000000-0x00000fff]
[    0.000000] PM: hibernation: Registered nosave memory: [mem 0x000a0000-0x000fffff]
[    0.000000] PM: hibernation: Registered nosave memory: [mem 0x09d82000-0x09ffffff]
[    0.000000] PM: hibernation: Registered nosave memory: [mem 0x0a200000-0x0a20bfff]
[    0.000000] PM: hibernation: Registered nosave memory: [mem 0x0b000000-0x0b01ffff]
[    0.000000] PM: hibernation: Registered nosave memory: [mem 0xd7f21000-0xd7f7dfff]
[    0.000000] PM: hibernation: Registered nosave memory: [mem 0xd7fbc000-0xd7fbcfff]
[    0.000000] PM: hibernation: Registered nosave memory: [mem 0xdb5c3000-0xdb72ffff]
[    0.000000] PM: hibernation: Registered nosave memory: [mem 0xdbbb2000-0xdbcc8fff]
[    0.000000] PM: hibernation: Registered nosave memory: [mem 0xdbcc9000-0xdca01fff]
[    0.000000] PM: hibernation: Registered nosave memory: [mem 0xdca02000-0xdcaacfff]
[    0.000000] PM: hibernation: Registered nosave memory: [mem 0xdf000000-0xdfffffff]
[    0.000000] PM: hibernation: Registered nosave memory: [mem 0xe0000000-0xf7ffffff]
[    0.000000] PM: hibernation: Registered nosave memory: [mem 0xf8000000-0xfbffffff]
[    0.000000] PM: hibernation: Registered nosave memory: [mem 0xfc000000-0xfcffffff]
[    0.000000] PM: hibernation: Registered nosave memory: [mem 0xfd000000-0xffffffff]
[    0.000000] [mem 0xe0000000-0xf7ffffff] available for PCI devices
[    0.000000] Booting paravirtualized kernel on bare hardware
[    0.000000] clocksource: refined-jiffies: mask: 0xffffffff max_cycles: 0xffffffff, max_idle_ns: 7645519600211568 ns
[    0.000000] setup_percpu: NR_CPUS:256 nr_cpumask_bits:16 nr_cpu_ids:16 nr_node_ids:1
[    0.000000] percpu: Embedded 57 pages/cpu s193960 r8192 d31320 u262144
[    0.000000] pcpu-alloc: s193960 r8192 d31320 u262144 alloc=1*2097152
[    0.000000] pcpu-alloc: [0] 00 01 02 03 04 05 06 07 [0] 08 09 10 11 12 13 14 15 
[    0.000000] Fallback order for Node 0: 0 
[    0.000000] Built 1 zonelists, mobility grouping on.  Total pages: 8245292
[    0.000000] Policy zone: Normal
[    0.000000] Kernel command line: BOOT_IMAGE=/gnu/store/4rx684ikrxsrnjnfbx5hw6kkm8xpn28n-linux-6.1.23/bzImage root=5fdf4f83-3625-4a63-a65b-361da87376f0 gnu.system=/gnu/store/lv5isv0zlmmrqw6kf735pbh0jdz0sjdi-system gnu.load=/gnu/store/lv5isv0zlmmrqw6kf735pbh0jdz0sjdi-system/boot modprobe.blacklist=nouveau modprobe.blacklist=usbmouse,usbkbd quiet
[    0.000000] Unknown kernel command line parameters "BOOT_IMAGE=/gnu/store/4rx684ikrxsrnjnfbx5hw6kkm8xpn28n-linux-6.1.23/bzImage", will be passed to user space.
[    0.000000] random: crng init done
[    0.000000] Dentry cache hash table entries: 4194304 (order: 13, 33554432 bytes, linear)
[    0.000000] Inode-cache hash table entries: 2097152 (order: 12, 16777216 bytes, linear)
[    0.000000] mem auto-init: stack:byref_all(zero), heap alloc:on, heap free:off
[    0.000000] software IO TLB: area num 16.
[    0.000000] Memory: 32705932K/33505332K available (16392K kernel code, 2810K rwdata, 4972K rodata, 2676K init, 2548K bss, 799140K reserved, 0K cma-reserved)
[    0.000000] SLUB: HWalign=64, Order=0-3, MinObjects=0, CPUs=16, Nodes=1
[    0.000000] ftrace: allocating 47480 entries in 186 pages
[    0.000000] ftrace: allocated 186 pages with 5 groups
[    0.000000] Dynamic Preempt: voluntary
[    0.000000] rcu: Preemptible hierarchical RCU implementation.
[    0.000000] rcu: 	RCU restricting CPUs from NR_CPUS=256 to nr_cpu_ids=16.
[    0.000000] 	Trampoline variant of Tasks RCU enabled.
[    0.000000] 	Rude variant of Tasks RCU enabled.
[    0.000000] 	Tracing variant of Tasks RCU enabled.
[    0.000000] rcu: RCU calculated value of scheduler-enlistment delay is 25 jiffies.
[    0.000000] rcu: Adjusting geometry for rcu_fanout_leaf=16, nr_cpu_ids=16
[    0.000000] NR_IRQS: 16640, nr_irqs: 1096, preallocated irqs: 16
[    0.000000] rcu: srcu_init: Setting srcu_struct sizes based on contention.
[    0.000000] Console: colour dummy device 80x25
[    0.000000] printk: console [tty0] enabled
[    0.000000] ACPI: Core revision 20220331
[    0.000000] clocksource: hpet: mask: 0xffffffff max_cycles: 0xffffffff, max_idle_ns: 133484873504 ns
[    0.000000] APIC: Switch to symmetric I/O mode setup
[    0.000000] AMD-Vi: Using global IVHD EFR:0x58f77ef22294ade, EFR2:0x0
[    0.000000] Switched APIC routing to physical flat.
[    0.000000] ..TIMER: vector=0x30 apic1=0 pin1=2 apic2=-1 pin2=-1
[    0.028000] tsc: PIT calibration matches HPET. 2 loops
[    0.028000] tsc: Detected 3600.011 MHz processor
[    0.000002] clocksource: tsc-early: mask: 0xffffffffffffffff max_cycles: 0x33e45d8079c, max_idle_ns: 440795324677 ns
[    0.000005] Calibrating delay loop (skipped), value calculated using timer frequency.. 7200.02 BogoMIPS (lpj=14400044)
[    0.000007] pid_max: default: 32768 minimum: 301
[    0.003528] LSM: Security Framework initializing
[    0.003534] Yama: becoming mindful.
[    0.003552] AppArmor: AppArmor initialized
[    0.003553] TOMOYO Linux initialized
[    0.003612] Mount-cache hash table entries: 65536 (order: 7, 524288 bytes, linear)
[    0.003652] Mountpoint-cache hash table entries: 65536 (order: 7, 524288 bytes, linear)
[    0.003813] x86/cpu: User Mode Instruction Prevention (UMIP) activated
[    0.003908] LVT offset 2 assigned for vector 0xf4
[    0.003932] process: using mwait in idle threads
[    0.003933] Last level iTLB entries: 4KB 1024, 2MB 1024, 4MB 512
[    0.003934] Last level dTLB entries: 4KB 2048, 2MB 2048, 4MB 1024, 1GB 0
[    0.003937] Spectre V1 : Mitigation: usercopy/swapgs barriers and __user pointer sanitization
[    0.003939] Spectre V2 : Mitigation: Retpolines
[    0.003940] Spectre V2 : Spectre v2 / SpectreRSB mitigation: Filling RSB on context switch
[    0.003940] Spectre V2 : Spectre v2 / SpectreRSB : Filling RSB on VMEXIT
[    0.003941] Spectre V2 : Enabling Speculation Barrier for firmware calls
[    0.003941] RETBleed: Mitigation: untrained return thunk
[    0.003943] Spectre V2 : mitigation: Enabling conditional Indirect Branch Prediction Barrier
[    0.003943] Spectre V2 : User space: Mitigation: STIBP always-on protection
[    0.003945] Speculative Store Bypass: Mitigation: Speculative Store Bypass disabled via prctl
[    0.011141] Freeing SMP alternatives memory: 40K
[    0.121047] smpboot: CPU0: AMD Ryzen 7 3700X 8-Core Processor (family: 0x17, model: 0x71, stepping: 0x0)
[    0.121119] cblist_init_generic: Setting adjustable number of callback queues.
[    0.121121] cblist_init_generic: Setting shift to 4 and lim to 1.
[    0.121130] cblist_init_generic: Setting shift to 4 and lim to 1.
[    0.121139] cblist_init_generic: Setting shift to 4 and lim to 1.
[    0.121149] Performance Events: Fam17h+ core perfctr, AMD PMU driver.
[    0.121152] ... version:                0
[    0.121153] ... bit width:              48
[    0.121153] ... generic registers:      6
[    0.121154] ... value mask:             0000ffffffffffff
[    0.121154] ... max period:             00007fffffffffff
[    0.121155] ... fixed-purpose events:   0
[    0.121155] ... event mask:             000000000000003f
[    0.121213] rcu: Hierarchical SRCU implementation.
[    0.121214] rcu: 	Max phase no-delay instances is 1000.
[    0.121530] NMI watchdog: Enabled. Permanently consumes one hw-PMU counter.
[    0.121612] smp: Bringing up secondary CPUs ...
[    0.121664] x86: Booting SMP configuration:
[    0.121664] .... node  #0, CPUs:        #1  #2  #3  #4  #5  #6  #7  #8
[    0.138227] Spectre V2 : Update user space SMT mitigation: STIBP always-on
[    0.138227]   #9 #10 #11 #12 #13 #14 #15
[    0.154210] smp: Brought up 1 node, 16 CPUs
[    0.154210] smpboot: Max logical packages: 1
[    0.154210] smpboot: Total of 16 processors activated (115200.35 BogoMIPS)
[    0.157010] devtmpfs: initialized
[    0.157010] x86/mm: Memory block size: 128MB
[    0.157539] ACPI: PM: Registering ACPI NVS region [mem 0x0a200000-0x0a20bfff] (49152 bytes)
[    0.157539] ACPI: PM: Registering ACPI NVS region [mem 0xdbbb2000-0xdbcc8fff] (1142784 bytes)
[    0.157539] clocksource: jiffies: mask: 0xffffffff max_cycles: 0xffffffff, max_idle_ns: 7645041785100000 ns
[    0.157539] futex hash table entries: 4096 (order: 6, 262144 bytes, linear)
[    0.157539] pinctrl core: initialized pinctrl subsystem
[    0.157539] PM: RTC time: 15:10:32, date: 2023-04-08
[    0.157539] NET: Registered PF_NETLINK/PF_ROUTE protocol family
[    0.157539] audit: initializing netlink subsys (disabled)
[    0.157539] audit: type=2000 audit(1680966632.184:1): state=initialized audit_enabled=0 res=1
[    0.157539] thermal_sys: Registered thermal governor 'fair_share'
[    0.157539] thermal_sys: Registered thermal governor 'bang_bang'
[    0.157539] thermal_sys: Registered thermal governor 'step_wise'
[    0.157539] thermal_sys: Registered thermal governor 'user_space'
[    0.157539] cpuidle: using governor ladder
[    0.157539] cpuidle: using governor menu
[    0.157539] Detected 1 PCC Subspaces
[    0.157539] Registering PCC driver as Mailbox controller
[    0.157539] acpiphp: ACPI Hot Plug PCI Controller Driver version: 0.5
[    0.157539] PCI: MMCONFIG for domain 0000 [bus 00-3f] at [mem 0xf8000000-0xfbffffff] (base 0xf8000000)
[    0.157539] PCI: MMCONFIG at [mem 0xf8000000-0xfbffffff] reserved in E820
[    0.157539] PCI: Using configuration type 1 for base access
[    0.160709] kprobes: kprobe jump-optimization is enabled. All kprobes are optimized if possible.
[    0.160714] HugeTLB: registered 1.00 GiB page size, pre-allocated 0 pages
[    0.160714] HugeTLB: 16380 KiB vmemmap can be freed for a 1.00 GiB page
[    0.160714] HugeTLB: registered 2.00 MiB page size, pre-allocated 0 pages
[    0.160714] HugeTLB: 28 KiB vmemmap can be freed for a 2.00 MiB page
[    0.160714] ACPI: Added _OSI(Module Device)
[    0.160714] ACPI: Added _OSI(Processor Device)
[    0.160714] ACPI: Added _OSI(3.0 _SCP Extensions)
[    0.160714] ACPI: Added _OSI(Processor Aggregator Device)
[    0.166858] ACPI: 7 ACPI AML tables successfully acquired and loaded
[    0.168044] ACPI: [Firmware Bug]: BIOS _OSI(Linux) query ignored
[    0.179998] ACPI: Interpreter enabled
[    0.179998] ACPI: PM: (supports S0 S3 S4 S5)
[    0.179998] ACPI: Using IOAPIC for interrupt routing
[    0.179998] PCI: Using host bridge windows from ACPI; if necessary, use "pci=nocrs" and report a bug
[    0.179998] PCI: Using E820 reservations for host bridge windows
[    0.179998] ACPI: Enabled 2 GPEs in block 00 to 1F
[    0.183961] ACPI: PCI Root Bridge [PCI0] (domain 0000 [bus 00-ff])
[    0.183966] acpi PNP0A08:00: _OSC: OS supports [ExtendedConfig ASPM ClockPM Segments MSI HPX-Type3]
[    0.184014] acpi PNP0A08:00: _OSC: platform does not support [SHPCHotplug PME LTR]
[    0.184093] acpi PNP0A08:00: _OSC: OS now controls [PCIeHotplug AER PCIeCapability]
[    0.184099] acpi PNP0A08:00: [Firmware Info]: MMCONFIG for domain 0000 [bus 00-3f] only partially covers this bridge
[    0.184344] PCI host bridge to bus 0000:00
[    0.184345] pci_bus 0000:00: root bus resource [io  0x0000-0x03af window]
[    0.184347] pci_bus 0000:00: root bus resource [io  0x03e0-0x0cf7 window]
[    0.184348] pci_bus 0000:00: root bus resource [io  0x03b0-0x03df window]
[    0.184348] pci_bus 0000:00: root bus resource [io  0x0d00-0xffff window]
[    0.184349] pci_bus 0000:00: root bus resource [mem 0x000a0000-0x000dffff window]
[    0.184350] pci_bus 0000:00: root bus resource [mem 0xe0000000-0xfec2ffff window]
[    0.184351] pci_bus 0000:00: root bus resource [mem 0xfee00000-0xffffffff window]
[    0.184352] pci_bus 0000:00: root bus resource [bus 00-ff]
[    0.184366] pci 0000:00:00.0: [1022:1480] type 00 class 0x060000
[    0.184448] pci 0000:00:00.2: [1022:1481] type 00 class 0x080600
[    0.184526] pci 0000:00:01.0: [1022:1482] type 00 class 0x060000
[    0.184579] pci 0000:00:01.1: [1022:1483] type 01 class 0x060400
[    0.184609] pci 0000:00:01.1: enabling Extended Tags
[    0.184666] pci 0000:00:01.1: PME# supported from D0 D3hot D3cold
[    0.184831] pci 0000:00:01.3: [1022:1483] type 01 class 0x060400
[    0.184861] pci 0000:00:01.3: enabling Extended Tags
[    0.184919] pci 0000:00:01.3: PME# supported from D0 D3hot D3cold
[    0.185095] pci 0000:00:02.0: [1022:1482] type 00 class 0x060000
[    0.185151] pci 0000:00:03.0: [1022:1482] type 00 class 0x060000
[    0.185204] pci 0000:00:03.2: [1022:1483] type 01 class 0x060400
[    0.185287] pci 0000:00:03.2: PME# supported from D0 D3hot D3cold
[    0.185448] pci 0000:00:04.0: [1022:1482] type 00 class 0x060000
[    0.185506] pci 0000:00:05.0: [1022:1482] type 00 class 0x060000
[    0.185561] pci 0000:00:07.0: [1022:1482] type 00 class 0x060000
[    0.185611] pci 0000:00:07.1: [1022:1484] type 01 class 0x060400
[    0.185635] pci 0000:00:07.1: enabling Extended Tags
[    0.185670] pci 0000:00:07.1: PME# supported from D0 D3hot D3cold
[    0.185751] pci 0000:00:08.0: [1022:1482] type 00 class 0x060000
[    0.185801] pci 0000:00:08.1: [1022:1484] type 01 class 0x060400
[    0.185827] pci 0000:00:08.1: enabling Extended Tags
[    0.185864] pci 0000:00:08.1: PME# supported from D0 D3hot D3cold
[    0.185950] pci 0000:00:08.2: [1022:1484] type 01 class 0x060400
[    0.185976] pci 0000:00:08.2: enabling Extended Tags
[    0.186013] pci 0000:00:08.2: PME# supported from D0 D3hot D3cold
[    0.186096] pci 0000:00:08.3: [1022:1484] type 01 class 0x060400
[    0.186122] pci 0000:00:08.3: enabling Extended Tags
[    0.186159] pci 0000:00:08.3: PME# supported from D0 D3hot D3cold
[    0.186256] pci 0000:00:14.0: [1022:790b] type 00 class 0x0c0500
[    0.186355] pci 0000:00:14.3: [1022:790e] type 00 class 0x060100
[    0.186463] pci 0000:00:18.0: [1022:1440] type 00 class 0x060000
[    0.186488] pci 0000:00:18.1: [1022:1441] type 00 class 0x060000
[    0.186513] pci 0000:00:18.2: [1022:1442] type 00 class 0x060000
[    0.186538] pci 0000:00:18.3: [1022:1443] type 00 class 0x060000
[    0.186564] pci 0000:00:18.4: [1022:1444] type 00 class 0x060000
[    0.186588] pci 0000:00:18.5: [1022:1445] type 00 class 0x060000
[    0.186615] pci 0000:00:18.6: [1022:1446] type 00 class 0x060000
[    0.186640] pci 0000:00:18.7: [1022:1447] type 00 class 0x060000
[    0.186716] pci 0000:01:00.0: [144d:a808] type 00 class 0x010802
[    0.186736] pci 0000:01:00.0: reg 0x10: [mem 0xf7900000-0xf7903fff 64bit]
[    0.186994] pci 0000:00:01.1: PCI bridge to [bus 01]
[    0.186999] pci 0000:00:01.1:   bridge window [mem 0xf7900000-0xf79fffff]
[    0.187055] pci 0000:03:00.0: [1022:43d5] type 00 class 0x0c0330
[    0.187074] pci 0000:03:00.0: reg 0x10: [mem 0xf76a0000-0xf76a7fff 64bit]
[    0.187119] pci 0000:03:00.0: enabling Extended Tags
[    0.187177] pci 0000:03:00.0: PME# supported from D3hot D3cold
[    0.187315] pci 0000:03:00.1: [1022:43c8] type 00 class 0x010601
[    0.187368] pci 0000:03:00.1: reg 0x24: [mem 0xf7680000-0xf769ffff]
[    0.187376] pci 0000:03:00.1: reg 0x30: [mem 0xf7600000-0xf767ffff pref]
[    0.187383] pci 0000:03:00.1: enabling Extended Tags
[    0.187427] pci 0000:03:00.1: PME# supported from D3hot D3cold
[    0.187501] pci 0000:03:00.2: [1022:43c6] type 01 class 0x060400
[    0.187550] pci 0000:03:00.2: enabling Extended Tags
[    0.187598] pci 0000:03:00.2: PME# supported from D3hot D3cold
[    0.187696] pci 0000:00:01.3: PCI bridge to [bus 03-25]
[    0.187700] pci 0000:00:01.3:   bridge window [io  0xf000-0xffff]
[    0.187702] pci 0000:00:01.3:   bridge window [mem 0xf7500000-0xf76fffff]
[    0.187780] pci 0000:20:00.0: [1022:43c7] type 01 class 0x060400
[    0.187832] pci 0000:20:00.0: enabling Extended Tags
[    0.187896] pci 0000:20:00.0: PME# supported from D3hot D3cold
[    0.188007] pci 0000:20:01.0: [1022:43c7] type 01 class 0x060400
[    0.188060] pci 0000:20:01.0: enabling Extended Tags
[    0.188122] pci 0000:20:01.0: PME# supported from D3hot D3cold
[    0.188239] pci 0000:20:04.0: [1022:43c7] type 01 class 0x060400
[    0.188291] pci 0000:20:04.0: enabling Extended Tags
[    0.188353] pci 0000:20:04.0: PME# supported from D3hot D3cold
[    0.188475] pci 0000:03:00.2: PCI bridge to [bus 20-25]
[    0.188480] pci 0000:03:00.2:   bridge window [io  0xf000-0xffff]
[    0.188483] pci 0000:03:00.2:   bridge window [mem 0xf7500000-0xf75fffff]
[    0.188525] pci 0000:20:00.0: PCI bridge to [bus 21]
[    0.188598] pci 0000:22:00.0: [10ec:8168] type 00 class 0x020000
[    0.188622] pci 0000:22:00.0: reg 0x10: [io  0xf000-0xf0ff]
[    0.188653] pci 0000:22:00.0: reg 0x18: [mem 0xf7504000-0xf7504fff 64bit]
[    0.188673] pci 0000:22:00.0: reg 0x20: [mem 0xf7500000-0xf7503fff 64bit]
[    0.188827] pci 0000:22:00.0: supports D1 D2
[    0.188828] pci 0000:22:00.0: PME# supported from D0 D1 D2 D3hot D3cold
[    0.189088] pci 0000:20:01.0: PCI bridge to [bus 22]
[    0.189093] pci 0000:20:01.0:   bridge window [io  0xf000-0xffff]
[    0.189096] pci 0000:20:01.0:   bridge window [mem 0xf7500000-0xf75fffff]
[    0.189140] pci 0000:20:04.0: PCI bridge to [bus 25]
[    0.189215] pci 0000:26:00.0: [10de:1e84] type 00 class 0x030000
[    0.189230] pci 0000:26:00.0: reg 0x10: [mem 0xf6000000-0xf6ffffff]
[    0.189243] pci 0000:26:00.0: reg 0x14: [mem 0xe0000000-0xefffffff 64bit pref]
[    0.189255] pci 0000:26:00.0: reg 0x1c: [mem 0xf0000000-0xf1ffffff 64bit pref]
[    0.189263] pci 0000:26:00.0: reg 0x24: [io  0xe000-0xe07f]
[    0.189272] pci 0000:26:00.0: reg 0x30: [mem 0xf7000000-0xf707ffff pref]
[    0.189290] pci 0000:26:00.0: BAR 1: assigned to efifb
[    0.189343] pci 0000:26:00.0: PME# supported from D0 D3hot D3cold
[    0.189433] pci 0000:26:00.0: 16.000 Gb/s available PCIe bandwidth, limited by 2.5 GT/s PCIe x8 link at 0000:00:03.2 (capable of 126.016 Gb/s with 8.0 GT/s PCIe x16 link)
[    0.189539] pci 0000:26:00.1: [10de:10f8] type 00 class 0x040300
[    0.189551] pci 0000:26:00.1: reg 0x10: [mem 0xf7080000-0xf7083fff]
[    0.189688] pci 0000:26:00.2: [10de:1ad8] type 00 class 0x0c0330
[    0.189707] pci 0000:26:00.2: reg 0x10: [mem 0xf2000000-0xf203ffff 64bit pref]
[    0.189727] pci 0000:26:00.2: reg 0x1c: [mem 0xf2040000-0xf204ffff 64bit pref]
[    0.189789] pci 0000:26:00.2: PME# supported from D0 D3hot D3cold
[    0.189851] pci 0000:26:00.3: [10de:1ad9] type 00 class 0x0c8000
[    0.189864] pci 0000:26:00.3: reg 0x10: [mem 0xf7084000-0xf7084fff]
[    0.189943] pci 0000:26:00.3: PME# supported from D0 D3hot D3cold
[    0.190034] pci 0000:00:03.2: PCI bridge to [bus 26]
[    0.190038] pci 0000:00:03.2:   bridge window [io  0xe000-0xefff]
[    0.190040] pci 0000:00:03.2:   bridge window [mem 0xf6000000-0xf70fffff]
[    0.190044] pci 0000:00:03.2:   bridge window [mem 0xe0000000-0xf20fffff 64bit pref]
[    0.190078] pci 0000:27:00.0: [1022:148a] type 00 class 0x130000
[    0.190107] pci 0000:27:00.0: enabling Extended Tags
[    0.190219] pci 0000:00:07.1: PCI bridge to [bus 27]
[    0.190267] pci 0000:28:00.0: [1022:1485] type 00 class 0x130000
[    0.190300] pci 0000:28:00.0: enabling Extended Tags
[    0.190421] pci 0000:28:00.1: [1022:1486] type 00 class 0x108000
[    0.190437] pci 0000:28:00.1: reg 0x18: [mem 0xf7300000-0xf73fffff]
[    0.190449] pci 0000:28:00.1: reg 0x24: [mem 0xf7408000-0xf7409fff]
[    0.190457] pci 0000:28:00.1: enabling Extended Tags
[    0.190547] pci 0000:28:00.3: [1022:149c] type 00 class 0x0c0330
[    0.190560] pci 0000:28:00.3: reg 0x10: [mem 0xf7200000-0xf72fffff 64bit]
[    0.190591] pci 0000:28:00.3: enabling Extended Tags
[    0.190630] pci 0000:28:00.3: PME# supported from D0 D3hot D3cold
[    0.190697] pci 0000:28:00.4: [1022:1487] type 00 class 0x040300
[    0.190706] pci 0000:28:00.4: reg 0x10: [mem 0xf7400000-0xf7407fff]
[    0.190733] pci 0000:28:00.4: enabling Extended Tags
[    0.190770] pci 0000:28:00.4: PME# supported from D0 D3hot D3cold
[    0.190842] pci 0000:00:08.1: PCI bridge to [bus 28]
[    0.190847] pci 0000:00:08.1:   bridge window [mem 0xf7200000-0xf74fffff]
[    0.190889] pci 0000:30:00.0: [1022:7901] type 00 class 0x010601
[    0.190925] pci 0000:30:00.0: reg 0x24: [mem 0xf7800000-0xf78007ff]
[    0.190935] pci 0000:30:00.0: enabling Extended Tags
[    0.190986] pci 0000:30:00.0: PME# supported from D3hot D3cold
[    0.191085] pci 0000:00:08.2: PCI bridge to [bus 30]
[    0.191090] pci 0000:00:08.2:   bridge window [mem 0xf7800000-0xf78fffff]
[    0.191129] pci 0000:31:00.0: [1022:7901] type 00 class 0x010601
[    0.191164] pci 0000:31:00.0: reg 0x24: [mem 0xf7700000-0xf77007ff]
[    0.191175] pci 0000:31:00.0: enabling Extended Tags
[    0.191226] pci 0000:31:00.0: PME# supported from D3hot D3cold
[    0.191325] pci 0000:00:08.3: PCI bridge to [bus 31]
[    0.191329] pci 0000:00:08.3:   bridge window [mem 0xf7700000-0xf77fffff]
[    0.191573] ACPI: PCI: Interrupt link LNKA configured for IRQ 0
[    0.191601] ACPI: PCI: Interrupt link LNKB configured for IRQ 0
[    0.191624] ACPI: PCI: Interrupt link LNKC configured for IRQ 0
[    0.191654] ACPI: PCI: Interrupt link LNKD configured for IRQ 0
[    0.191680] ACPI: PCI: Interrupt link LNKE configured for IRQ 0
[    0.191702] ACPI: PCI: Interrupt link LNKF configured for IRQ 0
[    0.191723] ACPI: PCI: Interrupt link LNKG configured for IRQ 0
[    0.191745] ACPI: PCI: Interrupt link LNKH configured for IRQ 0
[    0.192079] iommu: Default domain type: Translated 
[    0.192079] iommu: DMA domain TLB invalidation policy: lazy mode 
[    0.192114] SCSI subsystem initialized
[    0.192119] libata version 3.00 loaded.
[    0.192119] ACPI: bus type USB registered
[    0.192119] usbcore: registered new interface driver usbfs
[    0.192119] usbcore: registered new interface driver hub
[    0.192119] usbcore: registered new device driver usb
[    0.192119] EDAC MC: Ver: 3.0.0
[    0.192119] Registered efivars operations
[    0.192119] NetLabel: Initializing
[    0.192119] NetLabel:  domain hash size = 128
[    0.192119] NetLabel:  protocols = UNLABELED CIPSOv4 CALIPSO
[    0.192119] NetLabel:  unlabeled traffic allowed by default
[    0.192125] mctp: management component transport protocol core
[    0.192125] NET: Registered PF_MCTP protocol family
[    0.192125] PCI: Using ACPI for IRQ routing
[    0.193764] PCI: pci_cache_line_size set to 64 bytes
[    0.193835] Expanded resource Reserved due to conflict with PCI Bus 0000:00
[    0.193837] e820: reserve RAM buffer [mem 0x09d82000-0x0bffffff]
[    0.193838] e820: reserve RAM buffer [mem 0x0a200000-0x0bffffff]
[    0.193839] e820: reserve RAM buffer [mem 0x0b000000-0x0bffffff]
[    0.193839] e820: reserve RAM buffer [mem 0xd7f21000-0xd7ffffff]
[    0.193840] e820: reserve RAM buffer [mem 0xd7fbc000-0xd7ffffff]
[    0.193841] e820: reserve RAM buffer [mem 0xdb5c3000-0xdbffffff]
[    0.193842] e820: reserve RAM buffer [mem 0xdbbb2000-0xdbffffff]
[    0.193842] e820: reserve RAM buffer [mem 0xdf000000-0xdfffffff]
[    0.193843] e820: reserve RAM buffer [mem 0x81f380000-0x81fffffff]
[    0.193853] pci 0000:26:00.0: vgaarb: setting as boot VGA device
[    0.193853] pci 0000:26:00.0: vgaarb: bridge control possible
[    0.193853] pci 0000:26:00.0: vgaarb: VGA device added: decodes=io+mem,owns=none,locks=none
[    0.193853] vgaarb: loaded
[    0.193854] hpet0: at MMIO 0xfed00000, IRQs 2, 8, 0
[    0.193854] hpet0: 3 comparators, 32-bit 14.318180 MHz counter
[    0.196006] clocksource: Switched to clocksource tsc-early
[    0.196022] VFS: Disk quotas dquot_6.6.0
[    0.196022] VFS: Dquot-cache hash table entries: 512 (order 0, 4096 bytes)
[    0.196022] AppArmor: AppArmor Filesystem Enabled
[    0.196022] pnp: PnP ACPI init
[    0.196022] system 00:00: [mem 0xf8000000-0xfbffffff] has been reserved
[    0.196022] system 00:01: [mem 0xfd000000-0xfd0fffff] has been reserved
[    0.196022] system 00:03: [io  0x0a00-0x0a0f] has been reserved
[    0.196022] system 00:03: [io  0x0a10-0x0a1f] has been reserved
[    0.196022] system 00:03: [io  0x0a20-0x0a2f] has been reserved
[    0.196022] system 00:03: [io  0x0a30-0x0a3f] has been reserved
[    0.196022] pnp 00:04: [dma 0 disabled]
[    0.196022] system 00:05: [io  0x04d0-0x04d1] has been reserved
[    0.196022] system 00:05: [io  0x040b] has been reserved
[    0.196022] system 00:05: [io  0x04d6] has been reserved
[    0.196022] system 00:05: [io  0x0c00-0x0c01] has been reserved
[    0.196022] system 00:05: [io  0x0c14] has been reserved
[    0.196022] system 00:05: [io  0x0c50-0x0c51] has been reserved
[    0.196022] system 00:05: [io  0x0c52] has been reserved
[    0.196022] system 00:05: [io  0x0c6c] has been reserved
[    0.196022] system 00:05: [io  0x0c6f] has been reserved
[    0.196022] system 00:05: [io  0x0cd0-0x0cd1] has been reserved
[    0.196022] system 00:05: [io  0x0cd2-0x0cd3] has been reserved
[    0.196022] system 00:05: [io  0x0cd4-0x0cd5] has been reserved
[    0.196022] system 00:05: [io  0x0cd6-0x0cd7] has been reserved
[    0.196022] system 00:05: [io  0x0cd8-0x0cdf] has been reserved
[    0.196022] system 00:05: [io  0x0800-0x089f] has been reserved
[    0.196022] system 00:05: [io  0x0b00-0x0b0f] has been reserved
[    0.196022] system 00:05: [io  0x0b20-0x0b3f] has been reserved
[    0.196022] system 00:05: [io  0x0900-0x090f] has been reserved
[    0.196022] system 00:05: [io  0x0910-0x091f] has been reserved
[    0.196022] system 00:05: [mem 0xfec00000-0xfec00fff] could not be reserved
[    0.196022] system 00:05: [mem 0xfec01000-0xfec01fff] could not be reserved
[    0.196022] system 00:05: [mem 0xfedc0000-0xfedc0fff] has been reserved
[    0.196022] system 00:05: [mem 0xfee00000-0xfee00fff] has been reserved
[    0.196022] system 00:05: [mem 0xfed80000-0xfed8ffff] could not be reserved
[    0.196022] system 00:05: [mem 0xfec10000-0xfec10fff] has been reserved
[    0.196022] system 00:05: [mem 0xff000000-0xffffffff] has been reserved
[    0.197209] pnp: PnP ACPI: found 6 devices
[    0.202850] clocksource: acpi_pm: mask: 0xffffff max_cycles: 0xffffff, max_idle_ns: 2085701024 ns
[    0.202892] NET: Registered PF_INET protocol family
[    0.203059] IP idents hash table entries: 262144 (order: 9, 2097152 bytes, linear)
[    0.204945] tcp_listen_portaddr_hash hash table entries: 16384 (order: 6, 262144 bytes, linear)
[    0.204984] Table-perturb hash table entries: 65536 (order: 6, 262144 bytes, linear)
[    0.205144] TCP established hash table entries: 262144 (order: 9, 2097152 bytes, linear)
[    0.205557] TCP bind hash table entries: 65536 (order: 9, 2097152 bytes, linear)
[    0.205651] TCP: Hash tables configured (established 262144 bind 65536)
[    0.205772] MPTCP token hash table entries: 32768 (order: 7, 786432 bytes, linear)
[    0.205848] UDP hash table entries: 16384 (order: 7, 524288 bytes, linear)
[    0.205924] UDP-Lite hash table entries: 16384 (order: 7, 524288 bytes, linear)
[    0.205989] NET: Registered PF_UNIX/PF_LOCAL protocol family
[    0.205994] NET: Registered PF_XDP protocol family
[    0.206014] pci 0000:00:01.1: PCI bridge to [bus 01]
[    0.206020] pci 0000:00:01.1:   bridge window [mem 0xf7900000-0xf79fffff]
[    0.206026] pci 0000:20:00.0: PCI bridge to [bus 21]
[    0.206037] pci 0000:20:01.0: PCI bridge to [bus 22]
[    0.206039] pci 0000:20:01.0:   bridge window [io  0xf000-0xffff]
[    0.206044] pci 0000:20:01.0:   bridge window [mem 0xf7500000-0xf75fffff]
[    0.206052] pci 0000:20:04.0: PCI bridge to [bus 25]
[    0.206063] pci 0000:03:00.2: PCI bridge to [bus 20-25]
[    0.206065] pci 0000:03:00.2:   bridge window [io  0xf000-0xffff]
[    0.206069] pci 0000:03:00.2:   bridge window [mem 0xf7500000-0xf75fffff]
[    0.206077] pci 0000:00:01.3: PCI bridge to [bus 03-25]
[    0.206078] pci 0000:00:01.3:   bridge window [io  0xf000-0xffff]
[    0.206081] pci 0000:00:01.3:   bridge window [mem 0xf7500000-0xf76fffff]
[    0.206087] pci 0000:00:03.2: PCI bridge to [bus 26]
[    0.206088] pci 0000:00:03.2:   bridge window [io  0xe000-0xefff]
[    0.206091] pci 0000:00:03.2:   bridge window [mem 0xf6000000-0xf70fffff]
[    0.206093] pci 0000:00:03.2:   bridge window [mem 0xe0000000-0xf20fffff 64bit pref]
[    0.206097] pci 0000:00:07.1: PCI bridge to [bus 27]
[    0.206103] pci 0000:00:08.1: PCI bridge to [bus 28]
[    0.206106] pci 0000:00:08.1:   bridge window [mem 0xf7200000-0xf74fffff]
[    0.206111] pci 0000:00:08.2: PCI bridge to [bus 30]
[    0.206113] pci 0000:00:08.2:   bridge window [mem 0xf7800000-0xf78fffff]
[    0.206117] pci 0000:00:08.3: PCI bridge to [bus 31]
[    0.206120] pci 0000:00:08.3:   bridge window [mem 0xf7700000-0xf77fffff]
[    0.206125] pci_bus 0000:00: resource 4 [io  0x0000-0x03af window]
[    0.206127] pci_bus 0000:00: resource 5 [io  0x03e0-0x0cf7 window]
[    0.206128] pci_bus 0000:00: resource 6 [io  0x03b0-0x03df window]
[    0.206129] pci_bus 0000:00: resource 7 [io  0x0d00-0xffff window]
[    0.206129] pci_bus 0000:00: resource 8 [mem 0x000a0000-0x000dffff window]
[    0.206131] pci_bus 0000:00: resource 9 [mem 0xe0000000-0xfec2ffff window]
[    0.206132] pci_bus 0000:00: resource 10 [mem 0xfee00000-0xffffffff window]
[    0.206133] pci_bus 0000:01: resource 1 [mem 0xf7900000-0xf79fffff]
[    0.206134] pci_bus 0000:03: resource 0 [io  0xf000-0xffff]
[    0.206135] pci_bus 0000:03: resource 1 [mem 0xf7500000-0xf76fffff]
[    0.206136] pci_bus 0000:20: resource 0 [io  0xf000-0xffff]
[    0.206137] pci_bus 0000:20: resource 1 [mem 0xf7500000-0xf75fffff]
[    0.206138] pci_bus 0000:22: resource 0 [io  0xf000-0xffff]
[    0.206139] pci_bus 0000:22: resource 1 [mem 0xf7500000-0xf75fffff]
[    0.206140] pci_bus 0000:26: resource 0 [io  0xe000-0xefff]
[    0.206141] pci_bus 0000:26: resource 1 [mem 0xf6000000-0xf70fffff]
[    0.206141] pci_bus 0000:26: resource 2 [mem 0xe0000000-0xf20fffff 64bit pref]
[    0.206143] pci_bus 0000:28: resource 1 [mem 0xf7200000-0xf74fffff]
[    0.206144] pci_bus 0000:30: resource 1 [mem 0xf7800000-0xf78fffff]
[    0.206145] pci_bus 0000:31: resource 1 [mem 0xf7700000-0xf77fffff]
[    0.206353] pci 0000:26:00.1: D0 power state depends on 0000:26:00.0
[    0.206410] pci 0000:26:00.2: D0 power state depends on 0000:26:00.0
[    0.206519] pci 0000:26:00.3: D0 power state depends on 0000:26:00.0
[    0.206635] PCI: CLS 64 bytes, default 64
[    0.206644] pci 0000:00:00.2: AMD-Vi: IOMMU performance counters supported
[    0.206679] pci 0000:00:01.0: Adding to iommu group 0
[    0.206684] Trying to unpack rootfs image as initramfs...
[    0.206690] pci 0000:00:01.1: Adding to iommu group 1
[    0.206701] pci 0000:00:01.3: Adding to iommu group 2
[    0.206714] pci 0000:00:02.0: Adding to iommu group 3
[    0.206726] pci 0000:00:03.0: Adding to iommu group 4
[    0.206736] pci 0000:00:03.2: Adding to iommu group 5
[    0.206748] pci 0000:00:04.0: Adding to iommu group 6
[    0.206760] pci 0000:00:05.0: Adding to iommu group 7
[    0.206776] pci 0000:00:07.0: Adding to iommu group 8
[    0.206785] pci 0000:00:07.1: Adding to iommu group 8
[    0.206805] pci 0000:00:08.0: Adding to iommu group 9
[    0.206813] pci 0000:00:08.1: Adding to iommu group 9
[    0.206821] pci 0000:00:08.2: Adding to iommu group 9
[    0.206830] pci 0000:00:08.3: Adding to iommu group 9
[    0.206846] pci 0000:00:14.0: Adding to iommu group 10
[    0.206855] pci 0000:00:14.3: Adding to iommu group 10
[    0.206892] pci 0000:00:18.0: Adding to iommu group 11
[    0.206900] pci 0000:00:18.1: Adding to iommu group 11
[    0.206909] pci 0000:00:18.2: Adding to iommu group 11
[    0.206918] pci 0000:00:18.3: Adding to iommu group 11
[    0.206926] pci 0000:00:18.4: Adding to iommu group 11
[    0.206935] pci 0000:00:18.5: Adding to iommu group 11
[    0.206943] pci 0000:00:18.6: Adding to iommu group 11
[    0.206951] pci 0000:00:18.7: Adding to iommu group 11
[    0.206961] pci 0000:01:00.0: Adding to iommu group 12
[    0.206982] pci 0000:03:00.0: Adding to iommu group 13
[    0.206996] pci 0000:03:00.1: Adding to iommu group 13
[    0.207006] pci 0000:03:00.2: Adding to iommu group 13
[    0.207011] pci 0000:20:00.0: Adding to iommu group 13
[    0.207018] pci 0000:20:01.0: Adding to iommu group 13
[    0.207022] pci 0000:20:04.0: Adding to iommu group 13
[    0.207027] pci 0000:22:00.0: Adding to iommu group 13
[    0.207050] pci 0000:26:00.0: Adding to iommu group 14
[    0.207061] pci 0000:26:00.1: Adding to iommu group 14
[    0.207071] pci 0000:26:00.2: Adding to iommu group 14
[    0.207081] pci 0000:26:00.3: Adding to iommu group 14
[    0.207085] pci 0000:27:00.0: Adding to iommu group 8
[    0.207089] pci 0000:28:00.0: Adding to iommu group 9
[    0.207093] pci 0000:28:00.1: Adding to iommu group 9
[    0.207097] pci 0000:28:00.3: Adding to iommu group 9
[    0.207102] pci 0000:28:00.4: Adding to iommu group 9
[    0.207106] pci 0000:30:00.0: Adding to iommu group 9
[    0.207111] pci 0000:31:00.0: Adding to iommu group 9
[    0.208707] pci 0000:00:00.2: AMD-Vi: Found IOMMU cap 0x40
[    0.208709] AMD-Vi: Extended features (0x58f77ef22294ade, 0x0): PPR X2APIC NX GT IA GA PC GA_vAPIC
[    0.208715] AMD-Vi: Interrupt remapping enabled
[    0.208716] AMD-Vi: X2APIC enabled
[    0.208725] AMD-Vi: Virtual APIC enabled
[    0.208783] PCI-DMA: Using software bounce buffering for IO (SWIOTLB)
[    0.208784] software IO TLB: mapped [mem 0x00000000d2c3f000-0x00000000d6c3f000] (64MB)
[    0.208935] RAPL PMU: API unit is 2^-32 Joules, 1 fixed counters, 163840 ms ovfl timer
[    0.208936] RAPL PMU: hw unit of domain package 2^-16 Joules
[    0.208939] LVT offset 0 assigned for vector 0x400
[    0.209116] perf: AMD IBS detected (0x000003ff)
[    0.209120] perf/amd_iommu: Detected AMD IOMMU #0 (2 banks, 4 counters/bank).
[    0.209552] Initialise system trusted keyrings
[    0.209580] workingset: timestamp_bits=40 max_order=23 bucket_order=0
[    0.210689] zbud: loaded
[    0.211139] Allocating IMA blacklist keyring.
[    0.214013] Key type asymmetric registered
[    0.214015] Asymmetric key parser 'x509' registered
[    0.356210] Freeing initrd memory: 14288K
[    0.356497] alg: self-tests for CTR-KDF (hmac(sha256)) passed
[    0.356523] Block layer SCSI generic (bsg) driver version 0.4 loaded (major 247)
[    0.356556] io scheduler mq-deadline registered
[    0.357770] pcieport 0000:00:01.1: AER: enabled with IRQ 26
[    0.357913] pcieport 0000:00:01.3: AER: enabled with IRQ 27
[    0.358044] pcieport 0000:00:03.2: AER: enabled with IRQ 28
[    0.358959] shpchp: Standard Hot Plug PCI Controller Driver version: 0.4
[    0.359020] input: Power Button as /devices/LNXSYSTM:00/LNXSYBUS:00/PNP0C0C:00/input/input0
[    0.359032] ACPI: button: Power Button [PWRB]
[    0.359055] input: Power Button as /devices/LNXSYSTM:00/LNXPWRBN:00/input/input1
[    0.359081] ACPI: button: Power Button [PWRF]
[    0.363464] Estimated ratio of average max frequency by base frequency (times 1024): 1141
[    0.363476] Monitor-Mwait will be used to enter C-1 state
[    0.363480] ACPI: \_PR_.C000: Found 2 idle states
[    0.363584] ACPI: \_PR_.C002: Found 2 idle states
[    0.363677] ACPI: \_PR_.C004: Found 2 idle states
[    0.363771] ACPI: \_PR_.C006: Found 2 idle states
[    0.363855] ACPI: \_PR_.C008: Found 2 idle states
[    0.363949] ACPI: \_PR_.C00A: Found 2 idle states
[    0.364041] ACPI: \_PR_.C00C: Found 2 idle states
[    0.364134] ACPI: \_PR_.C00E: Found 2 idle states
[    0.364205] ACPI: \_PR_.C001: Found 2 idle states
[    0.364268] ACPI: \_PR_.C003: Found 2 idle states
[    0.364354] ACPI: \_PR_.C005: Found 2 idle states
[    0.364432] ACPI: \_PR_.C007: Found 2 idle states
[    0.364519] ACPI: \_PR_.C009: Found 2 idle states
[    0.364610] ACPI: \_PR_.C00B: Found 2 idle states
[    0.364703] ACPI: \_PR_.C00D: Found 2 idle states
[    0.364787] ACPI: \_PR_.C00F: Found 2 idle states
[    0.364945] Serial: 8250/16550 driver, 32 ports, IRQ sharing enabled
[    0.365004] 00:04: ttyS0 at I/O 0x3f8 (irq = 4, base_baud = 115200) is a 16550A
[    0.366172] Linux agpgart interface v0.103
[    0.368220] brd: module loaded
[    0.369120] loop: module loaded
[    0.369299] nvme nvme0: pci function 0000:01:00.0
[    0.369381] tun: Universal TUN/TAP device driver, 1.6
[    0.369418] PPP generic driver version 2.4.2
[    0.369515] xhci_hcd 0000:03:00.0: xHCI Host Controller
[    0.369522] xhci_hcd 0000:03:00.0: new USB bus registered, assigned bus number 1
[    0.379058] nvme nvme0: missing or invalid SUBNQN field.
[    0.379076] nvme nvme0: Shutdown timeout set to 8 seconds
[    0.396060] nvme nvme0: 16/0/0 default/read/poll queues
[    0.399968]  nvme0n1: p1 p2 p3
[    0.424848] xhci_hcd 0000:03:00.0: hcc params 0x0200ef81 hci version 0x110 quirks 0x0000000000000410
[    0.424993] xhci_hcd 0000:03:00.0: xHCI Host Controller
[    0.424996] xhci_hcd 0000:03:00.0: new USB bus registered, assigned bus number 2
[    0.424997] xhci_hcd 0000:03:00.0: Host supports USB 3.1 Enhanced SuperSpeed
[    0.425053] usb usb1: New USB device found, idVendor=1d6b, idProduct=0002, bcdDevice= 6.01
[    0.425054] usb usb1: New USB device strings: Mfr=3, Product=2, SerialNumber=1
[    0.425056] usb usb1: Product: xHCI Host Controller
[    0.425057] usb usb1: Manufacturer: Linux 6.1.23 xhci-hcd
[    0.425058] usb usb1: SerialNumber: 0000:03:00.0
[    0.425147] hub 1-0:1.0: USB hub found
[    0.425161] hub 1-0:1.0: 10 ports detected
[    0.425460] usb usb2: We don't know the algorithms for LPM for this host, disabling LPM.
[    0.425472] usb usb2: New USB device found, idVendor=1d6b, idProduct=0003, bcdDevice= 6.01
[    0.425474] usb usb2: New USB device strings: Mfr=3, Product=2, SerialNumber=1
[    0.425475] usb usb2: Product: xHCI Host Controller
[    0.425475] usb usb2: Manufacturer: Linux 6.1.23 xhci-hcd
[    0.425476] usb usb2: SerialNumber: 0000:03:00.0
[    0.425536] hub 2-0:1.0: USB hub found
[    0.425543] hub 2-0:1.0: 4 ports detected
[    0.425799] xhci_hcd 0000:26:00.2: xHCI Host Controller
[    0.425801] xhci_hcd 0000:26:00.2: new USB bus registered, assigned bus number 3
[    0.426409] xhci_hcd 0000:26:00.2: hcc params 0x0180ff05 hci version 0x110 quirks 0x0000000000000010
[    0.426515] xhci_hcd 0000:26:00.2: xHCI Host Controller
[    0.426517] xhci_hcd 0000:26:00.2: new USB bus registered, assigned bus number 4
[    0.426518] xhci_hcd 0000:26:00.2: Host supports USB 3.1 Enhanced SuperSpeed
[    0.426550] usb usb3: New USB device found, idVendor=1d6b, idProduct=0002, bcdDevice= 6.01
[    0.426552] usb usb3: New USB device strings: Mfr=3, Product=2, SerialNumber=1
[    0.426553] usb usb3: Product: xHCI Host Controller
[    0.426553] usb usb3: Manufacturer: Linux 6.1.23 xhci-hcd
[    0.426554] usb usb3: SerialNumber: 0000:26:00.2
[    0.426611] hub 3-0:1.0: USB hub found
[    0.426616] hub 3-0:1.0: 2 ports detected
[    0.426676] usb usb4: We don't know the algorithms for LPM for this host, disabling LPM.
[    0.426688] usb usb4: New USB device found, idVendor=1d6b, idProduct=0003, bcdDevice= 6.01
[    0.426689] usb usb4: New USB device strings: Mfr=3, Product=2, SerialNumber=1
[    0.426690] usb usb4: Product: xHCI Host Controller
[    0.426690] usb usb4: Manufacturer: Linux 6.1.23 xhci-hcd
[    0.426691] usb usb4: SerialNumber: 0000:26:00.2
[    0.426744] hub 4-0:1.0: USB hub found
[    0.426752] hub 4-0:1.0: 4 ports detected
[    0.426870] xhci_hcd 0000:28:00.3: xHCI Host Controller
[    0.426872] xhci_hcd 0000:28:00.3: new USB bus registered, assigned bus number 5
[    0.426978] xhci_hcd 0000:28:00.3: hcc params 0x0278ffe5 hci version 0x110 quirks 0x0000000000000410
[    0.427244] xhci_hcd 0000:28:00.3: xHCI Host Controller
[    0.427246] xhci_hcd 0000:28:00.3: new USB bus registered, assigned bus number 6
[    0.427249] xhci_hcd 0000:28:00.3: Host supports USB 3.1 Enhanced SuperSpeed
[    0.427270] usb usb5: New USB device found, idVendor=1d6b, idProduct=0002, bcdDevice= 6.01
[    0.427271] usb usb5: New USB device strings: Mfr=3, Product=2, SerialNumber=1
[    0.427272] usb usb5: Product: xHCI Host Controller
[    0.427273] usb usb5: Manufacturer: Linux 6.1.23 xhci-hcd
[    0.427274] usb usb5: SerialNumber: 0000:28:00.3
[    0.427338] hub 5-0:1.0: USB hub found
[    0.427343] hub 5-0:1.0: 4 ports detected
[    0.427445] usb usb6: We don't know the algorithms for LPM for this host, disabling LPM.
[    0.427459] usb usb6: New USB device found, idVendor=1d6b, idProduct=0003, bcdDevice= 6.01
[    0.427460] usb usb6: New USB device strings: Mfr=3, Product=2, SerialNumber=1
[    0.427461] usb usb6: Product: xHCI Host Controller
[    0.427461] usb usb6: Manufacturer: Linux 6.1.23 xhci-hcd
[    0.427462] usb usb6: SerialNumber: 0000:28:00.3
[    0.427525] hub 6-0:1.0: USB hub found
[    0.427530] hub 6-0:1.0: 4 ports detected
[    0.427653] i8042: PNP: No PS/2 controller found.
[    0.427699] mousedev: PS/2 mouse device common for all mice
[    0.427751] rtc_cmos 00:02: RTC can wake from S4
[    0.427950] rtc_cmos 00:02: registered as rtc0
[    0.427977] rtc_cmos 00:02: setting system clock to 2023-04-08T15:10:32 UTC (1680966632)
[    0.427996] rtc_cmos 00:02: alarms up to one month, y3k, 114 bytes nvram, hpet irqs
[    0.428000] i2c_dev: i2c /dev entries driver
[    0.428022] device-mapper: uevent: version 1.0.3
[    0.428065] device-mapper: ioctl: 4.47.0-ioctl (2022-07-28) initialised: dm-devel@redhat.com
[    0.428280] ledtrig-cpu: registered to indicate activity on CPUs
[    0.428296] efifb: probing for efifb
[    0.428303] efifb: framebuffer at 0xe0000000, using 3072k, total 3072k
[    0.428304] efifb: mode is 1024x768x32, linelength=4096, pages=1
[    0.428305] efifb: scrolling: redraw
[    0.428306] efifb: Truecolor: size=8:8:8:8, shift=24:16:8:0
[    0.428365] Console: switching to colour frame buffer device 128x48
[    0.430444] fb0: EFI VGA frame buffer device
[    0.430590] NET: Registered PF_INET6 protocol family
[    0.430817] Segment Routing with IPv6
[    0.430820] In-situ OAM (IOAM) with IPv6
[    0.430832] NET: Registered PF_PACKET protocol family
[    0.430881] Key type dns_resolver registered
[    0.431572] microcode: CPU0: patch_level=0x08701013
[    0.431576] microcode: CPU1: patch_level=0x08701013
[    0.431589] microcode: CPU2: patch_level=0x08701013
[    0.431603] microcode: CPU3: patch_level=0x08701013
[    0.431618] microcode: CPU4: patch_level=0x08701013
[    0.431633] microcode: CPU5: patch_level=0x08701013
[    0.431648] microcode: CPU6: patch_level=0x08701013
[    0.431663] microcode: CPU7: patch_level=0x08701013
[    0.431667] microcode: CPU8: patch_level=0x08701013
[    0.431670] microcode: CPU9: patch_level=0x08701013
[    0.431682] microcode: CPU10: patch_level=0x08701013
[    0.431696] microcode: CPU11: patch_level=0x08701013
[    0.431711] microcode: CPU12: patch_level=0x08701013
[    0.431726] microcode: CPU13: patch_level=0x08701013
[    0.431740] microcode: CPU14: patch_level=0x08701013
[    0.431755] microcode: CPU15: patch_level=0x08701013
[    0.431759] microcode: Microcode Update Driver: v2.2.
[    0.431763] IPI shorthand broadcast: enabled
[    0.431782] sched_clock: Marking stable (459508903, -27995680)->(442490698, -10977475)
[    0.432100] registered taskstats version 1
[    0.432108] Loading compiled-in X.509 certificates
[    0.432556] zswap: loaded using pool lzo/zbud
[    0.432902] Key type encrypted registered
[    0.432905] AppArmor: AppArmor sha1 policy hashing enabled
[    0.432910] ima: No TPM chip found, activating TPM-bypass!
[    0.432912] ima: Allocated hash algorithm: sha1
[    0.432920] ima: No architecture policies found
[    0.432929] evm: Initialising EVM extended attributes:
[    0.432929] evm: security.selinux
[    0.432930] evm: security.SMACK64
[    0.432931] evm: security.SMACK64EXEC
[    0.432931] evm: security.SMACK64TRANSMUTE
[    0.432932] evm: security.SMACK64MMAP
[    0.432932] evm: security.apparmor
[    0.432933] evm: security.ima
[    0.432933] evm: security.capability
[    0.432934] evm: HMAC attrs: 0x1
[    0.433976] PM:   Magic number: 3:794:183
[    0.434017] acpi device:42: hash matches
[    0.434226] acpi_cpufreq: overriding BIOS provided _PSD data
[    0.496802] Freeing unused kernel image (initmem) memory: 2676K
[    0.511453] Write protecting the kernel read-only data: 24576k
[    0.511840] Freeing unused kernel image (text/rodata gap) memory: 2036K
[    0.512034] Freeing unused kernel image (rodata/data gap) memory: 1172K
[    0.512038] Run /init as init process
[    0.512040]   with arguments:
[    0.512040]     /init
[    0.512041]   with environment:
[    0.512042]     HOME=/
[    0.512042]     TERM=linux
[    0.512043]     BOOT_IMAGE=/gnu/store/4rx684ikrxsrnjnfbx5hw6kkm8xpn28n-linux-6.1.23/bzImage
[    0.545240] ahci 0000:03:00.1: version 3.0
[    0.545372] ahci 0000:03:00.1: SSS flag set, parallel bus scan disabled
[    0.545412] ahci 0000:03:00.1: AHCI 0001.0301 32 slots 8 ports 6 Gbps 0x33 impl SATA mode
[    0.545414] ahci 0000:03:00.1: flags: 64bit ncq sntf stag pm led clo only pmp pio slum part sxs deso sadm sds apst 
[    0.545779] scsi host0: ahci
[    0.545860] scsi host1: ahci
[    0.545919] scsi host2: ahci
[    0.545978] scsi host3: ahci
[    0.546036] scsi host4: ahci
[    0.546093] scsi host5: ahci
[    0.546159] scsi host6: ahci
[    0.546216] scsi host7: ahci
[    0.546236] ata1: SATA max UDMA/133 abar m131072@0xf7680000 port 0xf7680100 irq 70
[    0.546238] ata2: SATA max UDMA/133 abar m131072@0xf7680000 port 0xf7680180 irq 70
[    0.546239] ata3: DUMMY
[    0.546240] ata4: DUMMY
[    0.546241] ata5: SATA max UDMA/133 abar m131072@0xf7680000 port 0xf7680300 irq 70
[    0.546243] ata6: SATA max UDMA/133 abar m131072@0xf7680000 port 0xf7680380 irq 70
[    0.546243] ata7: DUMMY
[    0.546244] ata8: DUMMY
[    0.546356] ahci 0000:30:00.0: AHCI 0001.0301 32 slots 1 ports 6 Gbps 0x1 impl SATA mode
[    0.546358] ahci 0000:30:00.0: flags: 64bit ncq sntf ilck pm led clo only pmp fbs pio slum part 
[    0.546463] scsi host8: ahci
[    0.546497] ata9: SATA max UDMA/133 abar m2048@0xf7800000 port 0xf7800100 irq 72
[    0.546588] ahci 0000:31:00.0: AHCI 0001.0301 32 slots 1 ports 6 Gbps 0x1 impl SATA mode
[    0.546589] ahci 0000:31:00.0: flags: 64bit ncq sntf ilck pm led clo only pmp fbs pio slum part 
[    0.546693] scsi host9: ahci
[    0.546716] ata10: SATA max UDMA/133 abar m2048@0xf7700000 port 0xf7700100 irq 74
[    0.685200] usb 5-1: new high-speed USB device number 2 using xhci_hcd
[    0.838537] usb 5-1: New USB device found, idVendor=05e3, idProduct=0610, bcdDevice= 6.54
[    0.838541] usb 5-1: New USB device strings: Mfr=1, Product=2, SerialNumber=0
[    0.838544] usb 5-1: Product: USB2.1 Hub
[    0.838546] usb 5-1: Manufacturer: GenesysLogic
[    0.862138] ata9: SATA link down (SStatus 0 SControl 300)
[    0.862589] ata10: SATA link down (SStatus 0 SControl 300)
[    0.875828] hub 5-1:1.0: USB hub found
[    0.876308] hub 5-1:1.0: 4 ports detected
[    1.028828] ata1: SATA link up 6.0 Gbps (SStatus 133 SControl 300)
[    1.029579] ata1.00: ATA-10: WDC WD10EZEX-08WN4A0, 02.01A02, max UDMA/100
[    1.030483] ata1.00: 1953525168 sectors, multi 16: LBA48 NCQ (depth 32), AA
[    1.030487] ata1.00: Features: NCQ-prio
[    1.032089] ata1.00: configured for UDMA/100
[    1.032197] scsi 0:0:0:0: Direct-Access     ATA      WDC WD10EZEX-08W 1A02 PQ: 0 ANSI: 5
[    1.032343] sd 0:0:0:0: Attached scsi generic sg0 type 0
[    1.033708] sd 0:0:0:0: [sda] 1953525168 512-byte logical blocks: (1.00 TB/932 GiB)
[    1.033711] sd 0:0:0:0: [sda] 4096-byte physical blocks
[    1.033726] sd 0:0:0:0: [sda] Write Protect is off
[    1.033729] sd 0:0:0:0: [sda] Mode Sense: 00 3a 00 00
[    1.033741] sd 0:0:0:0: [sda] Write cache: enabled, read cache: enabled, doesn't support DPO or FUA
[    1.033763] sd 0:0:0:0: [sda] Preferred minimum I/O size 4096 bytes
[    1.082932] sd 0:0:0:0: [sda] Attached SCSI disk
[    1.192518] usb 5-1.1: new full-speed USB device number 3 using xhci_hcd
[    1.216518] tsc: Refined TSC clocksource calibration: 3599.997 MHz
[    1.216532] clocksource: tsc: mask: 0xffffffffffffffff max_cycles: 0x33e4505a81e, max_idle_ns: 440795320847 ns
[    1.216579] clocksource: Switched to clocksource tsc
[    1.336431] usb 5-1.1: New USB device found, idVendor=2516, idProduct=009f, bcdDevice= 1.10
[    1.336439] usb 5-1.1: New USB device strings: Mfr=3, Product=1, SerialNumber=0
[    1.336441] usb 5-1.1: Product: CK530
[    1.336443] usb 5-1.1: Manufacturer: Cooler Master Technology Inc.
[    1.345743] ata2: SATA link down (SStatus 0 SControl 300)
[    1.592027] usb 5-1.2: new low-speed USB device number 4 using xhci_hcd
[    1.661456] ata5: SATA link down (SStatus 0 SControl 330)
[    1.733490] usb 5-1.2: New USB device found, idVendor=046d, idProduct=c077, bcdDevice=72.00
[    1.733498] usb 5-1.2: New USB device strings: Mfr=1, Product=2, SerialNumber=0
[    1.733501] usb 5-1.2: Product: USB Optical Mouse
[    1.733503] usb 5-1.2: Manufacturer: Logitech
[    1.974888] ata6: SATA link down (SStatus 0 SControl 330)
[    1.977739] usbcore: registered new interface driver usb-storage
[    1.981167] usbcore: registered new interface driver uas
[    1.988861] hid: raw HID events driver (C) Jiri Kosina
[    2.005408] usbcore: registered new interface driver usbhid
[    2.005411] usbhid: USB HID core driver
[    2.006541] input: Cooler Master Technology Inc. CK530 as /devices/pci0000:00/0000:00:08.1/0000:28:00.3/usb5/5-1/5-1.1/5-1.1:1.0/0003:2516:009F.0001/input/input2
[    2.064103] hid-generic 0003:2516:009F.0001: input,hidraw0: USB HID v1.11 Keyboard [Cooler Master Technology Inc. CK530] on usb-0000:28:00.3-1.1/input0
[    2.064265] hid-generic 0003:2516:009F.0002: hiddev0,hidraw1: USB HID v1.11 Device [Cooler Master Technology Inc. CK530] on usb-0000:28:00.3-1.1/input1
[    2.064415] input: Cooler Master Technology Inc. CK530 System Control as /devices/pci0000:00/0000:00:08.1/0000:28:00.3/usb5/5-1/5-1.1/5-1.1:1.2/0003:2516:009F.0003/input/input3
[    2.124856] input: Cooler Master Technology Inc. CK530 Consumer Control as /devices/pci0000:00/0000:00:08.1/0000:28:00.3/usb5/5-1/5-1.1/5-1.1:1.2/0003:2516:009F.0003/input/input4
[    2.124932] input: Cooler Master Technology Inc. CK530 Mouse as /devices/pci0000:00/0000:00:08.1/0000:28:00.3/usb5/5-1/5-1.1/5-1.1:1.2/0003:2516:009F.0003/input/input5
[    2.125024] input: Cooler Master Technology Inc. CK530 Keyboard as /devices/pci0000:00/0000:00:08.1/0000:28:00.3/usb5/5-1/5-1.1/5-1.1:1.2/0003:2516:009F.0003/input/input6
[    2.125096] hid-generic 0003:2516:009F.0003: input,hidraw2: USB HID v1.11 Mouse [Cooler Master Technology Inc. CK530] on usb-0000:28:00.3-1.1/input2
[    2.125204] input: Logitech USB Optical Mouse as /devices/pci0000:00/0000:00:08.1/0000:28:00.3/usb5/5-1/5-1.2/5-1.2:1.0/0003:046D:C077.0004/input/input7
[    2.125289] hid-generic 0003:046D:C077.0004: input,hidraw3: USB HID v1.11 Mouse [Logitech USB Optical Mouse] on usb-0000:28:00.3-1.2/input0
[    2.136724] isci: Intel(R) C600 SAS Controller Driver - version 1.2.0
[    2.207851] EXT4-fs (nvme0n1p3): mounted filesystem with ordered data mode. Quota mode: none.
[    2.404409] shepherd[1]: Service root has been started.
[    2.470516] shepherd[1]: starting services...
[    2.470854] shepherd[1]: Service root-file-system has been started.
[    2.474055] shepherd[1]: waiting for udevd...
[    2.480784] udevd[269]: starting version 3.2.11
[    2.505048] udevd[269]: starting eudev-3.2.11
[    2.975057] udevd[269]: no sender credentials received, message ignored
[    3.017433] nvidia-gpu 0000:26:00.3: enabling device (0000 -> 0002)
[    3.018368] piix4_smbus 0000:00:14.0: SMBus Host Controller at 0xb00, revision 0
[    3.018370] piix4_smbus 0000:00:14.0: Using register 0x02 for SMBus port selection
[    3.018463] piix4_smbus 0000:00:14.0: Auxiliary SMBus Host Controller at 0xb20
[    3.019054] ccp 0000:28:00.1: enabling device (0000 -> 0002)
[    3.019301] ccp 0000:28:00.1: ccp: unable to access the device: you might be running a broken BIOS.
[    3.019304] ccp 0000:28:00.1: psp: unable to access the device: you might be running a broken BIOS.
[    3.020645] sp5100_tco: SP5100/SB800 TCO WatchDog Timer Driver
[    3.020701] sp5100-tco sp5100-tco: Using 0xfeb00000 for watchdog MMIO address
[    3.020759] sp5100-tco sp5100-tco: initialized. heartbeat=60 sec (nowayout=0)
[    3.022638] input: PC Speaker as /devices/platform/pcspkr/input/input8
[    3.024697] r8169 0000:22:00.0: enabling device (0000 -> 0003)
[    3.026663] cryptd: max_cpu_qlen set to 1000
[    3.040854] ACPI: bus type drm_connector registered
[    3.041676] AVX2 version of gcm_enc/dec engaged.
[    3.041682] Error: Driver 'pcspkr' is already registered, aborting...
[    3.041773] AES CTR mode by8 optimization enabled
[    3.050345] snd_hda_intel 0000:26:00.1: enabling device (0000 -> 0002)
[    3.050432] snd_hda_intel 0000:26:00.1: Disabling MSI
[    3.050441] snd_hda_intel 0000:26:00.1: Handle vga_switcheroo audio client
[    3.050596] snd_hda_intel 0000:28:00.4: enabling device (0000 -> 0002)
[    3.057558] r8169 0000:22:00.0 eth0: RTL8168h/8111h, 00:d8:61:ab:1a:f1, XID 541, IRQ 80
[    3.057564] r8169 0000:22:00.0 eth0: jumbo features [frames: 9194 bytes, tx checksumming: ko]
[    3.117765] r8169 0000:22:00.0 enp34s0: renamed from eth0
[    3.159045] snd_hda_codec_realtek hdaudioC1D0: autoconfig for ALC892: line_outs=4 (0x14/0x15/0x16/0x17/0x0) type:line
[    3.159050] snd_hda_codec_realtek hdaudioC1D0:    speaker_outs=0 (0x0/0x0/0x0/0x0/0x0)
[    3.159052] snd_hda_codec_realtek hdaudioC1D0:    hp_outs=1 (0x1b/0x0/0x0/0x0/0x0)
[    3.159053] snd_hda_codec_realtek hdaudioC1D0:    mono: mono_out=0x0
[    3.159054] snd_hda_codec_realtek hdaudioC1D0:    inputs:
[    3.159055] snd_hda_codec_realtek hdaudioC1D0:      Front Mic=0x19
[    3.159056] snd_hda_codec_realtek hdaudioC1D0:      Rear Mic=0x18
[    3.159057] snd_hda_codec_realtek hdaudioC1D0:      Line=0x1a
[    3.163763] pstore: Using crash dump compression: deflate
[    3.163765] pstore: Registered efi as persistent store backend
[    3.175906] nvidia: loading out-of-tree module taints kernel.
[    3.175923] nvidia: module license 'NVIDIA' taints kernel.
[    3.175925] Disabling lock debugging due to kernel taint
[    3.190633] input: HD-Audio Generic Front Mic as /devices/pci0000:00/0000:00:08.1/0000:28:00.4/sound/card1/input13
[    3.190698] input: HD-Audio Generic Rear Mic as /devices/pci0000:00/0000:00:08.1/0000:28:00.4/sound/card1/input14
[    3.190778] input: HD-Audio Generic Line as /devices/pci0000:00/0000:00:08.1/0000:28:00.4/sound/card1/input15
[    3.190842] input: HD-Audio Generic Line Out Front as /devices/pci0000:00/0000:00:08.1/0000:28:00.4/sound/card1/input16
[    3.190883] input: HDA NVidia HDMI/DP,pcm=3 as /devices/pci0000:00/0000:00:03.2/0000:26:00.1/sound/card0/input9
[    3.190907] input: HD-Audio Generic Line Out Surround as /devices/pci0000:00/0000:00:08.1/0000:28:00.4/sound/card1/input17
[    3.191005] input: HD-Audio Generic Line Out CLFE as /devices/pci0000:00/0000:00:08.1/0000:28:00.4/sound/card1/input18
[    3.191073] input: HDA NVidia HDMI/DP,pcm=7 as /devices/pci0000:00/0000:00:03.2/0000:26:00.1/sound/card0/input10
[    3.191168] input: HDA NVidia HDMI/DP,pcm=8 as /devices/pci0000:00/0000:00:03.2/0000:26:00.1/sound/card0/input11
[    3.191655] input: HD-Audio Generic Line Out Side as /devices/pci0000:00/0000:00:08.1/0000:28:00.4/sound/card1/input19
[    3.191804] input: HD-Audio Generic Front Headphone as /devices/pci0000:00/0000:00:08.1/0000:28:00.4/sound/card1/input20
[    3.191997] input: HDA NVidia HDMI/DP,pcm=9 as /devices/pci0000:00/0000:00:03.2/0000:26:00.1/sound/card0/input12
[    3.204154] SVM: TSC scaling supported
[    3.204157] kvm: Nested Virtualization enabled
[    3.204158] SVM: kvm: Nested Paging enabled
[    3.204160] SEV supported: 509 ASIDs
[    3.204174] SVM: Virtual VMLOAD VMSAVE supported
[    3.204175] SVM: Virtual GIF supported
[    3.204176] SVM: LBR virtualization supported
[    3.312275] MCE: In-kernel MCE decoding enabled.
[    3.313185] nvidia-nvlink: Nvlink Core is being initialized, major device number 240

[    3.313999] nvidia 0000:26:00.0: vgaarb: changed VGA decodes: olddecodes=io+mem,decodes=none:owns=none
[    3.315385] intel_rapl_common: Found RAPL domain package
[    3.315387] intel_rapl_common: Found RAPL domain core
[    3.355771] NVRM: loading NVIDIA UNIX x86_64 Kernel Module  515.76  Mon Sep 12 19:21:56 UTC 2022
[    3.363296] nvidia-modeset: Loading NVIDIA Kernel Mode Setting Driver for UNIX platforms  515.76  Mon Sep 12 19:11:54 UTC 2022
[    3.364718] [drm] [nvidia-drm] [GPU ID 0x00002600] Loading driver
[    3.364720] [drm] Initialized nvidia-drm 0.0.0 20160202 for 0000:26:00.0 on minor 0
[    4.156010] nvidia-gpu 0000:26:00.3: i2c timeout error e0000000
[    4.156041] ucsi_ccg 0-0008: i2c_transfer failed -110
[    4.156063] ucsi_ccg 0-0008: ucsi_ccg_init failed - -110
[    4.156087] ucsi_ccg: probe of 0-0008 failed with error -110
[    4.223324] shepherd[1]: Service udev has been started.
[    4.227847] Adding 3905532k swap on /dev/nvme0n1p2.  Priority:-2 extents:1 across:3905532k SSFS
[    4.228509] shepherd[1]: Service swap-f95df01e-5e58-4d7a-945d-1e1c4db969d3 has been started.
[    4.228676] shepherd[1]: Service user-file-systems has been started.
[    4.240472] shepherd[1]: Service file-system-/boot/efi has been started.
[    4.240763] shepherd[1]: Service file-system-/dev/pts has been started.
[    4.241036] shepherd[1]: Service file-system-/sys/kernel/debug has been started.
[    4.241298] shepherd[1]: Service file-system-/dev/shm has been started.
[    4.272661] shepherd[1]: Service file-system-/sys/firmware/efi/efivars has been started.
[    4.273216] shepherd[1]: Service file-system-/gnu/store has been started.
[    4.273732] shepherd[1]: Service file-system-/run/systemd has been started.
[    4.274216] shepherd[1]: Service file-system-/run/user has been started.
[    4.274721] shepherd[1]: Service file-system-/sys/fs/cgroup has been started.
[    4.275294] shepherd[1]: Service file-system-/sys/fs/cgroup/elogind has been started.
[    4.288342] shepherd[1]: Service file-system-/sys/fs/cgroup/cpuset has been started.
[    4.288937] shepherd[1]: Service file-system-/sys/fs/cgroup/cpu has been started.
[    4.289549] shepherd[1]: Service file-system-/sys/fs/cgroup/cpuacct has been started.
[    4.304492] shepherd[1]: Service file-system-/sys/fs/cgroup/memory has been started.
[    4.305091] shepherd[1]: Service file-system-/sys/fs/cgroup/devices has been started.
[    4.305635] shepherd[1]: Service file-system-/sys/fs/cgroup/freezer has been started.
[    4.328361] shepherd[1]: Service file-system-/sys/fs/cgroup/blkio has been started.
[    4.328894] shepherd[1]: Service file-system-/sys/fs/cgroup/perf_event has been started.
[    4.329418] shepherd[1]: Service file-system-/sys/fs/cgroup/pids has been started.
[    4.329979] shepherd[1]: Service file-system-/var/cache/fontconfig has been started.
[    4.330393] shepherd[1]: Service file-system-/var/lib/gdm has been started.
[    4.330644] shepherd[1]: Service file-systems has been started.
[    4.331488] shepherd[1]: Service user-homes has been started.
[    4.332382] shepherd[1]: Service urandom-seed has been started.
[    4.332660] shepherd[1]: Service user-processes has been started.
[    4.332955] shepherd[1]: Service host-name has been started.
[    4.333394] shepherd[1]: Service user-homes has been started.
[    4.338488] shepherd[1]: 
[    4.338562] [
[    4.338634] sysctl
[    4.338706] ] 
[    4.338803] fs.protected_hardlinks = 1

[    4.338971] shepherd[1]: 
[    4.339036] [
[    4.339099] sysctl
[    4.339167] ] 
[    4.339247] fs.protected_symlinks = 1

[    4.339961] shepherd[1]: Service sysctl has been started.
[    5.342776] shepherd[1]: Service nscd has been started.
[    5.344943] shepherd[1]: Service guix-daemon has been started.
[    5.372660] shepherd[1]: Service loopback has been started.
[    5.372814] shepherd[1]: Service host-name has been started.
[    5.373005] shepherd[1]: Service virtual-terminal has been started.
[    5.374047] shepherd[1]: Service term-tty6 has been started.
[    5.374197] shepherd[1]: Service host-name has been started.
[    5.375094] shepherd[1]: Service term-tty5 has been started.
[    5.375235] shepherd[1]: Service host-name has been started.
[    5.376362] shepherd[1]: Service term-tty4 has been started.
[    5.376540] shepherd[1]: Service host-name has been started.
[    5.377521] shepherd[1]: Service term-tty3 has been started.
[    5.377661] shepherd[1]: Service host-name has been started.
[    5.378702] shepherd[1]: Service term-tty2 has been started.
[    5.378849] shepherd[1]: Service host-name has been started.
[    5.379798] shepherd[1]: Service term-tty1 has been started.
[    5.379939] shepherd[1]: Service host-name has been started.
[    8.501333] r8169 0000:22:00.0: Direct firmware load for rtl_nic/rtl8168h-2.fw failed with error -2
[    8.501337] r8169 0000:22:00.0: Unable to load firmware rtl_nic/rtl8168h-2.fw (-2)
[    8.532009] Generic FE-GE Realtek PHY r8169-0-2200:00: attached PHY driver (mii_bus:phy_addr=r8169-0-2200:00, irq=MAC)
[    8.656624] r8169 0000:22:00.0 enp34s0: Link is Down
[   12.090086] r8169 0000:22:00.0 enp34s0: Link is Up - 1Gbps/Full - flow control rx/tx
[   12.090109] IPv6: ADDRCONF(NETDEV_CHANGE): enp34s0: link becomes ready
[   16.612594] IPMI message handler: version 39.2
[   16.613286] ipmi device interface
[   16.655464] nvidia_uvm: module uses symbols nvUvmInterfaceDisableAccessCntr from proprietary module nvidia, inheriting taint.
[   16.667653] nvidia-uvm: Loaded the UVM driver, major device number 237.
