[    16.258] (--) Log file renamed from "/var/lib/gdm/.local/share/xorg/Xorg.pid-648.log" to "/var/lib/gdm/.local/share/xorg/Xorg.0.log"
[    16.259] 
X.Org X Server 1.21.1.4
X Protocol Version 11, Revision 0
[    16.259] Current Operating System: Linux desktop 6.1.23 #1 SMP PREEMPT_DYNAMIC 1 x86_64
[    16.259] Kernel command line: BOOT_IMAGE=/gnu/store/4rx684ikrxsrnjnfbx5hw6kkm8xpn28n-linux-6.1.23/bzImage root=5fdf4f83-3625-4a63-a65b-361da87376f0 gnu.system=/gnu/store/7l4nmzyp4ivf958mvyzv0yflrh10h43q-system gnu.load=/gnu/store/7l4nmzyp4ivf958mvyzv0yflrh10h43q-system/boot modprobe.blacklist=nouveau modprobe.blacklist=usbmouse,usbkbd quiet
[    16.259]  
[    16.259] Current version of pixman: 0.40.0
[    16.259] 	Before reporting problems, check http://wiki.x.org
	to make sure that you have the latest version.
[    16.259] Markers: (--) probed, (**) from config file, (==) default setting,
	(++) from command line, (!!) notice, (II) informational,
	(WW) warning, (EE) error, (NI) not implemented, (??) unknown.
[    16.259] (==) Log file: "/var/lib/gdm/.local/share/xorg/Xorg.0.log", Time: Sat Apr  8 09:08:17 2023
[    16.261] (++) Using config file: "/gnu/store/by1l47wl779yr4czzf7rmav2ppkjckv1-xserver.conf"
[    16.261] (++) Using config directory: "/gnu/store/xx0zn095xwqlw8p35w3khkfliki85ww5-xorg.conf.d"
[    16.261] (==) Using system config directory "/gnu/store/7gscf7hxwc4qr78ih2s1anyz1pk7lx7c-xorg-server-21.1.4/share/X11/xorg.conf.d"
[    16.262] (==) No Layout section.  Using the first Screen section.
[    16.262] (==) No screen section available. Using defaults.
[    16.262] (**) |-->Screen "Default Screen Section" (0)
[    16.262] (**) |   |-->Monitor "<default monitor>"
[    16.262] (==) No monitor specified for screen "Default Screen Section".
	Using a default monitor configuration.
[    16.262] (**) Option "AllowMouseOpenFail" "on"
[    16.262] (==) Automatically adding devices
[    16.262] (==) Automatically enabling devices
[    16.262] (==) Automatically adding GPU devices
[    16.262] (==) Automatically binding GPU devices
[    16.262] (==) Max clients allowed: 256, resource mask: 0x1fffff
[    16.264] (**) FontPath set to:
	/gnu/store/mhs4wss4yi51wcb9hqg5lag6liv24bd7-font-alias-1.0.4/share/fonts/X11/75dpi,
	/gnu/store/mhs4wss4yi51wcb9hqg5lag6liv24bd7-font-alias-1.0.4/share/fonts/X11/100dpi,
	/gnu/store/mhs4wss4yi51wcb9hqg5lag6liv24bd7-font-alias-1.0.4/share/fonts/X11/misc,
	/gnu/store/mhs4wss4yi51wcb9hqg5lag6liv24bd7-font-alias-1.0.4/share/fonts/X11/cyrillic,
	/gnu/store/m4ggkiz0qrc97gyz9i2xsyvvlx0s310v-font-misc-misc-1.1.2/share/fonts/X11/misc,
	/gnu/store/yia882nfzcajv2gz5riarip820r0jn7y-font-adobe75dpi-1.0.3/share/fonts/X11/75dpi
[    16.264] (**) ModulePath set to "/gnu/store/qabg4sw93acij4sbn1r65di80ic5baaq-xf86-video-vesa-2.6.0/lib/xorg/modules/drivers,/gnu/store/nqrb2khahnziyf7jvrss3qcgbpr4hcdh-xf86-video-fbdev-0.5.0/lib/xorg/modules/drivers,/gnu/store/31bm96d0wcsb9ifn2zsca2mqbfgxr6pv-xf86-video-amdgpu-22.0.0/lib/xorg/modules/drivers,/gnu/store/vn7rqg5s5hkqxkbwwq2vnrpz2ph6x2bl-xf86-video-ati-19.1.0-1.5eba006/lib/xorg/modules/drivers,/gnu/store/zx2imsnbdwaiw5mhwm533wnk2063gapp-xf86-video-cirrus-1.6.0/lib/xorg/modules/drivers,/gnu/store/vx9ly3bzd6vhx7f4wa5iqqir44p0mmm5-xf86-video-intel-2.99.917-18.31486f4/lib/xorg/modules/drivers,/gnu/store/d2m9r1gx05h3lq49ihvmmgh502ifv2a4-xf86-video-mach64-6.9.7/lib/xorg/modules/drivers,/gnu/store/rnrpgmfm6k270s746zk7rfif3lh4c684-xf86-video-nouveau-1.0.17/lib/xorg/modules/drivers,/gnu/store/zn7xcksvxkp294nc9vldrx77ifcdxz09-xf86-video-nv-2.1.22/lib/xorg/modules/drivers,/gnu/store/6ngm1lczxixps18ms8r26xf6a0pbl1fm-xf86-video-sis-0.12.0/lib/xorg/modules/drivers,/gnu/store/6ifdphlzjk1yrj65lqzdbcxjxhwrfs8p-xf86-inp
[    16.264] (II) The server relies on udev to provide the list of input devices.
	If no devices become available, reconfigure udev or disable AutoAddDevices.
[    16.264] (II) Loader magic: 0x634dc0
[    16.264] (II) Module ABI versions:
[    16.264] 	X.Org ANSI C Emulation: 0.4
[    16.264] 	X.Org Video Driver: 25.2
[    16.264] 	X.Org XInput driver : 24.4
[    16.264] 	X.Org Server Extension : 10.0
[    16.265] (++) using VT number 7

[    16.265] (II) systemd-logind: took control of session /org/freedesktop/login1/session/c1
[    16.266] (II) xfree86: Adding drm device (/dev/dri/card0)
[    16.266] (II) Platform probe for /sys/devices/pci0000:00/0000:00:03.1/0000:26:00.0/drm/card0
[    16.266] (II) systemd-logind: got fd for /dev/dri/card0 226:0 fd 13 paused 0
[    16.268] (--) PCI:*(38@0:0:0) 10de:1e84:1458:4001 rev 161, Mem @ 0xf6000000/16777216, 0xe0000000/268435456, 0xf0000000/33554432, I/O @ 0x0000e000/128, BIOS @ 0x????????/524288
[    16.269] (WW) Open ACPI failed (/var/run/acpid.socket) (No such file or directory)
[    16.269] (II) LoadModule: "glx"
[    16.275] (II) Loading /gnu/store/7gscf7hxwc4qr78ih2s1anyz1pk7lx7c-xorg-server-21.1.4/lib/xorg/modules/extensions/libglx.so
[    16.284] (II) Module glx: vendor="X.Org Foundation"
[    16.284] 	compiled for 1.21.1.4, module version = 1.0.0
[    16.284] 	ABI class: X.Org Server Extension, version 10.0
[    16.284] (==) Matched nouveau as autoconfigured driver 0
[    16.284] (==) Matched nv as autoconfigured driver 1
[    16.284] (==) Matched modesetting as autoconfigured driver 2
[    16.284] (==) Matched fbdev as autoconfigured driver 3
[    16.284] (==) Matched vesa as autoconfigured driver 4
[    16.284] (==) Assigned the driver to the xf86ConfigLayout
[    16.284] (II) LoadModule: "nouveau"
[    16.284] (II) Loading /gnu/store/rnrpgmfm6k270s746zk7rfif3lh4c684-xf86-video-nouveau-1.0.17/lib/xorg/modules/drivers/nouveau_drv.so
[    16.285] (II) Module nouveau: vendor="X.Org Foundation"
[    16.285] 	compiled for 1.21.1.4, module version = 1.0.17
[    16.285] 	Module class: X.Org Video Driver
[    16.285] 	ABI class: X.Org Video Driver, version 25.2
[    16.285] (II) LoadModule: "nv"
[    16.285] (II) Loading /gnu/store/zn7xcksvxkp294nc9vldrx77ifcdxz09-xf86-video-nv-2.1.22/lib/xorg/modules/drivers/nv_drv.so
[    16.286] (II) Module nv: vendor="X.Org Foundation"
[    16.286] 	compiled for 1.21.1.4, module version = 2.1.22
[    16.286] 	Module class: X.Org Video Driver
[    16.286] 	ABI class: X.Org Video Driver, version 25.2
[    16.286] (II) LoadModule: "modesetting"
[    16.286] (II) Loading /gnu/store/7gscf7hxwc4qr78ih2s1anyz1pk7lx7c-xorg-server-21.1.4/lib/xorg/modules/drivers/modesetting_drv.so
[    16.287] (II) Module modesetting: vendor="X.Org Foundation"
[    16.287] 	compiled for 1.21.1.4, module version = 1.21.1
[    16.287] 	Module class: X.Org Video Driver
[    16.287] 	ABI class: X.Org Video Driver, version 25.2
[    16.287] (II) LoadModule: "fbdev"
[    16.287] (II) Loading /gnu/store/nqrb2khahnziyf7jvrss3qcgbpr4hcdh-xf86-video-fbdev-0.5.0/lib/xorg/modules/drivers/fbdev_drv.so
[    16.287] (II) Module fbdev: vendor="X.Org Foundation"
[    16.287] 	compiled for 1.21.1.4, module version = 0.5.0
[    16.287] 	Module class: X.Org Video Driver
[    16.287] 	ABI class: X.Org Video Driver, version 25.2
[    16.287] (II) LoadModule: "vesa"
[    16.287] (II) Loading /gnu/store/qabg4sw93acij4sbn1r65di80ic5baaq-xf86-video-vesa-2.6.0/lib/xorg/modules/drivers/vesa_drv.so
[    16.287] (II) Module vesa: vendor="X.Org Foundation"
[    16.287] 	compiled for 1.21.1.4, module version = 2.6.0
[    16.287] 	Module class: X.Org Video Driver
[    16.287] 	ABI class: X.Org Video Driver, version 25.2
[    16.287] (II) NOUVEAU driver 
[    16.287] (II) NOUVEAU driver for NVIDIA chipset families :
[    16.287] 	RIVA TNT            (NV04)
[    16.287] 	RIVA TNT2           (NV05)
[    16.287] 	GeForce 256         (NV10)
[    16.287] 	GeForce 2           (NV11, NV15)
[    16.287] 	GeForce 4MX         (NV17, NV18)
[    16.287] 	GeForce 3           (NV20)
[    16.287] 	GeForce 4Ti         (NV25, NV28)
[    16.287] 	GeForce FX          (NV3x)
[    16.287] 	GeForce 6           (NV4x)
[    16.287] 	GeForce 7           (G7x)
[    16.287] 	GeForce 8           (G8x)
[    16.287] 	GeForce 9           (G9x)
[    16.287] 	GeForce GTX 2xx/3xx (GT2xx)
[    16.287] 	GeForce GTX 4xx/5xx (GFxxx)
[    16.288] 	GeForce GTX 6xx/7xx (GKxxx)
[    16.288] 	GeForce GTX 9xx     (GMxxx)
[    16.288] 	GeForce GTX 10xx    (GPxxx)
[    16.288] (II) NOUVEAU driver 
[    16.288] (II) NOUVEAU driver for NVIDIA chipset families :
[    16.288] 	RIVA TNT            (NV04)
[    16.288] 	RIVA TNT2           (NV05)
[    16.288] 	GeForce 256         (NV10)
[    16.288] 	GeForce 2           (NV11, NV15)
[    16.288] 	GeForce 4MX         (NV17, NV18)
[    16.288] 	GeForce 3           (NV20)
[    16.288] 	GeForce 4Ti         (NV25, NV28)
[    16.288] 	GeForce FX          (NV3x)
[    16.288] 	GeForce 6           (NV4x)
[    16.288] 	GeForce 7           (G7x)
[    16.288] 	GeForce 8           (G8x)
[    16.288] 	GeForce 9           (G9x)
[    16.288] 	GeForce GTX 2xx/3xx (GT2xx)
[    16.288] 	GeForce GTX 4xx/5xx (GFxxx)
[    16.288] 	GeForce GTX 6xx/7xx (GKxxx)
[    16.288] 	GeForce GTX 9xx     (GMxxx)
[    16.288] 	GeForce GTX 10xx    (GPxxx)
[    16.288] (II) modesetting: Driver for Modesetting Kernel Drivers: kms
[    16.288] (II) FBDEV: driver for framebuffer: fbdev
[    16.288] (II) VESA: driver for VESA chipsets: vesa
[    16.288] xf86EnableIO: failed to enable I/O ports 0000-03ff (Operation not permitted)
[    16.288] (EE) [drm] Failed to open DRM device for (null): -2
[    16.288] (EE) [drm] Failed to open DRM device for pci:0000:26:00.0: -19
[    16.288] (EE) [drm] Failed to open DRM device for (null): -2
[    16.288] (EE) [drm] Failed to open DRM device for pci:0000:26:00.0: -19
[    16.288] (WW) Falling back to old probe method for modesetting
[    16.288] (II) Loading sub module "fbdevhw"
[    16.288] (II) LoadModule: "fbdevhw"
[    16.288] (II) Loading /gnu/store/7gscf7hxwc4qr78ih2s1anyz1pk7lx7c-xorg-server-21.1.4/lib/xorg/modules/libfbdevhw.so
[    16.289] (II) Module fbdevhw: vendor="X.Org Foundation"
[    16.289] 	compiled for 1.21.1.4, module version = 0.0.2
[    16.289] 	ABI class: X.Org Video Driver, version 25.2
[    16.289] (EE) Unable to find a valid framebuffer device
[    16.289] (WW) Falling back to old probe method for fbdev
[    16.289] (II) Loading sub module "fbdevhw"
[    16.289] (II) LoadModule: "fbdevhw"
[    16.289] (II) Loading /gnu/store/7gscf7hxwc4qr78ih2s1anyz1pk7lx7c-xorg-server-21.1.4/lib/xorg/modules/libfbdevhw.so
[    16.289] (II) Module fbdevhw: vendor="X.Org Foundation"
[    16.289] 	compiled for 1.21.1.4, module version = 0.0.2
[    16.289] 	ABI class: X.Org Video Driver, version 25.2
[    16.289] (II) FBDEV(2): using default device
[    16.289] vesa: Refusing to run, Framebuffer or dri device present
[    16.289] (EE) [drm] Failed to open DRM device for (null): -2
[    16.289] (EE) [drm] Failed to open DRM device for (null): -2
[    16.289] (WW) VGA arbiter: cannot open kernel arbiter, no multi-card support
[    16.289] (EE) Screen 0 deleted because of no matching config section.
[    16.289] (II) UnloadModule: "modesetting"
[    16.289] (EE) Screen 0 deleted because of no matching config section.
[    16.289] (II) UnloadModule: "fbdev"
[    16.289] (II) UnloadSubModule: "fbdevhw"
[    16.289] (II) FBDEV(0): Creating default Display subsection in Screen section
	"Default Screen Section" for depth/fbbpp 24/32
[    16.289] (==) FBDEV(0): Depth 24, (==) framebuffer bpp 32
[    16.289] (==) FBDEV(0): RGB weight 888
[    16.289] (==) FBDEV(0): Default visual is TrueColor
[    16.289] (==) FBDEV(0): Using gamma correction (1.0, 1.0, 1.0)
[    16.289] (II) FBDEV(0): hardware: EFI VGA (video memory: 3072kB)
[    16.289] (DB) xf86MergeOutputClassOptions unsupported bus type 0
[    16.289] (II) FBDEV(0): checking modes against framebuffer device...
[    16.289] (II) FBDEV(0): checking modes against monitor...
[    16.289] (II) FBDEV(0): Virtual size is 1024x768 (pitch 1024)
[    16.289] (**) FBDEV(0):  Built-in mode "current": 78.7 MHz, 59.9 kHz, 75.7 Hz
[    16.289] (II) FBDEV(0): Modeline "current"x0.0   78.65  1024 1056 1184 1312  768 772 776 792 -hsync -vsync -csync (59.9 kHz b)
[    16.289] (==) FBDEV(0): DPI set to (96, 96)
[    16.289] (II) Loading sub module "fb"
[    16.289] (II) LoadModule: "fb"
[    16.289] (II) Module "fb" already built-in
[    16.289] (**) FBDEV(0): using shadow framebuffer
[    16.289] (II) Loading sub module "shadow"
[    16.289] (II) LoadModule: "shadow"
[    16.289] (II) Loading /gnu/store/7gscf7hxwc4qr78ih2s1anyz1pk7lx7c-xorg-server-21.1.4/lib/xorg/modules/libshadow.so
[    16.290] (II) Module shadow: vendor="X.Org Foundation"
[    16.290] 	compiled for 1.21.1.4, module version = 1.1.0
[    16.290] 	ABI class: X.Org ANSI C Emulation, version 0.4
[    16.290] (II) FBDEV(0): FBIOBLANK: Invalid argument (Screen blanking not supported by kernel - disabling)
[    16.290] (==) FBDEV(0): Backing store enabled
[    16.291] (==) FBDEV(0): DPMS enabled
[    16.291] (II) Initializing extension Generic Event Extension
[    16.291] (II) Initializing extension SHAPE
[    16.291] (II) Initializing extension MIT-SHM
[    16.291] (II) Initializing extension XInputExtension
[    16.292] (II) Initializing extension XTEST
[    16.292] (II) Initializing extension BIG-REQUESTS
[    16.292] (II) Initializing extension SYNC
[    16.292] (II) Initializing extension XKEYBOARD
[    16.292] (II) Initializing extension XC-MISC
[    16.292] (II) Initializing extension SECURITY
[    16.292] (II) Initializing extension XFIXES
[    16.292] (II) Initializing extension RENDER
[    16.292] (II) Initializing extension RANDR
[    16.292] (II) Initializing extension COMPOSITE
[    16.292] (II) Initializing extension DAMAGE
[    16.292] (II) Initializing extension MIT-SCREEN-SAVER
[    16.292] (II) Initializing extension DOUBLE-BUFFER
[    16.292] (II) Initializing extension RECORD
[    16.292] (II) Initializing extension DPMS
[    16.293] (II) Initializing extension Present
[    16.293] (II) Initializing extension DRI3
[    16.293] (II) Initializing extension X-Resource
[    16.293] (II) Initializing extension XVideo
[    16.293] (II) Initializing extension XVideo-MotionCompensation
[    16.293] (II) Initializing extension GLX
[    16.293] (II) AIGLX: Screen 0 is not DRI2 capable
[    16.394] (II) IGLX: Loaded and initialized swrast
[    16.394] (II) GLX: Initialized DRISWRAST GL provider for screen 0
[    16.394] (II) Initializing extension XFree86-VidModeExtension
[    16.394] (II) Initializing extension XFree86-DGA
[    16.394] (II) Initializing extension XFree86-DRI
[    16.395] (II) Initializing extension DRI2
[    16.424] (II) config/udev: Adding input device Power Button (/dev/input/event1)
[    16.424] (**) Power Button: Applying InputClass "evdev keyboard catchall"
[    16.424] (**) Power Button: Applying InputClass "libinput keyboard catchall"
[    16.424] (**) Power Button: Applying InputClass "evdev keyboard catchall"
[    16.424] (II) LoadModule: "evdev"
[    16.424] (II) Loading /gnu/store/ysjpdxnb3lqr3h98rqbv4am1ycwdp9p8-xf86-input-evdev-2.10.6/lib/xorg/modules/input/evdev_drv.so
[    16.426] (II) Module evdev: vendor="X.Org Foundation"
[    16.426] 	compiled for 1.21.1.4, module version = 2.10.6
[    16.426] 	Module class: X.Org XInput Driver
[    16.426] 	ABI class: X.Org XInput driver, version 24.4
[    16.426] (II) Using input driver 'evdev' for 'Power Button'
[    16.427] (II) systemd-logind: got fd for /dev/input/event1 13:65 fd 21 paused 0
[    16.427] (**) Power Button: always reports core events
[    16.427] (**) evdev: Power Button: Device: "/dev/input/event1"
[    16.427] (--) evdev: Power Button: Vendor 0 Product 0x1
[    16.427] (--) evdev: Power Button: Found keys
[    16.427] (II) evdev: Power Button: Configuring as keyboard
[    16.427] (**) Option "config_info" "udev:/sys/devices/LNXSYSTM:00/LNXPWRBN:00/input/input1/event1"
[    16.427] (II) XINPUT: Adding extended input device "Power Button" (type: KEYBOARD, id 6)
[    16.427] (**) Option "xkb_rules" "evdev"
[    16.427] (**) Option "xkb_layout" "us"
[    16.427] (II) config/udev: Adding input device Power Button (/dev/input/event0)
[    16.427] (**) Power Button: Applying InputClass "evdev keyboard catchall"
[    16.427] (**) Power Button: Applying InputClass "libinput keyboard catchall"
[    16.427] (**) Power Button: Applying InputClass "evdev keyboard catchall"
[    16.427] (II) Using input driver 'evdev' for 'Power Button'
[    16.427] (II) systemd-logind: got fd for /dev/input/event0 13:64 fd 22 paused 0
[    16.427] (**) Power Button: always reports core events
[    16.427] (**) evdev: Power Button: Device: "/dev/input/event0"
[    16.427] (--) evdev: Power Button: Vendor 0 Product 0x1
[    16.427] (--) evdev: Power Button: Found keys
[    16.427] (II) evdev: Power Button: Configuring as keyboard
[    16.427] (**) Option "config_info" "udev:/sys/devices/LNXSYSTM:00/LNXSYBUS:00/PNP0C0C:00/input/input0/event0"
[    16.427] (II) XINPUT: Adding extended input device "Power Button" (type: KEYBOARD, id 7)
[    16.427] (**) Option "xkb_rules" "evdev"
[    16.427] (**) Option "xkb_layout" "us"
[    16.428] (II) config/udev: Adding input device HDA NVidia HDMI/DP,pcm=7 (/dev/input/event10)
[    16.428] (II) No input driver specified, ignoring this device.
[    16.428] (II) This device may have been added with another device file.
[    16.428] (II) config/udev: Adding input device HDA NVidia HDMI/DP,pcm=8 (/dev/input/event11)
[    16.428] (II) No input driver specified, ignoring this device.
[    16.428] (II) This device may have been added with another device file.
[    16.428] (II) config/udev: Adding input device HDA NVidia HDMI/DP,pcm=9 (/dev/input/event12)
[    16.428] (II) No input driver specified, ignoring this device.
[    16.428] (II) This device may have been added with another device file.
[    16.428] (II) config/udev: Adding input device HDA NVidia HDMI/DP,pcm=3 (/dev/input/event9)
[    16.428] (II) No input driver specified, ignoring this device.
[    16.428] (II) This device may have been added with another device file.
[    16.428] (II) config/udev: Adding input device Cooler Master Technology Inc. CK530 (/dev/input/event2)
[    16.428] (**) Cooler Master Technology Inc. CK530: Applying InputClass "evdev keyboard catchall"
[    16.428] (**) Cooler Master Technology Inc. CK530: Applying InputClass "libinput keyboard catchall"
[    16.428] (**) Cooler Master Technology Inc. CK530: Applying InputClass "evdev keyboard catchall"
[    16.428] (II) Using input driver 'evdev' for 'Cooler Master Technology Inc. CK530'
[    16.429] (II) systemd-logind: got fd for /dev/input/event2 13:66 fd 23 paused 0
[    16.429] (**) Cooler Master Technology Inc. CK530: always reports core events
[    16.429] (**) evdev: Cooler Master Technology Inc. CK530: Device: "/dev/input/event2"
[    16.429] (--) evdev: Cooler Master Technology Inc. CK530: Vendor 0x2516 Product 0x9f
[    16.429] (--) evdev: Cooler Master Technology Inc. CK530: Found keys
[    16.429] (II) evdev: Cooler Master Technology Inc. CK530: Configuring as keyboard
[    16.429] (**) Option "config_info" "udev:/sys/devices/pci0000:00/0000:00:08.1/0000:28:00.3/usb5/5-1/5-1.1/5-1.1:1.0/0003:2516:009F.0001/input/input2/event2"
[    16.429] (II) XINPUT: Adding extended input device "Cooler Master Technology Inc. CK530" (type: KEYBOARD, id 8)
[    16.429] (**) Option "xkb_rules" "evdev"
[    16.429] (**) Option "xkb_layout" "us"
[    16.429] (II) config/udev: Adding input device Cooler Master Technology Inc. CK530 System Control (/dev/input/event3)
[    16.429] (**) Cooler Master Technology Inc. CK530 System Control: Applying InputClass "evdev keyboard catchall"
[    16.429] (**) Cooler Master Technology Inc. CK530 System Control: Applying InputClass "libinput keyboard catchall"
[    16.429] (**) Cooler Master Technology Inc. CK530 System Control: Applying InputClass "evdev keyboard catchall"
[    16.429] (II) Using input driver 'evdev' for 'Cooler Master Technology Inc. CK530 System Control'
[    16.429] (II) systemd-logind: got fd for /dev/input/event3 13:67 fd 24 paused 0
[    16.429] (**) Cooler Master Technology Inc. CK530 System Control: always reports core events
[    16.429] (**) evdev: Cooler Master Technology Inc. CK530 System Control: Device: "/dev/input/event3"
[    16.429] (--) evdev: Cooler Master Technology Inc. CK530 System Control: Vendor 0x2516 Product 0x9f
[    16.429] (--) evdev: Cooler Master Technology Inc. CK530 System Control: Found keys
[    16.429] (II) evdev: Cooler Master Technology Inc. CK530 System Control: Configuring as keyboard
[    16.429] (**) Option "config_info" "udev:/sys/devices/pci0000:00/0000:00:08.1/0000:28:00.3/usb5/5-1/5-1.1/5-1.1:1.2/0003:2516:009F.0003/input/input3/event3"
[    16.429] (II) XINPUT: Adding extended input device "Cooler Master Technology Inc. CK530 System Control" (type: KEYBOARD, id 9)
[    16.429] (**) Option "xkb_rules" "evdev"
[    16.429] (**) Option "xkb_layout" "us"
[    16.430] (II) config/udev: Adding input device Cooler Master Technology Inc. CK530 Consumer Control (/dev/input/event4)
[    16.430] (**) Cooler Master Technology Inc. CK530 Consumer Control: Applying InputClass "evdev keyboard catchall"
[    16.430] (**) Cooler Master Technology Inc. CK530 Consumer Control: Applying InputClass "libinput keyboard catchall"
[    16.430] (**) Cooler Master Technology Inc. CK530 Consumer Control: Applying InputClass "evdev keyboard catchall"
[    16.430] (II) Using input driver 'evdev' for 'Cooler Master Technology Inc. CK530 Consumer Control'
[    16.430] (II) systemd-logind: got fd for /dev/input/event4 13:68 fd 25 paused 0
[    16.430] (**) Cooler Master Technology Inc. CK530 Consumer Control: always reports core events
[    16.430] (**) evdev: Cooler Master Technology Inc. CK530 Consumer Control: Device: "/dev/input/event4"
[    16.430] (--) evdev: Cooler Master Technology Inc. CK530 Consumer Control: Vendor 0x2516 Product 0x9f
[    16.430] (--) evdev: Cooler Master Technology Inc. CK530 Consumer Control: Found keys
[    16.430] (II) evdev: Cooler Master Technology Inc. CK530 Consumer Control: Configuring as keyboard
[    16.430] (**) Option "config_info" "udev:/sys/devices/pci0000:00/0000:00:08.1/0000:28:00.3/usb5/5-1/5-1.1/5-1.1:1.2/0003:2516:009F.0003/input/input4/event4"
[    16.430] (II) XINPUT: Adding extended input device "Cooler Master Technology Inc. CK530 Consumer Control" (type: KEYBOARD, id 10)
[    16.430] (**) Option "xkb_rules" "evdev"
[    16.430] (**) Option "xkb_layout" "us"
[    16.430] (II) config/udev: Adding input device Cooler Master Technology Inc. CK530 Mouse (/dev/input/event5)
[    16.430] (**) Cooler Master Technology Inc. CK530 Mouse: Applying InputClass "evdev pointer catchall"
[    16.430] (**) Cooler Master Technology Inc. CK530 Mouse: Applying InputClass "libinput pointer catchall"
[    16.430] (II) LoadModule: "libinput"
[    16.430] (II) Loading /gnu/store/6ifdphlzjk1yrj65lqzdbcxjxhwrfs8p-xf86-input-libinput-1.2.1/lib/xorg/modules/input/libinput_drv.so
[    16.432] (II) Module libinput: vendor="X.Org Foundation"
[    16.432] 	compiled for 1.21.1.4, module version = 1.2.1
[    16.432] 	Module class: X.Org XInput Driver
[    16.432] 	ABI class: X.Org XInput driver, version 24.4
[    16.432] (II) Using input driver 'libinput' for 'Cooler Master Technology Inc. CK530 Mouse'
[    16.432] (II) systemd-logind: got fd for /dev/input/event5 13:69 fd 26 paused 0
[    16.432] (**) Cooler Master Technology Inc. CK530 Mouse: always reports core events
[    16.432] (**) Option "Device" "/dev/input/event5"
[    16.436] (II) event5  - Cooler Master Technology Inc. CK530 Mouse: is tagged by udev as: Mouse
[    16.436] (II) event5  - Cooler Master Technology Inc. CK530 Mouse: device is a pointer
[    16.436] (II) event5  - Cooler Master Technology Inc. CK530 Mouse: device removed
[    16.436] (**) Option "config_info" "udev:/sys/devices/pci0000:00/0000:00:08.1/0000:28:00.3/usb5/5-1/5-1.1/5-1.1:1.2/0003:2516:009F.0003/input/input5/event5"
[    16.436] (II) XINPUT: Adding extended input device "Cooler Master Technology Inc. CK530 Mouse" (type: MOUSE, id 11)
[    16.436] (**) Option "AccelerationScheme" "none"
[    16.436] (**) Cooler Master Technology Inc. CK530 Mouse: (accel) selected scheme none/0
[    16.436] (**) Cooler Master Technology Inc. CK530 Mouse: (accel) acceleration factor: 2.000
[    16.436] (**) Cooler Master Technology Inc. CK530 Mouse: (accel) acceleration threshold: 4
[    16.436] (II) event5  - Cooler Master Technology Inc. CK530 Mouse: is tagged by udev as: Mouse
[    16.436] (II) event5  - Cooler Master Technology Inc. CK530 Mouse: device is a pointer
[    16.436] (II) config/udev: Adding input device Cooler Master Technology Inc. CK530 Mouse (/dev/input/mouse0)
[    16.436] (II) No input driver specified, ignoring this device.
[    16.436] (II) This device may have been added with another device file.
[    16.437] (II) config/udev: Adding input device Cooler Master Technology Inc. CK530 Keyboard (/dev/input/event6)
[    16.437] (**) Cooler Master Technology Inc. CK530 Keyboard: Applying InputClass "evdev keyboard catchall"
[    16.437] (**) Cooler Master Technology Inc. CK530 Keyboard: Applying InputClass "libinput keyboard catchall"
[    16.437] (**) Cooler Master Technology Inc. CK530 Keyboard: Applying InputClass "evdev keyboard catchall"
[    16.437] (II) Using input driver 'evdev' for 'Cooler Master Technology Inc. CK530 Keyboard'
[    16.437] (II) systemd-logind: got fd for /dev/input/event6 13:70 fd 29 paused 0
[    16.437] (**) Cooler Master Technology Inc. CK530 Keyboard: always reports core events
[    16.437] (**) evdev: Cooler Master Technology Inc. CK530 Keyboard: Device: "/dev/input/event6"
[    16.437] (--) evdev: Cooler Master Technology Inc. CK530 Keyboard: Vendor 0x2516 Product 0x9f
[    16.437] (--) evdev: Cooler Master Technology Inc. CK530 Keyboard: Found keys
[    16.437] (II) evdev: Cooler Master Technology Inc. CK530 Keyboard: Configuring as keyboard
[    16.437] (**) Option "config_info" "udev:/sys/devices/pci0000:00/0000:00:08.1/0000:28:00.3/usb5/5-1/5-1.1/5-1.1:1.2/0003:2516:009F.0003/input/input6/event6"
[    16.437] (II) XINPUT: Adding extended input device "Cooler Master Technology Inc. CK530 Keyboard" (type: KEYBOARD, id 12)
[    16.437] (**) Option "xkb_rules" "evdev"
[    16.437] (**) Option "xkb_layout" "us"
[    16.437] (II) config/udev: Adding input device Logitech USB Optical Mouse (/dev/input/event7)
[    16.437] (**) Logitech USB Optical Mouse: Applying InputClass "evdev pointer catchall"
[    16.437] (**) Logitech USB Optical Mouse: Applying InputClass "libinput pointer catchall"
[    16.437] (II) Using input driver 'libinput' for 'Logitech USB Optical Mouse'
[    16.438] (II) systemd-logind: got fd for /dev/input/event7 13:71 fd 30 paused 0
[    16.438] (**) Logitech USB Optical Mouse: always reports core events
[    16.438] (**) Option "Device" "/dev/input/event7"
[    16.438] (II) event7  - Logitech USB Optical Mouse: is tagged by udev as: Mouse
[    16.438] (II) event7  - Logitech USB Optical Mouse: device is a pointer
[    16.438] (II) event7  - Logitech USB Optical Mouse: device removed
[    16.438] (**) Option "config_info" "udev:/sys/devices/pci0000:00/0000:00:08.1/0000:28:00.3/usb5/5-1/5-1.2/5-1.2:1.0/0003:046D:C077.0004/input/input7/event7"
[    16.438] (II) XINPUT: Adding extended input device "Logitech USB Optical Mouse" (type: MOUSE, id 13)
[    16.438] (**) Option "AccelerationScheme" "none"
[    16.438] (**) Logitech USB Optical Mouse: (accel) selected scheme none/0
[    16.438] (**) Logitech USB Optical Mouse: (accel) acceleration factor: 2.000
[    16.438] (**) Logitech USB Optical Mouse: (accel) acceleration threshold: 4
[    16.439] (II) event7  - Logitech USB Optical Mouse: is tagged by udev as: Mouse
[    16.439] (II) event7  - Logitech USB Optical Mouse: device is a pointer
[    16.439] (II) config/udev: Adding input device Logitech USB Optical Mouse (/dev/input/mouse1)
[    16.439] (II) No input driver specified, ignoring this device.
[    16.439] (II) This device may have been added with another device file.
[    16.439] (II) config/udev: Adding input device HD-Audio Generic Front Mic (/dev/input/event13)
[    16.439] (II) No input driver specified, ignoring this device.
[    16.439] (II) This device may have been added with another device file.
[    16.439] (II) config/udev: Adding input device HD-Audio Generic Rear Mic (/dev/input/event14)
[    16.439] (II) No input driver specified, ignoring this device.
[    16.439] (II) This device may have been added with another device file.
[    16.439] (II) config/udev: Adding input device HD-Audio Generic Line (/dev/input/event15)
[    16.439] (II) No input driver specified, ignoring this device.
[    16.439] (II) This device may have been added with another device file.
[    16.439] (II) config/udev: Adding input device HD-Audio Generic Line Out Front (/dev/input/event16)
[    16.439] (II) No input driver specified, ignoring this device.
[    16.439] (II) This device may have been added with another device file.
[    16.439] (II) config/udev: Adding input device HD-Audio Generic Line Out Surround (/dev/input/event17)
[    16.439] (II) No input driver specified, ignoring this device.
[    16.439] (II) This device may have been added with another device file.
[    16.439] (II) config/udev: Adding input device HD-Audio Generic Line Out CLFE (/dev/input/event18)
[    16.439] (II) No input driver specified, ignoring this device.
[    16.439] (II) This device may have been added with another device file.
[    16.440] (II) config/udev: Adding input device HD-Audio Generic Line Out Side (/dev/input/event19)
[    16.440] (II) No input driver specified, ignoring this device.
[    16.440] (II) This device may have been added with another device file.
[    16.440] (II) config/udev: Adding input device HD-Audio Generic Front Headphone (/dev/input/event20)
[    16.440] (II) No input driver specified, ignoring this device.
[    16.440] (II) This device may have been added with another device file.
[    16.440] (II) config/udev: Adding input device PC Speaker (/dev/input/event8)
[    16.440] (II) No input driver specified, ignoring this device.
[    16.440] (II) This device may have been added with another device file.
[    21.669] (**) Option "fd" "26"
[    21.669] (II) event5  - Cooler Master Technology Inc. CK530 Mouse: device removed
[    21.670] (**) Option "fd" "30"
[    21.670] (II) event7  - Logitech USB Optical Mouse: device removed
[    21.670] (II) systemd-logind: got pause for 13:65
[    21.670] (II) systemd-logind: got pause for 13:71
[    21.670] (II) systemd-logind: got pause for 13:67
[    21.671] (II) systemd-logind: got pause for 13:64
[    21.671] (II) systemd-logind: got pause for 13:70
[    21.671] (II) systemd-logind: got pause for 13:69
[    21.671] (II) systemd-logind: got pause for 13:68
[    21.671] (II) systemd-logind: got pause for 13:66
[    27.017] (II) UnloadModule: "libinput"
[    27.017] (II) systemd-logind: releasing fd for 13:71
[    27.048] (II) evdev: Cooler Master Technology Inc. CK530 Keyboard: Close
[    27.048] (II) UnloadModule: "evdev"
[    27.048] (II) systemd-logind: releasing fd for 13:70
[    27.140] (II) UnloadModule: "libinput"
[    27.140] (II) systemd-logind: releasing fd for 13:69
[    27.177] (II) evdev: Cooler Master Technology Inc. CK530 Consumer Control: Close
[    27.177] (II) UnloadModule: "evdev"
[    27.177] (II) systemd-logind: releasing fd for 13:68
[    27.193] (II) evdev: Cooler Master Technology Inc. CK530 System Control: Close
[    27.193] (II) UnloadModule: "evdev"
[    27.193] (II) systemd-logind: releasing fd for 13:67
[    27.209] (II) evdev: Cooler Master Technology Inc. CK530: Close
[    27.209] (II) UnloadModule: "evdev"
[    27.209] (II) systemd-logind: releasing fd for 13:66
[    27.225] (II) evdev: Power Button: Close
[    27.225] (II) UnloadModule: "evdev"
[    27.225] (II) systemd-logind: releasing fd for 13:64
[    27.241] (II) evdev: Power Button: Close
[    27.241] (II) UnloadModule: "evdev"
[    27.241] (II) systemd-logind: releasing fd for 13:65
[    27.259] (II) Server terminated successfully (0). Closing log file.
