[    0.000000] Linux version 6.1.23 (guix@guix) (gcc (GCC) 10.3.0, GNU ld (GNU Binutils) 2.37) #1 SMP PREEMPT_DYNAMIC 1
[    0.000000] Command line: BOOT_IMAGE=/gnu/store/4rx684ikrxsrnjnfbx5hw6kkm8xpn28n-linux-6.1.23/bzImage root=5fdf4f83-3625-4a63-a65b-361da87376f0 gnu.system=/gnu/store/2xl05qnmyjw4ih1q21gkavnyjpimg6ax-system gnu.load=/gnu/store/2xl05qnmyjw4ih1q21gkavnyjpimg6ax-system/boot modprobe.blacklist=nouveau modprobe.blacklist=usbmouse,usbkbd quiet
[    0.000000] KERNEL supported cpus:
[    0.000000]   Intel GenuineIntel
[    0.000000]   AMD AuthenticAMD
[    0.000000]   Hygon HygonGenuine
[    0.000000]   Centaur CentaurHauls
[    0.000000]   zhaoxin   Shanghai  
[    0.000000] x86/fpu: Supporting XSAVE feature 0x001: 'x87 floating point registers'
[    0.000000] x86/fpu: Supporting XSAVE feature 0x002: 'SSE registers'
[    0.000000] x86/fpu: Supporting XSAVE feature 0x004: 'AVX registers'
[    0.000000] x86/fpu: xstate_offset[2]:  576, xstate_sizes[2]:  256
[    0.000000] x86/fpu: Enabled xstate features 0x7, context size is 832 bytes, using 'compacted' format.
[    0.000000] signal: max sigframe size: 1776
[    0.000000] BIOS-provided physical RAM map:
[    0.000000] BIOS-e820: [mem 0x0000000000000000-0x000000000009ffff] usable
[    0.000000] BIOS-e820: [mem 0x00000000000a0000-0x00000000000fffff] reserved
[    0.000000] BIOS-e820: [mem 0x0000000000100000-0x0000000009d81fff] usable
[    0.000000] BIOS-e820: [mem 0x0000000009d82000-0x0000000009ffffff] reserved
[    0.000000] BIOS-e820: [mem 0x000000000a000000-0x000000000a1fffff] usable
[    0.000000] BIOS-e820: [mem 0x000000000a200000-0x000000000a20bfff] ACPI NVS
[    0.000000] BIOS-e820: [mem 0x000000000a20c000-0x000000000affffff] usable
[    0.000000] BIOS-e820: [mem 0x000000000b000000-0x000000000b01ffff] reserved
[    0.000000] BIOS-e820: [mem 0x000000000b020000-0x00000000db5c2fff] usable
[    0.000000] BIOS-e820: [mem 0x00000000db5c3000-0x00000000db72ffff] reserved
[    0.000000] BIOS-e820: [mem 0x00000000db730000-0x00000000dbbb1fff] usable
[    0.000000] BIOS-e820: [mem 0x00000000dbbb2000-0x00000000dbcc8fff] ACPI NVS
[    0.000000] BIOS-e820: [mem 0x00000000dbcc9000-0x00000000dca01fff] reserved
[    0.000000] BIOS-e820: [mem 0x00000000dca02000-0x00000000dcaacfff] type 20
[    0.000000] BIOS-e820: [mem 0x00000000dcaad000-0x00000000deffffff] usable
[    0.000000] BIOS-e820: [mem 0x00000000df000000-0x00000000dfffffff] reserved
[    0.000000] BIOS-e820: [mem 0x00000000f8000000-0x00000000fbffffff] reserved
[    0.000000] BIOS-e820: [mem 0x00000000fd000000-0x00000000ffffffff] reserved
[    0.000000] BIOS-e820: [mem 0x0000000100000000-0x000000081f37ffff] usable
[    0.000000] NX (Execute Disable) protection: active
[    0.000000] efi: EFI v2.70 by American Megatrends
[    0.000000] efi: ACPI 2.0=0xdbc45000 ACPI=0xdbc45000 SMBIOS=0xdc8eb000 MEMATTR=0xd7fbb698 ESRT=0xd7fbcf98 
[    0.000000] SMBIOS 2.8 present.
[    0.000000] DMI: Micro-Star International Co., Ltd MS-7C02/B450 TOMAHAWK MAX (MS-7C02), BIOS 3.30 09/17/2019
[    0.000000] tsc: Fast TSC calibration failed
[    0.000000] e820: update [mem 0x00000000-0x00000fff] usable ==> reserved
[    0.000000] e820: remove [mem 0x000a0000-0x000fffff] usable
[    0.000000] last_pfn = 0x81f380 max_arch_pfn = 0x400000000
[    0.000000] x86/PAT: Configuration [0-7]: WB  WC  UC- UC  WB  WP  UC- WT  
[    0.000000] total RAM covered: 3583M
[    0.000000] Found optimal setting for mtrr clean up
[    0.000000]  gran_size: 64K 	chunk_size: 64M 	num_reg: 4  	lose cover RAM: 0G
[    0.000000] e820: update [mem 0xdc0b0000-0xdc0bffff] usable ==> reserved
[    0.000000] e820: update [mem 0xe0000000-0xffffffff] usable ==> reserved
[    0.000000] last_pfn = 0xdf000 max_arch_pfn = 0x400000000
[    0.000000] esrt: Reserving ESRT space from 0x00000000d7fbcf98 to 0x00000000d7fbcfd0.
[    0.000000] e820: update [mem 0xd7fbc000-0xd7fbcfff] usable ==> reserved
[    0.000000] Using GB pages for direct mapping
[    0.000000] Secure boot disabled
[    0.000000] RAMDISK: [mem 0x36407000-0x371fafff]
[    0.000000] ACPI: Early table checksum verification disabled
[    0.000000] ACPI: RSDP 0x00000000DBC45000 000024 (v02 ALASKA)
[    0.000000] ACPI: XSDT 0x00000000DBC450A0 0000BC (v01 ALASKA A M I    01072009 AMI  00010013)
[    0.000000] ACPI: FACP 0x00000000DBC4CD10 000114 (v06 ALASKA A M I    01072009 AMI  00010013)
[    0.000000] ACPI: DSDT 0x00000000DBC451F0 007B20 (v02 ALASKA A M I    01072009 INTL 20120913)
[    0.000000] ACPI: FACS 0x00000000DBCB1E00 000040
[    0.000000] ACPI: APIC 0x00000000DBC4CE28 00015E (v03 ALASKA A M I    01072009 AMI  00010013)
[    0.000000] ACPI: FPDT 0x00000000DBC4CF88 000044 (v01 ALASKA A M I    01072009 AMI  00010013)
[    0.000000] ACPI: FIDT 0x00000000DBC4CFD0 00009C (v01 ALASKA A M I    01072009 AMI  00010013)
[    0.000000] ACPI: SSDT 0x00000000DBC4D070 0000FC (v02 ALASKA CPUSSDT  01072009 AMI  01072009)
[    0.000000] ACPI: SSDT 0x00000000DBC4D170 008C98 (v02 AMD    AMD ALIB 00000002 MSFT 04000000)
[    0.000000] ACPI: SSDT 0x00000000DBC55E08 0032ED (v01 AMD    AMD AOD  00000001 INTL 20120913)
[    0.000000] ACPI: MCFG 0x00000000DBC590F8 00003C (v01 ALASKA A M I    01072009 MSFT 00010013)
[    0.000000] ACPI: HPET 0x00000000DBC59138 000038 (v01 ALASKA A M I    01072009 AMI  00000005)
[    0.000000] ACPI: UEFI 0x00000000DBC59170 000042 (v01 ALASKA A M I    00000002      01000013)
[    0.000000] ACPI: IVRS 0x00000000DBC591B8 0000D0 (v02 AMD    AMD IVRS 00000001 AMD  00000000)
[    0.000000] ACPI: PCCT 0x00000000DBC59288 00006E (v01 AMD    AMD PCCT 00000001 AMD  00000000)
[    0.000000] ACPI: SSDT 0x00000000DBC592F8 003EC9 (v01 AMD    AMD CPU  00000001 AMD  00000001)
[    0.000000] ACPI: CRAT 0x00000000DBC5D1C8 001558 (v01 AMD    AMD CRAT 00000001 AMD  00000001)
[    0.000000] ACPI: CDIT 0x00000000DBC5E720 000029 (v01 AMD    AMD CDIT 00000001 AMD  00000001)
[    0.000000] ACPI: BGRT 0x00000000DBC5E750 000038 (v01 ALASKA A M I    01072009 AMI  00010013)
[    0.000000] ACPI: SSDT 0x00000000DBC5E788 001D4A (v01 AMD    AmdTable 00000001 INTL 20120913)
[    0.000000] ACPI: SSDT 0x00000000DBC604D8 0000BF (v01 AMD    AMD PT   00001000 INTL 20120913)
[    0.000000] ACPI: WSMT 0x00000000DBC60598 000028 (v01 ALASKA A M I    01072009 AMI  00010013)
[    0.000000] ACPI: Reserving FACP table memory at [mem 0xdbc4cd10-0xdbc4ce23]
[    0.000000] ACPI: Reserving DSDT table memory at [mem 0xdbc451f0-0xdbc4cd0f]
[    0.000000] ACPI: Reserving FACS table memory at [mem 0xdbcb1e00-0xdbcb1e3f]
[    0.000000] ACPI: Reserving APIC table memory at [mem 0xdbc4ce28-0xdbc4cf85]
[    0.000000] ACPI: Reserving FPDT table memory at [mem 0xdbc4cf88-0xdbc4cfcb]
[    0.000000] ACPI: Reserving FIDT table memory at [mem 0xdbc4cfd0-0xdbc4d06b]
[    0.000000] ACPI: Reserving SSDT table memory at [mem 0xdbc4d070-0xdbc4d16b]
[    0.000000] ACPI: Reserving SSDT table memory at [mem 0xdbc4d170-0xdbc55e07]
[    0.000000] ACPI: Reserving SSDT table memory at [mem 0xdbc55e08-0xdbc590f4]
[    0.000000] ACPI: Reserving MCFG table memory at [mem 0xdbc590f8-0xdbc59133]
[    0.000000] ACPI: Reserving HPET table memory at [mem 0xdbc59138-0xdbc5916f]
[    0.000000] ACPI: Reserving UEFI table memory at [mem 0xdbc59170-0xdbc591b1]
[    0.000000] ACPI: Reserving IVRS table memory at [mem 0xdbc591b8-0xdbc59287]
[    0.000000] ACPI: Reserving PCCT table memory at [mem 0xdbc59288-0xdbc592f5]
[    0.000000] ACPI: Reserving SSDT table memory at [mem 0xdbc592f8-0xdbc5d1c0]
[    0.000000] ACPI: Reserving CRAT table memory at [mem 0xdbc5d1c8-0xdbc5e71f]
[    0.000000] ACPI: Reserving CDIT table memory at [mem 0xdbc5e720-0xdbc5e748]
[    0.000000] ACPI: Reserving BGRT table memory at [mem 0xdbc5e750-0xdbc5e787]
[    0.000000] ACPI: Reserving SSDT table memory at [mem 0xdbc5e788-0xdbc604d1]
[    0.000000] ACPI: Reserving SSDT table memory at [mem 0xdbc604d8-0xdbc60596]
[    0.000000] ACPI: Reserving WSMT table memory at [mem 0xdbc60598-0xdbc605bf]
[    0.000000] No NUMA configuration found
[    0.000000] Faking a node at [mem 0x0000000000000000-0x000000081f37ffff]
[    0.000000] NODE_DATA(0) allocated [mem 0x81f37a000-0x81f37ffff]
[    0.000000] Zone ranges:
[    0.000000]   DMA      [mem 0x0000000000001000-0x0000000000ffffff]
[    0.000000]   DMA32    [mem 0x0000000001000000-0x00000000ffffffff]
[    0.000000]   Normal   [mem 0x0000000100000000-0x000000081f37ffff]
[    0.000000]   Device   empty
[    0.000000] Movable zone start for each node
[    0.000000] Early memory node ranges
[    0.000000]   node   0: [mem 0x0000000000001000-0x000000000009ffff]
[    0.000000]   node   0: [mem 0x0000000000100000-0x0000000009d81fff]
[    0.000000]   node   0: [mem 0x000000000a000000-0x000000000a1fffff]
[    0.000000]   node   0: [mem 0x000000000a20c000-0x000000000affffff]
[    0.000000]   node   0: [mem 0x000000000b020000-0x00000000db5c2fff]
[    0.000000]   node   0: [mem 0x00000000db730000-0x00000000dbbb1fff]
[    0.000000]   node   0: [mem 0x00000000dcaad000-0x00000000deffffff]
[    0.000000]   node   0: [mem 0x0000000100000000-0x000000081f37ffff]
[    0.000000] Initmem setup node 0 [mem 0x0000000000001000-0x000000081f37ffff]
[    0.000000] On node 0, zone DMA: 1 pages in unavailable ranges
[    0.000000] On node 0, zone DMA: 96 pages in unavailable ranges
[    0.000000] On node 0, zone DMA32: 638 pages in unavailable ranges
[    0.000000] On node 0, zone DMA32: 12 pages in unavailable ranges
[    0.000000] On node 0, zone DMA32: 32 pages in unavailable ranges
[    0.000000] On node 0, zone DMA32: 365 pages in unavailable ranges
[    0.000000] On node 0, zone DMA32: 3835 pages in unavailable ranges
[    0.000000] On node 0, zone Normal: 4096 pages in unavailable ranges
[    0.000000] On node 0, zone Normal: 3200 pages in unavailable ranges
[    0.000000] ACPI: PM-Timer IO Port: 0x808
[    0.000000] ACPI: LAPIC_NMI (acpi_id[0xff] high edge lint[0x1])
[    0.000000] IOAPIC[0]: apic_id 17, version 33, address 0xfec00000, GSI 0-23
[    0.000000] IOAPIC[1]: apic_id 18, version 33, address 0xfec01000, GSI 24-55
[    0.000000] ACPI: INT_SRC_OVR (bus 0 bus_irq 0 global_irq 2 dfl dfl)
[    0.000000] ACPI: INT_SRC_OVR (bus 0 bus_irq 9 global_irq 9 low level)
[    0.000000] ACPI: Using ACPI (MADT) for SMP configuration information
[    0.000000] ACPI: HPET id: 0x10228201 base: 0xfed00000
[    0.000000] e820: update [mem 0xd7f21000-0xd7f7dfff] usable ==> reserved
[    0.000000] smpboot: Allowing 16 CPUs, 0 hotplug CPUs
[    0.000000] PM: hibernation: Registered nosave memory: [mem 0x00000000-0x00000fff]
[    0.000000] PM: hibernation: Registered nosave memory: [mem 0x000a0000-0x000fffff]
[    0.000000] PM: hibernation: Registered nosave memory: [mem 0x09d82000-0x09ffffff]
[    0.000000] PM: hibernation: Registered nosave memory: [mem 0x0a200000-0x0a20bfff]
[    0.000000] PM: hibernation: Registered nosave memory: [mem 0x0b000000-0x0b01ffff]
[    0.000000] PM: hibernation: Registered nosave memory: [mem 0xd7f21000-0xd7f7dfff]
[    0.000000] PM: hibernation: Registered nosave memory: [mem 0xd7fbc000-0xd7fbcfff]
[    0.000000] PM: hibernation: Registered nosave memory: [mem 0xdb5c3000-0xdb72ffff]
[    0.000000] PM: hibernation: Registered nosave memory: [mem 0xdbbb2000-0xdbcc8fff]
[    0.000000] PM: hibernation: Registered nosave memory: [mem 0xdbcc9000-0xdca01fff]
[    0.000000] PM: hibernation: Registered nosave memory: [mem 0xdca02000-0xdcaacfff]
[    0.000000] PM: hibernation: Registered nosave memory: [mem 0xdf000000-0xdfffffff]
[    0.000000] PM: hibernation: Registered nosave memory: [mem 0xe0000000-0xf7ffffff]
[    0.000000] PM: hibernation: Registered nosave memory: [mem 0xf8000000-0xfbffffff]
[    0.000000] PM: hibernation: Registered nosave memory: [mem 0xfc000000-0xfcffffff]
[    0.000000] PM: hibernation: Registered nosave memory: [mem 0xfd000000-0xffffffff]
[    0.000000] [mem 0xe0000000-0xf7ffffff] available for PCI devices
[    0.000000] Booting paravirtualized kernel on bare hardware
[    0.000000] clocksource: refined-jiffies: mask: 0xffffffff max_cycles: 0xffffffff, max_idle_ns: 7645519600211568 ns
[    0.000000] setup_percpu: NR_CPUS:256 nr_cpumask_bits:16 nr_cpu_ids:16 nr_node_ids:1
[    0.000000] percpu: Embedded 57 pages/cpu s193960 r8192 d31320 u262144
[    0.000000] pcpu-alloc: s193960 r8192 d31320 u262144 alloc=1*2097152
[    0.000000] pcpu-alloc: [0] 00 01 02 03 04 05 06 07 [0] 08 09 10 11 12 13 14 15 
[    0.000000] Fallback order for Node 0: 0 
[    0.000000] Built 1 zonelists, mobility grouping on.  Total pages: 8245292
[    0.000000] Policy zone: Normal
[    0.000000] Kernel command line: BOOT_IMAGE=/gnu/store/4rx684ikrxsrnjnfbx5hw6kkm8xpn28n-linux-6.1.23/bzImage root=5fdf4f83-3625-4a63-a65b-361da87376f0 gnu.system=/gnu/store/2xl05qnmyjw4ih1q21gkavnyjpimg6ax-system gnu.load=/gnu/store/2xl05qnmyjw4ih1q21gkavnyjpimg6ax-system/boot modprobe.blacklist=nouveau modprobe.blacklist=usbmouse,usbkbd quiet
[    0.000000] Unknown kernel command line parameters "BOOT_IMAGE=/gnu/store/4rx684ikrxsrnjnfbx5hw6kkm8xpn28n-linux-6.1.23/bzImage", will be passed to user space.
[    0.000000] random: crng init done
[    0.000000] Dentry cache hash table entries: 4194304 (order: 13, 33554432 bytes, linear)
[    0.000000] Inode-cache hash table entries: 2097152 (order: 12, 16777216 bytes, linear)
[    0.000000] mem auto-init: stack:byref_all(zero), heap alloc:on, heap free:off
[    0.000000] software IO TLB: area num 16.
[    0.000000] Memory: 32705932K/33505332K available (16392K kernel code, 2810K rwdata, 4972K rodata, 2676K init, 2548K bss, 799140K reserved, 0K cma-reserved)
[    0.000000] SLUB: HWalign=64, Order=0-3, MinObjects=0, CPUs=16, Nodes=1
[    0.000000] ftrace: allocating 47480 entries in 186 pages
[    0.000000] ftrace: allocated 186 pages with 5 groups
[    0.000000] Dynamic Preempt: voluntary
[    0.000000] rcu: Preemptible hierarchical RCU implementation.
[    0.000000] rcu: 	RCU restricting CPUs from NR_CPUS=256 to nr_cpu_ids=16.
[    0.000000] 	Trampoline variant of Tasks RCU enabled.
[    0.000000] 	Rude variant of Tasks RCU enabled.
[    0.000000] 	Tracing variant of Tasks RCU enabled.
[    0.000000] rcu: RCU calculated value of scheduler-enlistment delay is 25 jiffies.
[    0.000000] rcu: Adjusting geometry for rcu_fanout_leaf=16, nr_cpu_ids=16
[    0.000000] NR_IRQS: 16640, nr_irqs: 1096, preallocated irqs: 16
[    0.000000] rcu: srcu_init: Setting srcu_struct sizes based on contention.
[    0.000000] Console: colour dummy device 80x25
[    0.000000] printk: console [tty0] enabled
[    0.000000] ACPI: Core revision 20220331
[    0.000000] clocksource: hpet: mask: 0xffffffff max_cycles: 0xffffffff, max_idle_ns: 133484873504 ns
[    0.000000] APIC: Switch to symmetric I/O mode setup
[    0.000000] AMD-Vi: Using global IVHD EFR:0x58f77ef22294ade, EFR2:0x0
[    0.000000] Switched APIC routing to physical flat.
[    0.000000] ..TIMER: vector=0x30 apic1=0 pin1=2 apic2=-1 pin2=-1
[    0.028000] tsc: PIT calibration matches HPET. 2 loops
[    0.028000] tsc: Detected 3600.138 MHz processor
[    0.000002] clocksource: tsc-early: mask: 0xffffffffffffffff max_cycles: 0x33e4d5d04b4, max_idle_ns: 440795295957 ns
[    0.000005] Calibrating delay loop (skipped), value calculated using timer frequency.. 7200.27 BogoMIPS (lpj=14400552)
[    0.000007] pid_max: default: 32768 minimum: 301
[    0.003296] LSM: Security Framework initializing
[    0.003303] Yama: becoming mindful.
[    0.003320] AppArmor: AppArmor initialized
[    0.003321] TOMOYO Linux initialized
[    0.003381] Mount-cache hash table entries: 65536 (order: 7, 524288 bytes, linear)
[    0.003422] Mountpoint-cache hash table entries: 65536 (order: 7, 524288 bytes, linear)
[    0.003584] x86/cpu: User Mode Instruction Prevention (UMIP) activated
[    0.003679] LVT offset 2 assigned for vector 0xf4
[    0.003707] process: using mwait in idle threads
[    0.003708] Last level iTLB entries: 4KB 1024, 2MB 1024, 4MB 512
[    0.003709] Last level dTLB entries: 4KB 2048, 2MB 2048, 4MB 1024, 1GB 0
[    0.003712] Spectre V1 : Mitigation: usercopy/swapgs barriers and __user pointer sanitization
[    0.003714] Spectre V2 : Mitigation: Retpolines
[    0.003714] Spectre V2 : Spectre v2 / SpectreRSB mitigation: Filling RSB on context switch
[    0.003715] Spectre V2 : Spectre v2 / SpectreRSB : Filling RSB on VMEXIT
[    0.003716] Spectre V2 : Enabling Speculation Barrier for firmware calls
[    0.003716] RETBleed: Mitigation: untrained return thunk
[    0.003717] Spectre V2 : mitigation: Enabling conditional Indirect Branch Prediction Barrier
[    0.003718] Spectre V2 : User space: Mitigation: STIBP always-on protection
[    0.003720] Speculative Store Bypass: Mitigation: Speculative Store Bypass disabled via prctl
[    0.010902] Freeing SMP alternatives memory: 40K
[    0.120563] smpboot: CPU0: AMD Ryzen 7 3700X 8-Core Processor (family: 0x17, model: 0x71, stepping: 0x0)
[    0.120634] cblist_init_generic: Setting adjustable number of callback queues.
[    0.120636] cblist_init_generic: Setting shift to 4 and lim to 1.
[    0.120645] cblist_init_generic: Setting shift to 4 and lim to 1.
[    0.120654] cblist_init_generic: Setting shift to 4 and lim to 1.
[    0.120663] Performance Events: Fam17h+ core perfctr, AMD PMU driver.
[    0.120666] ... version:                0
[    0.120667] ... bit width:              48
[    0.120667] ... generic registers:      6
[    0.120668] ... value mask:             0000ffffffffffff
[    0.120668] ... max period:             00007fffffffffff
[    0.120669] ... fixed-purpose events:   0
[    0.120669] ... event mask:             000000000000003f
[    0.120728] rcu: Hierarchical SRCU implementation.
[    0.120728] rcu: 	Max phase no-delay instances is 1000.
[    0.121044] NMI watchdog: Enabled. Permanently consumes one hw-PMU counter.
[    0.121126] smp: Bringing up secondary CPUs ...
[    0.121178] x86: Booting SMP configuration:
[    0.121179] .... node  #0, CPUs:        #1  #2  #3  #4  #5  #6  #7  #8
[    0.138224] Spectre V2 : Update user space SMT mitigation: STIBP always-on
[    0.138224]   #9 #10 #11 #12 #13 #14 #15
[    0.154210] smp: Brought up 1 node, 16 CPUs
[    0.154210] smpboot: Max logical packages: 1
[    0.154210] smpboot: Total of 16 processors activated (115204.41 BogoMIPS)
[    0.157246] devtmpfs: initialized
[    0.157246] x86/mm: Memory block size: 128MB
[    0.157540] ACPI: PM: Registering ACPI NVS region [mem 0x0a200000-0x0a20bfff] (49152 bytes)
[    0.157540] ACPI: PM: Registering ACPI NVS region [mem 0xdbbb2000-0xdbcc8fff] (1142784 bytes)
[    0.157540] clocksource: jiffies: mask: 0xffffffff max_cycles: 0xffffffff, max_idle_ns: 7645041785100000 ns
[    0.157540] futex hash table entries: 4096 (order: 6, 262144 bytes, linear)
[    0.157540] pinctrl core: initialized pinctrl subsystem
[    0.157540] PM: RTC time: 15:02:54, date: 2023-04-08
[    0.157540] NET: Registered PF_NETLINK/PF_ROUTE protocol family
[    0.157540] audit: initializing netlink subsys (disabled)
[    0.157540] audit: type=2000 audit(1680966173.184:1): state=initialized audit_enabled=0 res=1
[    0.157540] thermal_sys: Registered thermal governor 'fair_share'
[    0.157540] thermal_sys: Registered thermal governor 'bang_bang'
[    0.157540] thermal_sys: Registered thermal governor 'step_wise'
[    0.157540] thermal_sys: Registered thermal governor 'user_space'
[    0.157540] cpuidle: using governor ladder
[    0.157540] cpuidle: using governor menu
[    0.157540] Detected 1 PCC Subspaces
[    0.157540] Registering PCC driver as Mailbox controller
[    0.157540] acpiphp: ACPI Hot Plug PCI Controller Driver version: 0.5
[    0.157540] PCI: MMCONFIG for domain 0000 [bus 00-3f] at [mem 0xf8000000-0xfbffffff] (base 0xf8000000)
[    0.157540] PCI: MMCONFIG at [mem 0xf8000000-0xfbffffff] reserved in E820
[    0.157540] PCI: Using configuration type 1 for base access
[    0.160951] kprobes: kprobe jump-optimization is enabled. All kprobes are optimized if possible.
[    0.164045] HugeTLB: registered 1.00 GiB page size, pre-allocated 0 pages
[    0.164045] HugeTLB: 16380 KiB vmemmap can be freed for a 1.00 GiB page
[    0.164045] HugeTLB: registered 2.00 MiB page size, pre-allocated 0 pages
[    0.164045] HugeTLB: 28 KiB vmemmap can be freed for a 2.00 MiB page
[    0.164079] ACPI: Added _OSI(Module Device)
[    0.164080] ACPI: Added _OSI(Processor Device)
[    0.164081] ACPI: Added _OSI(3.0 _SCP Extensions)
[    0.164082] ACPI: Added _OSI(Processor Aggregator Device)
[    0.167498] ACPI: 7 ACPI AML tables successfully acquired and loaded
[    0.168291] ACPI: [Firmware Bug]: BIOS _OSI(Linux) query ignored
[    0.179484] ACPI: Interpreter enabled
[    0.179484] ACPI: PM: (supports S0 S3 S4 S5)
[    0.179484] ACPI: Using IOAPIC for interrupt routing
[    0.179484] PCI: Using host bridge windows from ACPI; if necessary, use "pci=nocrs" and report a bug
[    0.179484] PCI: Using E820 reservations for host bridge windows
[    0.179484] ACPI: Enabled 2 GPEs in block 00 to 1F
[    0.181810] ACPI: PCI Root Bridge [PCI0] (domain 0000 [bus 00-ff])
[    0.181814] acpi PNP0A08:00: _OSC: OS supports [ExtendedConfig ASPM ClockPM Segments MSI HPX-Type3]
[    0.181860] acpi PNP0A08:00: _OSC: platform does not support [SHPCHotplug PME LTR]
[    0.181940] acpi PNP0A08:00: _OSC: OS now controls [PCIeHotplug AER PCIeCapability]
[    0.181947] acpi PNP0A08:00: [Firmware Info]: MMCONFIG for domain 0000 [bus 00-3f] only partially covers this bridge
[    0.182190] PCI host bridge to bus 0000:00
[    0.182191] pci_bus 0000:00: root bus resource [io  0x0000-0x03af window]
[    0.182193] pci_bus 0000:00: root bus resource [io  0x03e0-0x0cf7 window]
[    0.182194] pci_bus 0000:00: root bus resource [io  0x03b0-0x03df window]
[    0.182195] pci_bus 0000:00: root bus resource [io  0x0d00-0xffff window]
[    0.182196] pci_bus 0000:00: root bus resource [mem 0x000a0000-0x000dffff window]
[    0.182197] pci_bus 0000:00: root bus resource [mem 0xe0000000-0xfec2ffff window]
[    0.182198] pci_bus 0000:00: root bus resource [mem 0xfee00000-0xffffffff window]
[    0.182199] pci_bus 0000:00: root bus resource [bus 00-ff]
[    0.182211] pci 0000:00:00.0: [1022:1480] type 00 class 0x060000
[    0.182292] pci 0000:00:00.2: [1022:1481] type 00 class 0x080600
[    0.182371] pci 0000:00:01.0: [1022:1482] type 00 class 0x060000
[    0.182424] pci 0000:00:01.1: [1022:1483] type 01 class 0x060400
[    0.182454] pci 0000:00:01.1: enabling Extended Tags
[    0.182511] pci 0000:00:01.1: PME# supported from D0 D3hot D3cold
[    0.182678] pci 0000:00:01.3: [1022:1483] type 01 class 0x060400
[    0.182708] pci 0000:00:01.3: enabling Extended Tags
[    0.182764] pci 0000:00:01.3: PME# supported from D0 D3hot D3cold
[    0.182942] pci 0000:00:02.0: [1022:1482] type 00 class 0x060000
[    0.183000] pci 0000:00:03.0: [1022:1482] type 00 class 0x060000
[    0.183053] pci 0000:00:03.2: [1022:1483] type 01 class 0x060400
[    0.183137] pci 0000:00:03.2: PME# supported from D0 D3hot D3cold
[    0.183298] pci 0000:00:04.0: [1022:1482] type 00 class 0x060000
[    0.183353] pci 0000:00:05.0: [1022:1482] type 00 class 0x060000
[    0.183409] pci 0000:00:07.0: [1022:1482] type 00 class 0x060000
[    0.183459] pci 0000:00:07.1: [1022:1484] type 01 class 0x060400
[    0.183483] pci 0000:00:07.1: enabling Extended Tags
[    0.183518] pci 0000:00:07.1: PME# supported from D0 D3hot D3cold
[    0.183598] pci 0000:00:08.0: [1022:1482] type 00 class 0x060000
[    0.183648] pci 0000:00:08.1: [1022:1484] type 01 class 0x060400
[    0.183674] pci 0000:00:08.1: enabling Extended Tags
[    0.183712] pci 0000:00:08.1: PME# supported from D0 D3hot D3cold
[    0.183800] pci 0000:00:08.2: [1022:1484] type 01 class 0x060400
[    0.183826] pci 0000:00:08.2: enabling Extended Tags
[    0.183863] pci 0000:00:08.2: PME# supported from D0 D3hot D3cold
[    0.183943] pci 0000:00:08.3: [1022:1484] type 01 class 0x060400
[    0.183969] pci 0000:00:08.3: enabling Extended Tags
[    0.184009] pci 0000:00:08.3: PME# supported from D0 D3hot D3cold
[    0.184104] pci 0000:00:14.0: [1022:790b] type 00 class 0x0c0500
[    0.184203] pci 0000:00:14.3: [1022:790e] type 00 class 0x060100
[    0.184311] pci 0000:00:18.0: [1022:1440] type 00 class 0x060000
[    0.184338] pci 0000:00:18.1: [1022:1441] type 00 class 0x060000
[    0.184364] pci 0000:00:18.2: [1022:1442] type 00 class 0x060000
[    0.184391] pci 0000:00:18.3: [1022:1443] type 00 class 0x060000
[    0.184420] pci 0000:00:18.4: [1022:1444] type 00 class 0x060000
[    0.184445] pci 0000:00:18.5: [1022:1445] type 00 class 0x060000
[    0.184470] pci 0000:00:18.6: [1022:1446] type 00 class 0x060000
[    0.184496] pci 0000:00:18.7: [1022:1447] type 00 class 0x060000
[    0.184571] pci 0000:01:00.0: [144d:a808] type 00 class 0x010802
[    0.184591] pci 0000:01:00.0: reg 0x10: [mem 0xf7900000-0xf7903fff 64bit]
[    0.184848] pci 0000:00:01.1: PCI bridge to [bus 01]
[    0.184853] pci 0000:00:01.1:   bridge window [mem 0xf7900000-0xf79fffff]
[    0.184908] pci 0000:03:00.0: [1022:43d5] type 00 class 0x0c0330
[    0.184928] pci 0000:03:00.0: reg 0x10: [mem 0xf76a0000-0xf76a7fff 64bit]
[    0.184972] pci 0000:03:00.0: enabling Extended Tags
[    0.185031] pci 0000:03:00.0: PME# supported from D3hot D3cold
[    0.185168] pci 0000:03:00.1: [1022:43c8] type 00 class 0x010601
[    0.185221] pci 0000:03:00.1: reg 0x24: [mem 0xf7680000-0xf769ffff]
[    0.185229] pci 0000:03:00.1: reg 0x30: [mem 0xf7600000-0xf767ffff pref]
[    0.185236] pci 0000:03:00.1: enabling Extended Tags
[    0.185280] pci 0000:03:00.1: PME# supported from D3hot D3cold
[    0.185354] pci 0000:03:00.2: [1022:43c6] type 01 class 0x060400
[    0.185403] pci 0000:03:00.2: enabling Extended Tags
[    0.185452] pci 0000:03:00.2: PME# supported from D3hot D3cold
[    0.185552] pci 0000:00:01.3: PCI bridge to [bus 03-25]
[    0.185555] pci 0000:00:01.3:   bridge window [io  0xf000-0xffff]
[    0.185558] pci 0000:00:01.3:   bridge window [mem 0xf7500000-0xf76fffff]
[    0.185639] pci 0000:20:00.0: [1022:43c7] type 01 class 0x060400
[    0.185692] pci 0000:20:00.0: enabling Extended Tags
[    0.185754] pci 0000:20:00.0: PME# supported from D3hot D3cold
[    0.185864] pci 0000:20:01.0: [1022:43c7] type 01 class 0x060400
[    0.185916] pci 0000:20:01.0: enabling Extended Tags
[    0.185978] pci 0000:20:01.0: PME# supported from D3hot D3cold
[    0.186094] pci 0000:20:04.0: [1022:43c7] type 01 class 0x060400
[    0.186146] pci 0000:20:04.0: enabling Extended Tags
[    0.186208] pci 0000:20:04.0: PME# supported from D3hot D3cold
[    0.186330] pci 0000:03:00.2: PCI bridge to [bus 20-25]
[    0.186335] pci 0000:03:00.2:   bridge window [io  0xf000-0xffff]
[    0.186338] pci 0000:03:00.2:   bridge window [mem 0xf7500000-0xf75fffff]
[    0.186380] pci 0000:20:00.0: PCI bridge to [bus 21]
[    0.186453] pci 0000:22:00.0: [10ec:8168] type 00 class 0x020000
[    0.186478] pci 0000:22:00.0: reg 0x10: [io  0xf000-0xf0ff]
[    0.186509] pci 0000:22:00.0: reg 0x18: [mem 0xf7504000-0xf7504fff 64bit]
[    0.186529] pci 0000:22:00.0: reg 0x20: [mem 0xf7500000-0xf7503fff 64bit]
[    0.186683] pci 0000:22:00.0: supports D1 D2
[    0.186684] pci 0000:22:00.0: PME# supported from D0 D1 D2 D3hot D3cold
[    0.186944] pci 0000:20:01.0: PCI bridge to [bus 22]
[    0.186950] pci 0000:20:01.0:   bridge window [io  0xf000-0xffff]
[    0.186953] pci 0000:20:01.0:   bridge window [mem 0xf7500000-0xf75fffff]
[    0.186996] pci 0000:20:04.0: PCI bridge to [bus 25]
[    0.187072] pci 0000:26:00.0: [10de:1e84] type 00 class 0x030000
[    0.187087] pci 0000:26:00.0: reg 0x10: [mem 0xf6000000-0xf6ffffff]
[    0.187099] pci 0000:26:00.0: reg 0x14: [mem 0xe0000000-0xefffffff 64bit pref]
[    0.187112] pci 0000:26:00.0: reg 0x1c: [mem 0xf0000000-0xf1ffffff 64bit pref]
[    0.187120] pci 0000:26:00.0: reg 0x24: [io  0xe000-0xe07f]
[    0.187128] pci 0000:26:00.0: reg 0x30: [mem 0xf7000000-0xf707ffff pref]
[    0.187146] pci 0000:26:00.0: BAR 1: assigned to efifb
[    0.187199] pci 0000:26:00.0: PME# supported from D0 D3hot D3cold
[    0.187290] pci 0000:26:00.0: 16.000 Gb/s available PCIe bandwidth, limited by 2.5 GT/s PCIe x8 link at 0000:00:03.2 (capable of 126.016 Gb/s with 8.0 GT/s PCIe x16 link)
[    0.187395] pci 0000:26:00.1: [10de:10f8] type 00 class 0x040300
[    0.187407] pci 0000:26:00.1: reg 0x10: [mem 0xf7080000-0xf7083fff]
[    0.187543] pci 0000:26:00.2: [10de:1ad8] type 00 class 0x0c0330
[    0.187562] pci 0000:26:00.2: reg 0x10: [mem 0xf2000000-0xf203ffff 64bit pref]
[    0.187582] pci 0000:26:00.2: reg 0x1c: [mem 0xf2040000-0xf204ffff 64bit pref]
[    0.187646] pci 0000:26:00.2: PME# supported from D0 D3hot D3cold
[    0.187707] pci 0000:26:00.3: [10de:1ad9] type 00 class 0x0c8000
[    0.187719] pci 0000:26:00.3: reg 0x10: [mem 0xf7084000-0xf7084fff]
[    0.187798] pci 0000:26:00.3: PME# supported from D0 D3hot D3cold
[    0.187891] pci 0000:00:03.2: PCI bridge to [bus 26]
[    0.187895] pci 0000:00:03.2:   bridge window [io  0xe000-0xefff]
[    0.187897] pci 0000:00:03.2:   bridge window [mem 0xf6000000-0xf70fffff]
[    0.187901] pci 0000:00:03.2:   bridge window [mem 0xe0000000-0xf20fffff 64bit pref]
[    0.187935] pci 0000:27:00.0: [1022:148a] type 00 class 0x130000
[    0.187964] pci 0000:27:00.0: enabling Extended Tags
[    0.188080] pci 0000:00:07.1: PCI bridge to [bus 27]
[    0.188127] pci 0000:28:00.0: [1022:1485] type 00 class 0x130000
[    0.188161] pci 0000:28:00.0: enabling Extended Tags
[    0.188279] pci 0000:28:00.1: [1022:1486] type 00 class 0x108000
[    0.188295] pci 0000:28:00.1: reg 0x18: [mem 0xf7300000-0xf73fffff]
[    0.188307] pci 0000:28:00.1: reg 0x24: [mem 0xf7408000-0xf7409fff]
[    0.188316] pci 0000:28:00.1: enabling Extended Tags
[    0.188405] pci 0000:28:00.3: [1022:149c] type 00 class 0x0c0330
[    0.188418] pci 0000:28:00.3: reg 0x10: [mem 0xf7200000-0xf72fffff 64bit]
[    0.188448] pci 0000:28:00.3: enabling Extended Tags
[    0.188488] pci 0000:28:00.3: PME# supported from D0 D3hot D3cold
[    0.188555] pci 0000:28:00.4: [1022:1487] type 00 class 0x040300
[    0.188564] pci 0000:28:00.4: reg 0x10: [mem 0xf7400000-0xf7407fff]
[    0.188591] pci 0000:28:00.4: enabling Extended Tags
[    0.188629] pci 0000:28:00.4: PME# supported from D0 D3hot D3cold
[    0.188702] pci 0000:00:08.1: PCI bridge to [bus 28]
[    0.188706] pci 0000:00:08.1:   bridge window [mem 0xf7200000-0xf74fffff]
[    0.188746] pci 0000:30:00.0: [1022:7901] type 00 class 0x010601
[    0.188781] pci 0000:30:00.0: reg 0x24: [mem 0xf7800000-0xf78007ff]
[    0.188791] pci 0000:30:00.0: enabling Extended Tags
[    0.188842] pci 0000:30:00.0: PME# supported from D3hot D3cold
[    0.188942] pci 0000:00:08.2: PCI bridge to [bus 30]
[    0.188947] pci 0000:00:08.2:   bridge window [mem 0xf7800000-0xf78fffff]
[    0.188988] pci 0000:31:00.0: [1022:7901] type 00 class 0x010601
[    0.189023] pci 0000:31:00.0: reg 0x24: [mem 0xf7700000-0xf77007ff]
[    0.189033] pci 0000:31:00.0: enabling Extended Tags
[    0.189084] pci 0000:31:00.0: PME# supported from D3hot D3cold
[    0.189184] pci 0000:00:08.3: PCI bridge to [bus 31]
[    0.189188] pci 0000:00:08.3:   bridge window [mem 0xf7700000-0xf77fffff]
[    0.189432] ACPI: PCI: Interrupt link LNKA configured for IRQ 0
[    0.189460] ACPI: PCI: Interrupt link LNKB configured for IRQ 0
[    0.189484] ACPI: PCI: Interrupt link LNKC configured for IRQ 0
[    0.189513] ACPI: PCI: Interrupt link LNKD configured for IRQ 0
[    0.189539] ACPI: PCI: Interrupt link LNKE configured for IRQ 0
[    0.189561] ACPI: PCI: Interrupt link LNKF configured for IRQ 0
[    0.189583] ACPI: PCI: Interrupt link LNKG configured for IRQ 0
[    0.189606] ACPI: PCI: Interrupt link LNKH configured for IRQ 0
[    0.192013] iommu: Default domain type: Translated 
[    0.192013] iommu: DMA domain TLB invalidation policy: lazy mode 
[    0.192112] SCSI subsystem initialized
[    0.192117] libata version 3.00 loaded.
[    0.192117] ACPI: bus type USB registered
[    0.192117] usbcore: registered new interface driver usbfs
[    0.192117] usbcore: registered new interface driver hub
[    0.192117] usbcore: registered new device driver usb
[    0.192117] EDAC MC: Ver: 3.0.0
[    0.192117] Registered efivars operations
[    0.192117] NetLabel: Initializing
[    0.192117] NetLabel:  domain hash size = 128
[    0.192117] NetLabel:  protocols = UNLABELED CIPSOv4 CALIPSO
[    0.192117] NetLabel:  unlabeled traffic allowed by default
[    0.192125] mctp: management component transport protocol core
[    0.192125] NET: Registered PF_MCTP protocol family
[    0.192125] PCI: Using ACPI for IRQ routing
[    0.192198] PCI: pci_cache_line_size set to 64 bytes
[    0.192269] Expanded resource Reserved due to conflict with PCI Bus 0000:00
[    0.192270] e820: reserve RAM buffer [mem 0x09d82000-0x0bffffff]
[    0.192272] e820: reserve RAM buffer [mem 0x0a200000-0x0bffffff]
[    0.192272] e820: reserve RAM buffer [mem 0x0b000000-0x0bffffff]
[    0.192273] e820: reserve RAM buffer [mem 0xd7f21000-0xd7ffffff]
[    0.192274] e820: reserve RAM buffer [mem 0xd7fbc000-0xd7ffffff]
[    0.192275] e820: reserve RAM buffer [mem 0xdb5c3000-0xdbffffff]
[    0.192275] e820: reserve RAM buffer [mem 0xdbbb2000-0xdbffffff]
[    0.192276] e820: reserve RAM buffer [mem 0xdf000000-0xdfffffff]
[    0.192277] e820: reserve RAM buffer [mem 0x81f380000-0x81fffffff]
[    0.192286] pci 0000:26:00.0: vgaarb: setting as boot VGA device
[    0.192286] pci 0000:26:00.0: vgaarb: bridge control possible
[    0.192286] pci 0000:26:00.0: vgaarb: VGA device added: decodes=io+mem,owns=none,locks=none
[    0.192286] vgaarb: loaded
[    0.192286] hpet0: at MMIO 0xfed00000, IRQs 2, 8, 0
[    0.192286] hpet0: 3 comparators, 32-bit 14.318180 MHz counter
[    0.196005] clocksource: Switched to clocksource tsc-early
[    0.196020] VFS: Disk quotas dquot_6.6.0
[    0.196020] VFS: Dquot-cache hash table entries: 512 (order 0, 4096 bytes)
[    0.196020] AppArmor: AppArmor Filesystem Enabled
[    0.196020] pnp: PnP ACPI init
[    0.196020] system 00:00: [mem 0xf8000000-0xfbffffff] has been reserved
[    0.196020] system 00:01: [mem 0xfd000000-0xfd0fffff] has been reserved
[    0.196020] system 00:03: [io  0x0a00-0x0a0f] has been reserved
[    0.196020] system 00:03: [io  0x0a10-0x0a1f] has been reserved
[    0.196020] system 00:03: [io  0x0a20-0x0a2f] has been reserved
[    0.196020] system 00:03: [io  0x0a30-0x0a3f] has been reserved
[    0.196020] pnp 00:04: [dma 0 disabled]
[    0.196020] system 00:05: [io  0x04d0-0x04d1] has been reserved
[    0.196020] system 00:05: [io  0x040b] has been reserved
[    0.196020] system 00:05: [io  0x04d6] has been reserved
[    0.196020] system 00:05: [io  0x0c00-0x0c01] has been reserved
[    0.196020] system 00:05: [io  0x0c14] has been reserved
[    0.196020] system 00:05: [io  0x0c50-0x0c51] has been reserved
[    0.196020] system 00:05: [io  0x0c52] has been reserved
[    0.196020] system 00:05: [io  0x0c6c] has been reserved
[    0.196020] system 00:05: [io  0x0c6f] has been reserved
[    0.196020] system 00:05: [io  0x0cd0-0x0cd1] has been reserved
[    0.196020] system 00:05: [io  0x0cd2-0x0cd3] has been reserved
[    0.196020] system 00:05: [io  0x0cd4-0x0cd5] has been reserved
[    0.196020] system 00:05: [io  0x0cd6-0x0cd7] has been reserved
[    0.196020] system 00:05: [io  0x0cd8-0x0cdf] has been reserved
[    0.196020] system 00:05: [io  0x0800-0x089f] has been reserved
[    0.196020] system 00:05: [io  0x0b00-0x0b0f] has been reserved
[    0.196020] system 00:05: [io  0x0b20-0x0b3f] has been reserved
[    0.196020] system 00:05: [io  0x0900-0x090f] has been reserved
[    0.196020] system 00:05: [io  0x0910-0x091f] has been reserved
[    0.196020] system 00:05: [mem 0xfec00000-0xfec00fff] could not be reserved
[    0.196020] system 00:05: [mem 0xfec01000-0xfec01fff] could not be reserved
[    0.196020] system 00:05: [mem 0xfedc0000-0xfedc0fff] has been reserved
[    0.196020] system 00:05: [mem 0xfee00000-0xfee00fff] has been reserved
[    0.196020] system 00:05: [mem 0xfed80000-0xfed8ffff] could not be reserved
[    0.196020] system 00:05: [mem 0xfec10000-0xfec10fff] has been reserved
[    0.196020] system 00:05: [mem 0xff000000-0xffffffff] has been reserved
[    0.196020] pnp: PnP ACPI: found 6 devices
[    0.202352] clocksource: acpi_pm: mask: 0xffffff max_cycles: 0xffffff, max_idle_ns: 2085701024 ns
[    0.202398] NET: Registered PF_INET protocol family
[    0.202563] IP idents hash table entries: 262144 (order: 9, 2097152 bytes, linear)
[    0.204558] tcp_listen_portaddr_hash hash table entries: 16384 (order: 6, 262144 bytes, linear)
[    0.204598] Table-perturb hash table entries: 65536 (order: 6, 262144 bytes, linear)
[    0.204754] TCP established hash table entries: 262144 (order: 9, 2097152 bytes, linear)
[    0.205161] TCP bind hash table entries: 65536 (order: 9, 2097152 bytes, linear)
[    0.205254] TCP: Hash tables configured (established 262144 bind 65536)
[    0.205373] MPTCP token hash table entries: 32768 (order: 7, 786432 bytes, linear)
[    0.205448] UDP hash table entries: 16384 (order: 7, 524288 bytes, linear)
[    0.205524] UDP-Lite hash table entries: 16384 (order: 7, 524288 bytes, linear)
[    0.205588] NET: Registered PF_UNIX/PF_LOCAL protocol family
[    0.205592] NET: Registered PF_XDP protocol family
[    0.205610] pci 0000:00:01.1: PCI bridge to [bus 01]
[    0.205620] pci 0000:00:01.1:   bridge window [mem 0xf7900000-0xf79fffff]
[    0.205626] pci 0000:20:00.0: PCI bridge to [bus 21]
[    0.205638] pci 0000:20:01.0: PCI bridge to [bus 22]
[    0.205640] pci 0000:20:01.0:   bridge window [io  0xf000-0xffff]
[    0.205644] pci 0000:20:01.0:   bridge window [mem 0xf7500000-0xf75fffff]
[    0.205652] pci 0000:20:04.0: PCI bridge to [bus 25]
[    0.205663] pci 0000:03:00.2: PCI bridge to [bus 20-25]
[    0.205665] pci 0000:03:00.2:   bridge window [io  0xf000-0xffff]
[    0.205669] pci 0000:03:00.2:   bridge window [mem 0xf7500000-0xf75fffff]
[    0.205676] pci 0000:00:01.3: PCI bridge to [bus 03-25]
[    0.205678] pci 0000:00:01.3:   bridge window [io  0xf000-0xffff]
[    0.205681] pci 0000:00:01.3:   bridge window [mem 0xf7500000-0xf76fffff]
[    0.205686] pci 0000:00:03.2: PCI bridge to [bus 26]
[    0.205688] pci 0000:00:03.2:   bridge window [io  0xe000-0xefff]
[    0.205691] pci 0000:00:03.2:   bridge window [mem 0xf6000000-0xf70fffff]
[    0.205693] pci 0000:00:03.2:   bridge window [mem 0xe0000000-0xf20fffff 64bit pref]
[    0.205697] pci 0000:00:07.1: PCI bridge to [bus 27]
[    0.205703] pci 0000:00:08.1: PCI bridge to [bus 28]
[    0.205706] pci 0000:00:08.1:   bridge window [mem 0xf7200000-0xf74fffff]
[    0.205710] pci 0000:00:08.2: PCI bridge to [bus 30]
[    0.205713] pci 0000:00:08.2:   bridge window [mem 0xf7800000-0xf78fffff]
[    0.205717] pci 0000:00:08.3: PCI bridge to [bus 31]
[    0.205720] pci 0000:00:08.3:   bridge window [mem 0xf7700000-0xf77fffff]
[    0.205725] pci_bus 0000:00: resource 4 [io  0x0000-0x03af window]
[    0.205726] pci_bus 0000:00: resource 5 [io  0x03e0-0x0cf7 window]
[    0.205727] pci_bus 0000:00: resource 6 [io  0x03b0-0x03df window]
[    0.205728] pci_bus 0000:00: resource 7 [io  0x0d00-0xffff window]
[    0.205729] pci_bus 0000:00: resource 8 [mem 0x000a0000-0x000dffff window]
[    0.205730] pci_bus 0000:00: resource 9 [mem 0xe0000000-0xfec2ffff window]
[    0.205731] pci_bus 0000:00: resource 10 [mem 0xfee00000-0xffffffff window]
[    0.205732] pci_bus 0000:01: resource 1 [mem 0xf7900000-0xf79fffff]
[    0.205733] pci_bus 0000:03: resource 0 [io  0xf000-0xffff]
[    0.205734] pci_bus 0000:03: resource 1 [mem 0xf7500000-0xf76fffff]
[    0.205735] pci_bus 0000:20: resource 0 [io  0xf000-0xffff]
[    0.205736] pci_bus 0000:20: resource 1 [mem 0xf7500000-0xf75fffff]
[    0.205737] pci_bus 0000:22: resource 0 [io  0xf000-0xffff]
[    0.205738] pci_bus 0000:22: resource 1 [mem 0xf7500000-0xf75fffff]
[    0.205739] pci_bus 0000:26: resource 0 [io  0xe000-0xefff]
[    0.205740] pci_bus 0000:26: resource 1 [mem 0xf6000000-0xf70fffff]
[    0.205740] pci_bus 0000:26: resource 2 [mem 0xe0000000-0xf20fffff 64bit pref]
[    0.205742] pci_bus 0000:28: resource 1 [mem 0xf7200000-0xf74fffff]
[    0.205743] pci_bus 0000:30: resource 1 [mem 0xf7800000-0xf78fffff]
[    0.205744] pci_bus 0000:31: resource 1 [mem 0xf7700000-0xf77fffff]
[    0.205959] pci 0000:26:00.1: D0 power state depends on 0000:26:00.0
[    0.206015] pci 0000:26:00.2: D0 power state depends on 0000:26:00.0
[    0.206124] pci 0000:26:00.3: D0 power state depends on 0000:26:00.0
[    0.206245] PCI: CLS 64 bytes, default 64
[    0.206253] pci 0000:00:00.2: AMD-Vi: IOMMU performance counters supported
[    0.206283] pci 0000:00:01.0: Adding to iommu group 0
[    0.206290] Trying to unpack rootfs image as initramfs...
[    0.206291] pci 0000:00:01.1: Adding to iommu group 1
[    0.206299] pci 0000:00:01.3: Adding to iommu group 2
[    0.206308] pci 0000:00:02.0: Adding to iommu group 3
[    0.206317] pci 0000:00:03.0: Adding to iommu group 4
[    0.206325] pci 0000:00:03.2: Adding to iommu group 5
[    0.206333] pci 0000:00:04.0: Adding to iommu group 6
[    0.206342] pci 0000:00:05.0: Adding to iommu group 7
[    0.206354] pci 0000:00:07.0: Adding to iommu group 8
[    0.206360] pci 0000:00:07.1: Adding to iommu group 8
[    0.206376] pci 0000:00:08.0: Adding to iommu group 9
[    0.206382] pci 0000:00:08.1: Adding to iommu group 9
[    0.206388] pci 0000:00:08.2: Adding to iommu group 9
[    0.206394] pci 0000:00:08.3: Adding to iommu group 9
[    0.206405] pci 0000:00:14.0: Adding to iommu group 10
[    0.206412] pci 0000:00:14.3: Adding to iommu group 10
[    0.206438] pci 0000:00:18.0: Adding to iommu group 11
[    0.206444] pci 0000:00:18.1: Adding to iommu group 11
[    0.206450] pci 0000:00:18.2: Adding to iommu group 11
[    0.206456] pci 0000:00:18.3: Adding to iommu group 11
[    0.206464] pci 0000:00:18.4: Adding to iommu group 11
[    0.206470] pci 0000:00:18.5: Adding to iommu group 11
[    0.206477] pci 0000:00:18.6: Adding to iommu group 11
[    0.206483] pci 0000:00:18.7: Adding to iommu group 11
[    0.206490] pci 0000:01:00.0: Adding to iommu group 12
[    0.206504] pci 0000:03:00.0: Adding to iommu group 13
[    0.206512] pci 0000:03:00.1: Adding to iommu group 13
[    0.206520] pci 0000:03:00.2: Adding to iommu group 13
[    0.206524] pci 0000:20:00.0: Adding to iommu group 13
[    0.206527] pci 0000:20:01.0: Adding to iommu group 13
[    0.206530] pci 0000:20:04.0: Adding to iommu group 13
[    0.206533] pci 0000:22:00.0: Adding to iommu group 13
[    0.206549] pci 0000:26:00.0: Adding to iommu group 14
[    0.206557] pci 0000:26:00.1: Adding to iommu group 14
[    0.206564] pci 0000:26:00.2: Adding to iommu group 14
[    0.206572] pci 0000:26:00.3: Adding to iommu group 14
[    0.206575] pci 0000:27:00.0: Adding to iommu group 8
[    0.206579] pci 0000:28:00.0: Adding to iommu group 9
[    0.206582] pci 0000:28:00.1: Adding to iommu group 9
[    0.206585] pci 0000:28:00.3: Adding to iommu group 9
[    0.206588] pci 0000:28:00.4: Adding to iommu group 9
[    0.206592] pci 0000:30:00.0: Adding to iommu group 9
[    0.206595] pci 0000:31:00.0: Adding to iommu group 9
[    0.207962] pci 0000:00:00.2: AMD-Vi: Found IOMMU cap 0x40
[    0.207964] AMD-Vi: Extended features (0x58f77ef22294ade, 0x0): PPR X2APIC NX GT IA GA PC GA_vAPIC
[    0.207968] AMD-Vi: Interrupt remapping enabled
[    0.207968] AMD-Vi: X2APIC enabled
[    0.207978] AMD-Vi: Virtual APIC enabled
[    0.208032] PCI-DMA: Using software bounce buffering for IO (SWIOTLB)
[    0.208033] software IO TLB: mapped [mem 0x00000000d2c3f000-0x00000000d6c3f000] (64MB)
[    0.208185] RAPL PMU: API unit is 2^-32 Joules, 1 fixed counters, 163840 ms ovfl timer
[    0.208187] RAPL PMU: hw unit of domain package 2^-16 Joules
[    0.208189] LVT offset 0 assigned for vector 0x400
[    0.208258] perf: AMD IBS detected (0x000003ff)
[    0.208261] perf/amd_iommu: Detected AMD IOMMU #0 (2 banks, 4 counters/bank).
[    0.208580] Initialise system trusted keyrings
[    0.208608] workingset: timestamp_bits=40 max_order=23 bucket_order=0
[    0.209380] zbud: loaded
[    0.209734] Allocating IMA blacklist keyring.
[    0.212005] Key type asymmetric registered
[    0.212006] Asymmetric key parser 'x509' registered
[    0.353539] Freeing initrd memory: 14288K
[    0.353766] alg: self-tests for CTR-KDF (hmac(sha256)) passed
[    0.353787] Block layer SCSI generic (bsg) driver version 0.4 loaded (major 247)
[    0.353819] io scheduler mq-deadline registered
[    0.355061] pcieport 0000:00:01.1: AER: enabled with IRQ 26
[    0.355203] pcieport 0000:00:01.3: AER: enabled with IRQ 27
[    0.355335] pcieport 0000:00:03.2: AER: enabled with IRQ 28
[    0.356264] shpchp: Standard Hot Plug PCI Controller Driver version: 0.4
[    0.356327] input: Power Button as /devices/LNXSYSTM:00/LNXSYBUS:00/PNP0C0C:00/input/input0
[    0.356340] ACPI: button: Power Button [PWRB]
[    0.356364] input: Power Button as /devices/LNXSYSTM:00/LNXPWRBN:00/input/input1
[    0.356387] ACPI: button: Power Button [PWRF]
[    0.357650] Estimated ratio of average max frequency by base frequency (times 1024): 1141
[    0.357659] Monitor-Mwait will be used to enter C-1 state
[    0.357663] ACPI: \_PR_.C000: Found 2 idle states
[    0.357732] ACPI: \_PR_.C002: Found 2 idle states
[    0.357812] ACPI: \_PR_.C004: Found 2 idle states
[    0.357899] ACPI: \_PR_.C006: Found 2 idle states
[    0.357978] ACPI: \_PR_.C008: Found 2 idle states
[    0.358066] ACPI: \_PR_.C00A: Found 2 idle states
[    0.358152] ACPI: \_PR_.C00C: Found 2 idle states
[    0.358242] ACPI: \_PR_.C00E: Found 2 idle states
[    0.358302] ACPI: \_PR_.C001: Found 2 idle states
[    0.358382] ACPI: \_PR_.C003: Found 2 idle states
[    0.358464] ACPI: \_PR_.C005: Found 2 idle states
[    0.358546] ACPI: \_PR_.C007: Found 2 idle states
[    0.358639] ACPI: \_PR_.C009: Found 2 idle states
[    0.358725] ACPI: \_PR_.C00B: Found 2 idle states
[    0.358813] ACPI: \_PR_.C00D: Found 2 idle states
[    0.358896] ACPI: \_PR_.C00F: Found 2 idle states
[    0.359048] Serial: 8250/16550 driver, 32 ports, IRQ sharing enabled
[    0.359103] 00:04: ttyS0 at I/O 0x3f8 (irq = 4, base_baud = 115200) is a 16550A
[    0.360215] Linux agpgart interface v0.103
[    0.362343] brd: module loaded
[    0.363289] loop: module loaded
[    0.363464] nvme nvme0: pci function 0000:01:00.0
[    0.363551] tun: Universal TUN/TAP device driver, 1.6
[    0.363582] PPP generic driver version 2.4.2
[    0.363672] xhci_hcd 0000:03:00.0: xHCI Host Controller
[    0.363676] xhci_hcd 0000:03:00.0: new USB bus registered, assigned bus number 1
[    0.372442] nvme nvme0: missing or invalid SUBNQN field.
[    0.372454] nvme nvme0: Shutdown timeout set to 8 seconds
[    0.388959] nvme nvme0: 16/0/0 default/read/poll queues
[    0.392996]  nvme0n1: p1 p2 p3
[    0.418994] xhci_hcd 0000:03:00.0: hcc params 0x0200ef81 hci version 0x110 quirks 0x0000000000000410
[    0.419136] xhci_hcd 0000:03:00.0: xHCI Host Controller
[    0.419139] xhci_hcd 0000:03:00.0: new USB bus registered, assigned bus number 2
[    0.419140] xhci_hcd 0000:03:00.0: Host supports USB 3.1 Enhanced SuperSpeed
[    0.419197] usb usb1: New USB device found, idVendor=1d6b, idProduct=0002, bcdDevice= 6.01
[    0.419199] usb usb1: New USB device strings: Mfr=3, Product=2, SerialNumber=1
[    0.419200] usb usb1: Product: xHCI Host Controller
[    0.419201] usb usb1: Manufacturer: Linux 6.1.23 xhci-hcd
[    0.419201] usb usb1: SerialNumber: 0000:03:00.0
[    0.419297] hub 1-0:1.0: USB hub found
[    0.419313] hub 1-0:1.0: 10 ports detected
[    0.419616] usb usb2: We don't know the algorithms for LPM for this host, disabling LPM.
[    0.419628] usb usb2: New USB device found, idVendor=1d6b, idProduct=0003, bcdDevice= 6.01
[    0.419629] usb usb2: New USB device strings: Mfr=3, Product=2, SerialNumber=1
[    0.419630] usb usb2: Product: xHCI Host Controller
[    0.419631] usb usb2: Manufacturer: Linux 6.1.23 xhci-hcd
[    0.419632] usb usb2: SerialNumber: 0000:03:00.0
[    0.419690] hub 2-0:1.0: USB hub found
[    0.419696] hub 2-0:1.0: 4 ports detected
[    0.419952] xhci_hcd 0000:26:00.2: xHCI Host Controller
[    0.419955] xhci_hcd 0000:26:00.2: new USB bus registered, assigned bus number 3
[    0.420569] xhci_hcd 0000:26:00.2: hcc params 0x0180ff05 hci version 0x110 quirks 0x0000000000000010
[    0.420674] xhci_hcd 0000:26:00.2: xHCI Host Controller
[    0.420675] xhci_hcd 0000:26:00.2: new USB bus registered, assigned bus number 4
[    0.420676] xhci_hcd 0000:26:00.2: Host supports USB 3.1 Enhanced SuperSpeed
[    0.420709] usb usb3: New USB device found, idVendor=1d6b, idProduct=0002, bcdDevice= 6.01
[    0.420710] usb usb3: New USB device strings: Mfr=3, Product=2, SerialNumber=1
[    0.420711] usb usb3: Product: xHCI Host Controller
[    0.420712] usb usb3: Manufacturer: Linux 6.1.23 xhci-hcd
[    0.420713] usb usb3: SerialNumber: 0000:26:00.2
[    0.420769] hub 3-0:1.0: USB hub found
[    0.420774] hub 3-0:1.0: 2 ports detected
[    0.420832] usb usb4: We don't know the algorithms for LPM for this host, disabling LPM.
[    0.420844] usb usb4: New USB device found, idVendor=1d6b, idProduct=0003, bcdDevice= 6.01
[    0.420845] usb usb4: New USB device strings: Mfr=3, Product=2, SerialNumber=1
[    0.420846] usb usb4: Product: xHCI Host Controller
[    0.420846] usb usb4: Manufacturer: Linux 6.1.23 xhci-hcd
[    0.420847] usb usb4: SerialNumber: 0000:26:00.2
[    0.420900] hub 4-0:1.0: USB hub found
[    0.420911] hub 4-0:1.0: 4 ports detected
[    0.421028] xhci_hcd 0000:28:00.3: xHCI Host Controller
[    0.421031] xhci_hcd 0000:28:00.3: new USB bus registered, assigned bus number 5
[    0.421137] xhci_hcd 0000:28:00.3: hcc params 0x0278ffe5 hci version 0x110 quirks 0x0000000000000410
[    0.421398] xhci_hcd 0000:28:00.3: xHCI Host Controller
[    0.421399] xhci_hcd 0000:28:00.3: new USB bus registered, assigned bus number 6
[    0.421400] xhci_hcd 0000:28:00.3: Host supports USB 3.1 Enhanced SuperSpeed
[    0.421420] usb usb5: New USB device found, idVendor=1d6b, idProduct=0002, bcdDevice= 6.01
[    0.421421] usb usb5: New USB device strings: Mfr=3, Product=2, SerialNumber=1
[    0.421422] usb usb5: Product: xHCI Host Controller
[    0.421423] usb usb5: Manufacturer: Linux 6.1.23 xhci-hcd
[    0.421424] usb usb5: SerialNumber: 0000:28:00.3
[    0.421489] hub 5-0:1.0: USB hub found
[    0.421494] hub 5-0:1.0: 4 ports detected
[    0.421593] usb usb6: We don't know the algorithms for LPM for this host, disabling LPM.
[    0.421605] usb usb6: New USB device found, idVendor=1d6b, idProduct=0003, bcdDevice= 6.01
[    0.421606] usb usb6: New USB device strings: Mfr=3, Product=2, SerialNumber=1
[    0.421607] usb usb6: Product: xHCI Host Controller
[    0.421608] usb usb6: Manufacturer: Linux 6.1.23 xhci-hcd
[    0.421608] usb usb6: SerialNumber: 0000:28:00.3
[    0.421672] hub 6-0:1.0: USB hub found
[    0.421677] hub 6-0:1.0: 4 ports detected
[    0.421803] i8042: PNP: No PS/2 controller found.
[    0.421850] mousedev: PS/2 mouse device common for all mice
[    0.421904] rtc_cmos 00:02: RTC can wake from S4
[    0.422108] rtc_cmos 00:02: registered as rtc0
[    0.422134] rtc_cmos 00:02: setting system clock to 2023-04-08T15:02:54 UTC (1680966174)
[    0.422157] rtc_cmos 00:02: alarms up to one month, y3k, 114 bytes nvram, hpet irqs
[    0.422162] i2c_dev: i2c /dev entries driver
[    0.422189] device-mapper: uevent: version 1.0.3
[    0.422234] device-mapper: ioctl: 4.47.0-ioctl (2022-07-28) initialised: dm-devel@redhat.com
[    0.422450] ledtrig-cpu: registered to indicate activity on CPUs
[    0.422467] efifb: probing for efifb
[    0.422473] efifb: framebuffer at 0xe0000000, using 3072k, total 3072k
[    0.422474] efifb: mode is 1024x768x32, linelength=4096, pages=1
[    0.422475] efifb: scrolling: redraw
[    0.422475] efifb: Truecolor: size=8:8:8:8, shift=24:16:8:0
[    0.422544] Console: switching to colour frame buffer device 128x48
[    0.424623] fb0: EFI VGA frame buffer device
[    0.424788] NET: Registered PF_INET6 protocol family
[    0.425005] Segment Routing with IPv6
[    0.425008] In-situ OAM (IOAM) with IPv6
[    0.425020] NET: Registered PF_PACKET protocol family
[    0.425072] Key type dns_resolver registered
[    0.425769] microcode: CPU0: patch_level=0x08701013
[    0.425774] microcode: CPU1: patch_level=0x08701013
[    0.425787] microcode: CPU2: patch_level=0x08701013
[    0.425799] microcode: CPU3: patch_level=0x08701013
[    0.425814] microcode: CPU4: patch_level=0x08701013
[    0.425829] microcode: CPU5: patch_level=0x08701013
[    0.425844] microcode: CPU6: patch_level=0x08701013
[    0.425859] microcode: CPU7: patch_level=0x08701013
[    0.425863] microcode: CPU8: patch_level=0x08701013
[    0.425867] microcode: CPU9: patch_level=0x08701013
[    0.425879] microcode: CPU10: patch_level=0x08701013
[    0.425891] microcode: CPU11: patch_level=0x08701013
[    0.425906] microcode: CPU12: patch_level=0x08701013
[    0.425921] microcode: CPU13: patch_level=0x08701013
[    0.425935] microcode: CPU14: patch_level=0x08701013
[    0.425950] microcode: CPU15: patch_level=0x08701013
[    0.425954] microcode: Microcode Update Driver: v2.2.
[    0.425958] IPI shorthand broadcast: enabled
[    0.425973] sched_clock: Marking stable (453703106, -27995800)->(435653920, -9946614)
[    0.426291] registered taskstats version 1
[    0.426299] Loading compiled-in X.509 certificates
[    0.426766] zswap: loaded using pool lzo/zbud
[    0.427135] Key type encrypted registered
[    0.427138] AppArmor: AppArmor sha1 policy hashing enabled
[    0.427143] ima: No TPM chip found, activating TPM-bypass!
[    0.427145] ima: Allocated hash algorithm: sha1
[    0.427152] ima: No architecture policies found
[    0.427157] evm: Initialising EVM extended attributes:
[    0.427157] evm: security.selinux
[    0.427158] evm: security.SMACK64
[    0.427159] evm: security.SMACK64EXEC
[    0.427159] evm: security.SMACK64TRANSMUTE
[    0.427160] evm: security.SMACK64MMAP
[    0.427160] evm: security.apparmor
[    0.427161] evm: security.ima
[    0.427161] evm: security.capability
[    0.427162] evm: HMAC attrs: 0x1
[    0.428183] PM:   Magic number: 3:141:32
[    0.428253] memory memory201: hash matches
[    0.428466] acpi_cpufreq: overriding BIOS provided _PSD data
[    0.490982] Freeing unused kernel image (initmem) memory: 2676K
[    0.501635] Write protecting the kernel read-only data: 24576k
[    0.502219] Freeing unused kernel image (text/rodata gap) memory: 2036K
[    0.502382] Freeing unused kernel image (rodata/data gap) memory: 1172K
[    0.502386] Run /init as init process
[    0.502387]   with arguments:
[    0.502388]     /init
[    0.502388]   with environment:
[    0.502389]     HOME=/
[    0.502389]     TERM=linux
[    0.502390]     BOOT_IMAGE=/gnu/store/4rx684ikrxsrnjnfbx5hw6kkm8xpn28n-linux-6.1.23/bzImage
[    0.535545] ahci 0000:03:00.1: version 3.0
[    0.535675] ahci 0000:03:00.1: SSS flag set, parallel bus scan disabled
[    0.535716] ahci 0000:03:00.1: AHCI 0001.0301 32 slots 8 ports 6 Gbps 0x33 impl SATA mode
[    0.535718] ahci 0000:03:00.1: flags: 64bit ncq sntf stag pm led clo only pmp pio slum part sxs deso sadm sds apst 
[    0.536072] scsi host0: ahci
[    0.536154] scsi host1: ahci
[    0.536212] scsi host2: ahci
[    0.536273] scsi host3: ahci
[    0.536331] scsi host4: ahci
[    0.536393] scsi host5: ahci
[    0.536447] scsi host6: ahci
[    0.536504] scsi host7: ahci
[    0.536528] ata1: SATA max UDMA/133 abar m131072@0xf7680000 port 0xf7680100 irq 70
[    0.536530] ata2: SATA max UDMA/133 abar m131072@0xf7680000 port 0xf7680180 irq 70
[    0.536531] ata3: DUMMY
[    0.536531] ata4: DUMMY
[    0.536533] ata5: SATA max UDMA/133 abar m131072@0xf7680000 port 0xf7680300 irq 70
[    0.536534] ata6: SATA max UDMA/133 abar m131072@0xf7680000 port 0xf7680380 irq 70
[    0.536535] ata7: DUMMY
[    0.536535] ata8: DUMMY
[    0.536649] ahci 0000:30:00.0: AHCI 0001.0301 32 slots 1 ports 6 Gbps 0x1 impl SATA mode
[    0.536651] ahci 0000:30:00.0: flags: 64bit ncq sntf ilck pm led clo only pmp fbs pio slum part 
[    0.536749] scsi host8: ahci
[    0.536771] ata9: SATA max UDMA/133 abar m2048@0xf7800000 port 0xf7800100 irq 72
[    0.536861] ahci 0000:31:00.0: AHCI 0001.0301 32 slots 1 ports 6 Gbps 0x1 impl SATA mode
[    0.536862] ahci 0000:31:00.0: flags: 64bit ncq sntf ilck pm led clo only pmp fbs pio slum part 
[    0.536959] scsi host9: ahci
[    0.536981] ata10: SATA max UDMA/133 abar m2048@0xf7700000 port 0xf7700100 irq 74
[    0.678419] usb 5-1: new high-speed USB device number 2 using xhci_hcd
[    0.839919] usb 5-1: New USB device found, idVendor=05e3, idProduct=0610, bcdDevice= 6.54
[    0.839922] usb 5-1: New USB device strings: Mfr=1, Product=2, SerialNumber=0
[    0.839923] usb 5-1: Product: USB2.1 Hub
[    0.839925] usb 5-1: Manufacturer: GenesysLogic
[    0.851517] ata9: SATA link down (SStatus 0 SControl 300)
[    0.853278] ata10: SATA link down (SStatus 0 SControl 300)
[    0.901943] hub 5-1:1.0: USB hub found
[    0.902414] hub 5-1:1.0: 4 ports detected
[    1.018921] ata1: SATA link up 6.0 Gbps (SStatus 133 SControl 300)
[    1.019440] ata1.00: ATA-10: WDC WD10EZEX-08WN4A0, 02.01A02, max UDMA/100
[    1.020388] ata1.00: 1953525168 sectors, multi 16: LBA48 NCQ (depth 32), AA
[    1.020392] ata1.00: Features: NCQ-prio
[    1.021863] ata1.00: configured for UDMA/100
[    1.021992] scsi 0:0:0:0: Direct-Access     ATA      WDC WD10EZEX-08W 1A02 PQ: 0 ANSI: 5
[    1.022160] sd 0:0:0:0: Attached scsi generic sg0 type 0
[    1.022278] sd 0:0:0:0: [sda] 1953525168 512-byte logical blocks: (1.00 TB/932 GiB)
[    1.022281] sd 0:0:0:0: [sda] 4096-byte physical blocks
[    1.022292] sd 0:0:0:0: [sda] Write Protect is off
[    1.022293] sd 0:0:0:0: [sda] Mode Sense: 00 3a 00 00
[    1.022301] sd 0:0:0:0: [sda] Write cache: enabled, read cache: enabled, doesn't support DPO or FUA
[    1.022313] sd 0:0:0:0: [sda] Preferred minimum I/O size 4096 bytes
[    1.063951] sd 0:0:0:0: [sda] Attached SCSI disk
[    1.216697] usb 5-1.1: new full-speed USB device number 3 using xhci_hcd
[    1.216706] tsc: Refined TSC clocksource calibration: 3599.997 MHz
[    1.216719] clocksource: tsc: mask: 0xffffffffffffffff max_cycles: 0x33e4505a81e, max_idle_ns: 440795320847 ns
[    1.216766] clocksource: Switched to clocksource tsc
[    1.334180] ata2: SATA link down (SStatus 0 SControl 300)
[    1.361404] usb 5-1.1: New USB device found, idVendor=2516, idProduct=009f, bcdDevice= 1.10
[    1.361412] usb 5-1.1: New USB device strings: Mfr=3, Product=1, SerialNumber=0
[    1.361414] usb 5-1.1: Product: CK530
[    1.361416] usb 5-1.1: Manufacturer: Cooler Master Technology Inc.
[    1.616716] usb 5-1.2: new low-speed USB device number 4 using xhci_hcd
[    1.644187] ata5: SATA link down (SStatus 0 SControl 330)
[    1.761614] usb 5-1.2: New USB device found, idVendor=046d, idProduct=c077, bcdDevice=72.00
[    1.761622] usb 5-1.2: New USB device strings: Mfr=1, Product=2, SerialNumber=0
[    1.761625] usb 5-1.2: Product: USB Optical Mouse
[    1.761627] usb 5-1.2: Manufacturer: Logitech
[    1.959189] ata6: SATA link down (SStatus 0 SControl 330)
[    1.962028] usbcore: registered new interface driver usb-storage
[    1.965465] usbcore: registered new interface driver uas
[    1.973223] hid: raw HID events driver (C) Jiri Kosina
[    1.989539] usbcore: registered new interface driver usbhid
[    1.989542] usbhid: USB HID core driver
[    1.990768] input: Cooler Master Technology Inc. CK530 as /devices/pci0000:00/0000:00:08.1/0000:28:00.3/usb5/5-1/5-1.1/5-1.1:1.0/0003:2516:009F.0001/input/input2
[    2.048118] hid-generic 0003:2516:009F.0001: input,hidraw0: USB HID v1.11 Keyboard [Cooler Master Technology Inc. CK530] on usb-0000:28:00.3-1.1/input0
[    2.048282] hid-generic 0003:2516:009F.0002: hiddev0,hidraw1: USB HID v1.11 Device [Cooler Master Technology Inc. CK530] on usb-0000:28:00.3-1.1/input1
[    2.048455] input: Cooler Master Technology Inc. CK530 System Control as /devices/pci0000:00/0000:00:08.1/0000:28:00.3/usb5/5-1/5-1.1/5-1.1:1.2/0003:2516:009F.0003/input/input3
[    2.108876] input: Cooler Master Technology Inc. CK530 Consumer Control as /devices/pci0000:00/0000:00:08.1/0000:28:00.3/usb5/5-1/5-1.1/5-1.1:1.2/0003:2516:009F.0003/input/input4
[    2.108955] input: Cooler Master Technology Inc. CK530 Mouse as /devices/pci0000:00/0000:00:08.1/0000:28:00.3/usb5/5-1/5-1.1/5-1.1:1.2/0003:2516:009F.0003/input/input5
[    2.109043] input: Cooler Master Technology Inc. CK530 Keyboard as /devices/pci0000:00/0000:00:08.1/0000:28:00.3/usb5/5-1/5-1.1/5-1.1:1.2/0003:2516:009F.0003/input/input6
[    2.109117] hid-generic 0003:2516:009F.0003: input,hidraw2: USB HID v1.11 Mouse [Cooler Master Technology Inc. CK530] on usb-0000:28:00.3-1.1/input2
[    2.109231] input: Logitech USB Optical Mouse as /devices/pci0000:00/0000:00:08.1/0000:28:00.3/usb5/5-1/5-1.2/5-1.2:1.0/0003:046D:C077.0004/input/input7
[    2.109314] hid-generic 0003:046D:C077.0004: input,hidraw3: USB HID v1.11 Mouse [Logitech USB Optical Mouse] on usb-0000:28:00.3-1.2/input0
[    2.120306] isci: Intel(R) C600 SAS Controller Driver - version 1.2.0
[    2.189254] EXT4-fs (nvme0n1p3): mounted filesystem with ordered data mode. Quota mode: none.
[    2.387487] shepherd[1]: Service root has been started.
[    2.453959] shepherd[1]: starting services...
[    2.454305] shepherd[1]: Service root-file-system has been started.
[    2.457656] shepherd[1]: waiting for udevd...
[    2.463770] udevd[270]: starting version 3.2.11
[    2.487955] udevd[270]: starting eudev-3.2.11
[    2.958882] udevd[270]: no sender credentials received, message ignored
[    3.008736] piix4_smbus 0000:00:14.0: SMBus Host Controller at 0xb00, revision 0
[    3.008741] piix4_smbus 0000:00:14.0: Using register 0x02 for SMBus port selection
[    3.008965] piix4_smbus 0000:00:14.0: Auxiliary SMBus Host Controller at 0xb20
[    3.009629] nvidia-gpu 0000:26:00.3: enabling device (0000 -> 0002)
[    3.011476] ccp 0000:28:00.1: enabling device (0000 -> 0002)
[    3.011620] sp5100_tco: SP5100/SB800 TCO WatchDog Timer Driver
[    3.012245] ccp 0000:28:00.1: ccp: unable to access the device: you might be running a broken BIOS.
[    3.012249] ccp 0000:28:00.1: psp: unable to access the device: you might be running a broken BIOS.
[    3.012302] sp5100-tco sp5100-tco: Using 0xfeb00000 for watchdog MMIO address
[    3.012816] input: PC Speaker as /devices/platform/pcspkr/input/input8
[    3.014188] sp5100-tco sp5100-tco: initialized. heartbeat=60 sec (nowayout=0)
[    3.014787] r8169 0000:22:00.0: enabling device (0000 -> 0003)
[    3.018194] cryptd: max_cpu_qlen set to 1000
[    3.025460] Error: Driver 'pcspkr' is already registered, aborting...
[    3.033330] AVX2 version of gcm_enc/dec engaged.
[    3.033390] AES CTR mode by8 optimization enabled
[    3.033395] ACPI: bus type drm_connector registered
[    3.045865] r8169 0000:22:00.0 eth0: RTL8168h/8111h, 00:d8:61:ab:1a:f1, XID 541, IRQ 80
[    3.045870] r8169 0000:22:00.0 eth0: jumbo features [frames: 9194 bytes, tx checksumming: ko]
[    3.098550] r8169 0000:22:00.0 enp34s0: renamed from eth0
[    3.156404] nvidia: loading out-of-tree module taints kernel.
[    3.156415] nvidia: module license 'NVIDIA' taints kernel.
[    3.156416] Disabling lock debugging due to kernel taint
[    3.161438] snd_hda_intel 0000:26:00.1: enabling device (0000 -> 0002)
[    3.161517] snd_hda_intel 0000:26:00.1: Disabling MSI
[    3.161526] snd_hda_intel 0000:26:00.1: Handle vga_switcheroo audio client
[    3.161601] snd_hda_intel 0000:28:00.4: enabling device (0000 -> 0002)
[    3.174621] pstore: Using crash dump compression: deflate
[    3.174631] pstore: Registered efi as persistent store backend
[    3.243823] input: HDA NVidia HDMI/DP,pcm=3 as /devices/pci0000:00/0000:00:03.2/0000:26:00.1/sound/card0/input9
[    3.243915] input: HDA NVidia HDMI/DP,pcm=7 as /devices/pci0000:00/0000:00:03.2/0000:26:00.1/sound/card0/input10
[    3.243961] input: HDA NVidia HDMI/DP,pcm=8 as /devices/pci0000:00/0000:00:03.2/0000:26:00.1/sound/card0/input11
[    3.244003] input: HDA NVidia HDMI/DP,pcm=9 as /devices/pci0000:00/0000:00:03.2/0000:26:00.1/sound/card0/input12
[    3.246632] nvidia-nvlink: Nvlink Core is being initialized, major device number 240

[    3.247769] nvidia 0000:26:00.0: vgaarb: changed VGA decodes: olddecodes=io+mem,decodes=none:owns=none
[    3.249785] snd_hda_codec_realtek hdaudioC1D0: autoconfig for ALC892: line_outs=4 (0x14/0x15/0x16/0x17/0x0) type:line
[    3.249789] snd_hda_codec_realtek hdaudioC1D0:    speaker_outs=0 (0x0/0x0/0x0/0x0/0x0)
[    3.249791] snd_hda_codec_realtek hdaudioC1D0:    hp_outs=1 (0x1b/0x0/0x0/0x0/0x0)
[    3.249792] snd_hda_codec_realtek hdaudioC1D0:    mono: mono_out=0x0
[    3.249793] snd_hda_codec_realtek hdaudioC1D0:    inputs:
[    3.249794] snd_hda_codec_realtek hdaudioC1D0:      Front Mic=0x19
[    3.249795] snd_hda_codec_realtek hdaudioC1D0:      Rear Mic=0x18
[    3.249796] snd_hda_codec_realtek hdaudioC1D0:      Line=0x1a
[    3.263404] input: HD-Audio Generic Front Mic as /devices/pci0000:00/0000:00:08.1/0000:28:00.4/sound/card1/input13
[    3.263448] input: HD-Audio Generic Rear Mic as /devices/pci0000:00/0000:00:08.1/0000:28:00.4/sound/card1/input14
[    3.263499] input: HD-Audio Generic Line as /devices/pci0000:00/0000:00:08.1/0000:28:00.4/sound/card1/input15
[    3.263555] input: HD-Audio Generic Line Out Front as /devices/pci0000:00/0000:00:08.1/0000:28:00.4/sound/card1/input16
[    3.263602] input: HD-Audio Generic Line Out Surround as /devices/pci0000:00/0000:00:08.1/0000:28:00.4/sound/card1/input17
[    3.263640] input: HD-Audio Generic Line Out CLFE as /devices/pci0000:00/0000:00:08.1/0000:28:00.4/sound/card1/input18
[    3.263677] input: HD-Audio Generic Line Out Side as /devices/pci0000:00/0000:00:08.1/0000:28:00.4/sound/card1/input19
[    3.263714] input: HD-Audio Generic Front Headphone as /devices/pci0000:00/0000:00:08.1/0000:28:00.4/sound/card1/input20
[    3.296520] NVRM: loading NVIDIA UNIX x86_64 Kernel Module  515.76  Mon Sep 12 19:21:56 UTC 2022
[    3.296588] SVM: TSC scaling supported
[    3.296591] kvm: Nested Virtualization enabled
[    3.296592] SVM: kvm: Nested Paging enabled
[    3.296594] SEV supported: 509 ASIDs
[    3.296610] SVM: Virtual VMLOAD VMSAVE supported
[    3.296611] SVM: Virtual GIF supported
[    3.296612] SVM: LBR virtualization supported
[    3.342332] MCE: In-kernel MCE decoding enabled.
[    3.345653] intel_rapl_common: Found RAPL domain package
[    3.345656] intel_rapl_common: Found RAPL domain core
[    3.347540] nvidia-modeset: Loading NVIDIA Kernel Mode Setting Driver for UNIX platforms  515.76  Mon Sep 12 19:11:54 UTC 2022
[    3.348892] [drm] [nvidia-drm] [GPU ID 0x00002600] Loading driver
[    3.348894] [drm] Initialized nvidia-drm 0.0.0 20160202 for 0000:26:00.0 on minor 0
[    4.162032] nvidia-gpu 0000:26:00.3: i2c timeout error e0000000
[    4.162070] ucsi_ccg 3-0008: i2c_transfer failed -110
[    4.162095] ucsi_ccg 3-0008: ucsi_ccg_init failed - -110
[    4.162122] ucsi_ccg: probe of 3-0008 failed with error -110
[    4.164133] shepherd[1]: Service udev has been started.
[    4.178763] Adding 3905532k swap on /dev/nvme0n1p2.  Priority:-2 extents:1 across:3905532k SSFS
[    4.179465] shepherd[1]: Service swap-f95df01e-5e58-4d7a-945d-1e1c4db969d3 has been started.
[    4.179629] shepherd[1]: Service user-file-systems has been started.
[    4.191459] shepherd[1]: Service file-system-/boot/efi has been started.
[    4.191770] shepherd[1]: Service file-system-/dev/pts has been started.
[    4.192065] shepherd[1]: Service file-system-/sys/kernel/debug has been started.
[    4.192384] shepherd[1]: Service file-system-/dev/shm has been started.
[    4.224941] shepherd[1]: Service file-system-/sys/firmware/efi/efivars has been started.
[    4.225236] shepherd[1]: Service file-system-/gnu/store has been started.
[    4.225496] shepherd[1]: Service file-system-/run/systemd has been started.
[    4.225748] shepherd[1]: Service file-system-/run/user has been started.
[    4.226010] shepherd[1]: Service file-system-/sys/fs/cgroup has been started.
[    4.226292] shepherd[1]: Service file-system-/sys/fs/cgroup/elogind has been started.
[    4.256391] shepherd[1]: Service file-system-/sys/fs/cgroup/cpuset has been started.
[    4.256997] shepherd[1]: Service file-system-/sys/fs/cgroup/cpu has been started.
[    4.257618] shepherd[1]: Service file-system-/sys/fs/cgroup/cpuacct has been started.
[    4.272495] shepherd[1]: Service file-system-/sys/fs/cgroup/memory has been started.
[    4.273087] shepherd[1]: Service file-system-/sys/fs/cgroup/devices has been started.
[    4.273635] shepherd[1]: Service file-system-/sys/fs/cgroup/freezer has been started.
[    4.292370] shepherd[1]: Service file-system-/sys/fs/cgroup/blkio has been started.
[    4.292901] shepherd[1]: Service file-system-/sys/fs/cgroup/perf_event has been started.
[    4.293431] shepherd[1]: Service file-system-/sys/fs/cgroup/pids has been started.
[    4.293997] shepherd[1]: Service file-system-/var/cache/fontconfig has been started.
[    4.294419] shepherd[1]: Service file-system-/var/lib/gdm has been started.
[    4.294672] shepherd[1]: Service file-systems has been started.
[    4.295497] shepherd[1]: Service user-homes has been started.
[    4.296360] shepherd[1]: Service urandom-seed has been started.
[    4.296623] shepherd[1]: Service user-processes has been started.
[    4.296925] shepherd[1]: Service host-name has been started.
[    4.297356] shepherd[1]: Service user-homes has been started.
[    4.301886] shepherd[1]: 
[    4.301960] [
[    4.302033] sysctl
[    4.302099] ] 
[    4.302206] fs.protected_hardlinks = 1

[    4.302381] shepherd[1]: 
[    4.302453] [
[    4.302516] sysctl
[    4.302591] ] 
[    4.302664] fs.protected_symlinks = 1

[    4.303177] shepherd[1]: Service sysctl has been started.
[    5.306865] shepherd[1]: Service nscd has been started.
[    5.309056] shepherd[1]: Service guix-daemon has been started.
[    5.338232] shepherd[1]: Service loopback has been started.
[    5.338377] shepherd[1]: Service host-name has been started.
[    5.338558] shepherd[1]: Service virtual-terminal has been started.
[    5.339579] shepherd[1]: Service term-tty6 has been started.
[    5.339723] shepherd[1]: Service host-name has been started.
[    5.340593] shepherd[1]: Service term-tty5 has been started.
[    5.340730] shepherd[1]: Service host-name has been started.
[    5.341842] shepherd[1]: Service term-tty4 has been started.
[    5.341979] shepherd[1]: Service host-name has been started.
[    5.343082] shepherd[1]: Service term-tty3 has been started.
[    5.343217] shepherd[1]: Service host-name has been started.
[    5.344358] shepherd[1]: Service term-tty2 has been started.
[    5.344490] shepherd[1]: Service host-name has been started.
[    5.345464] shepherd[1]: Service term-tty1 has been started.
[    5.345607] shepherd[1]: Service host-name has been started.
[    8.466618] r8169 0000:22:00.0: Direct firmware load for rtl_nic/rtl8168h-2.fw failed with error -2
[    8.466622] r8169 0000:22:00.0: Unable to load firmware rtl_nic/rtl8168h-2.fw (-2)
[    8.496016] Generic FE-GE Realtek PHY r8169-0-2200:00: attached PHY driver (mii_bus:phy_addr=r8169-0-2200:00, irq=MAC)
[    8.616865] r8169 0000:22:00.0 enp34s0: Link is Down
[   12.070639] r8169 0000:22:00.0 enp34s0: Link is Up - 1Gbps/Full - flow control rx/tx
[   12.070661] IPv6: ADDRCONF(NETDEV_CHANGE): enp34s0: link becomes ready
[   16.607841] nvidia_uvm: module uses symbols nvUvmInterfaceDisableAccessCntr from proprietary module nvidia, inheriting taint.
[   16.619920] nvidia-uvm: Loaded the UVM driver, major device number 238.
