[    0.000000] Linux version 6.2.10 (guix@guix) (gcc (GCC) 10.3.0, GNU ld (GNU Binutils) 2.37) #1 SMP PREEMPT_DYNAMIC 1
[    0.000000] Command line: BOOT_IMAGE=/gnu/store/nm7gpkdcfi5v2x3ygpch6frq71vfbjig-linux-6.2.10/bzImage root=5fdf4f83-3625-4a63-a65b-361da87376f0 gnu.system=/gnu/store/5d4q21s338q1i9v5pgcxadv9knf4vdd0-system gnu.load=/gnu/store/5d4q21s338q1i9v5pgcxadv9knf4vdd0-system/boot modprobe.blacklist=nouveau modprobe.blacklist=usbmouse,usbkbd quiet
[    0.000000] KERNEL supported cpus:
[    0.000000]   Intel GenuineIntel
[    0.000000]   AMD AuthenticAMD
[    0.000000]   Hygon HygonGenuine
[    0.000000]   Centaur CentaurHauls
[    0.000000]   zhaoxin   Shanghai  
[    0.000000] x86/fpu: Supporting XSAVE feature 0x001: 'x87 floating point registers'
[    0.000000] x86/fpu: Supporting XSAVE feature 0x002: 'SSE registers'
[    0.000000] x86/fpu: Supporting XSAVE feature 0x004: 'AVX registers'
[    0.000000] x86/fpu: xstate_offset[2]:  576, xstate_sizes[2]:  256
[    0.000000] x86/fpu: Enabled xstate features 0x7, context size is 832 bytes, using 'compacted' format.
[    0.000000] signal: max sigframe size: 1776
[    0.000000] BIOS-provided physical RAM map:
[    0.000000] BIOS-e820: [mem 0x0000000000000000-0x000000000009ffff] usable
[    0.000000] BIOS-e820: [mem 0x00000000000a0000-0x00000000000fffff] reserved
[    0.000000] BIOS-e820: [mem 0x0000000000100000-0x0000000009d81fff] usable
[    0.000000] BIOS-e820: [mem 0x0000000009d82000-0x0000000009ffffff] reserved
[    0.000000] BIOS-e820: [mem 0x000000000a000000-0x000000000a1fffff] usable
[    0.000000] BIOS-e820: [mem 0x000000000a200000-0x000000000a20bfff] ACPI NVS
[    0.000000] BIOS-e820: [mem 0x000000000a20c000-0x000000000affffff] usable
[    0.000000] BIOS-e820: [mem 0x000000000b000000-0x000000000b01ffff] reserved
[    0.000000] BIOS-e820: [mem 0x000000000b020000-0x00000000db5c2fff] usable
[    0.000000] BIOS-e820: [mem 0x00000000db5c3000-0x00000000db72ffff] reserved
[    0.000000] BIOS-e820: [mem 0x00000000db730000-0x00000000dbbb1fff] usable
[    0.000000] BIOS-e820: [mem 0x00000000dbbb2000-0x00000000dbcc8fff] ACPI NVS
[    0.000000] BIOS-e820: [mem 0x00000000dbcc9000-0x00000000dca01fff] reserved
[    0.000000] BIOS-e820: [mem 0x00000000dca02000-0x00000000dcaacfff] type 20
[    0.000000] BIOS-e820: [mem 0x00000000dcaad000-0x00000000deffffff] usable
[    0.000000] BIOS-e820: [mem 0x00000000df000000-0x00000000dfffffff] reserved
[    0.000000] BIOS-e820: [mem 0x00000000f8000000-0x00000000fbffffff] reserved
[    0.000000] BIOS-e820: [mem 0x00000000fd000000-0x00000000ffffffff] reserved
[    0.000000] BIOS-e820: [mem 0x0000000100000000-0x000000081f37ffff] usable
[    0.000000] NX (Execute Disable) protection: active
[    0.000000] efi: EFI v2.70 by American Megatrends
[    0.000000] efi: ACPI 2.0=0xdbc45000 ACPI=0xdbc45000 SMBIOS=0xdc8eb000 MEMATTR=0xd7fbb698 ESRT=0xd7fbcf98 
[    0.000000] efi: Remove mem281: MMIO range=[0xf8000000-0xfbffffff] (64MB) from e820 map
[    0.000000] e820: remove [mem 0xf8000000-0xfbffffff] reserved
[    0.000000] efi: Remove mem282: MMIO range=[0xfd000000-0xffffffff] (48MB) from e820 map
[    0.000000] e820: remove [mem 0xfd000000-0xffffffff] reserved
[    0.000000] SMBIOS 2.8 present.
[    0.000000] DMI: Micro-Star International Co., Ltd MS-7C02/B450 TOMAHAWK MAX (MS-7C02), BIOS 3.30 09/17/2019
[    0.000000] tsc: Fast TSC calibration failed
[    0.000000] e820: update [mem 0x00000000-0x00000fff] usable ==> reserved
[    0.000000] e820: remove [mem 0x000a0000-0x000fffff] usable
[    0.000000] last_pfn = 0x81f380 max_arch_pfn = 0x400000000
[    0.000000] total RAM covered: 3583M
[    0.000000] Found optimal setting for mtrr clean up
[    0.000000]  gran_size: 64K 	chunk_size: 64M 	num_reg: 4  	lose cover RAM: 0G
[    0.000000] x86/PAT: Configuration [0-7]: WB  WC  UC- UC  WB  WP  UC- WT  
[    0.000000] e820: update [mem 0xdc0b0000-0xdc0bffff] usable ==> reserved
[    0.000000] e820: update [mem 0xe0000000-0xffffffff] usable ==> reserved
[    0.000000] last_pfn = 0xdf000 max_arch_pfn = 0x400000000
[    0.000000] esrt: Reserving ESRT space from 0x00000000d7fbcf98 to 0x00000000d7fbcfd0.
[    0.000000] e820: update [mem 0xd7fbc000-0xd7fbcfff] usable ==> reserved
[    0.000000] Using GB pages for direct mapping
[    0.000000] Secure boot disabled
[    0.000000] RAMDISK: [mem 0x363ed000-0x371edfff]
[    0.000000] ACPI: Early table checksum verification disabled
[    0.000000] ACPI: RSDP 0x00000000DBC45000 000024 (v02 ALASKA)
[    0.000000] ACPI: XSDT 0x00000000DBC450A0 0000BC (v01 ALASKA A M I    01072009 AMI  00010013)
[    0.000000] ACPI: FACP 0x00000000DBC4CD10 000114 (v06 ALASKA A M I    01072009 AMI  00010013)
[    0.000000] ACPI: DSDT 0x00000000DBC451F0 007B20 (v02 ALASKA A M I    01072009 INTL 20120913)
[    0.000000] ACPI: FACS 0x00000000DBCB1E00 000040
[    0.000000] ACPI: APIC 0x00000000DBC4CE28 00015E (v03 ALASKA A M I    01072009 AMI  00010013)
[    0.000000] ACPI: FPDT 0x00000000DBC4CF88 000044 (v01 ALASKA A M I    01072009 AMI  00010013)
[    0.000000] ACPI: FIDT 0x00000000DBC4CFD0 00009C (v01 ALASKA A M I    01072009 AMI  00010013)
[    0.000000] ACPI: SSDT 0x00000000DBC4D070 0000FC (v02 ALASKA CPUSSDT  01072009 AMI  01072009)
[    0.000000] ACPI: SSDT 0x00000000DBC4D170 008C98 (v02 AMD    AMD ALIB 00000002 MSFT 04000000)
[    0.000000] ACPI: SSDT 0x00000000DBC55E08 0032ED (v01 AMD    AMD AOD  00000001 INTL 20120913)
[    0.000000] ACPI: MCFG 0x00000000DBC590F8 00003C (v01 ALASKA A M I    01072009 MSFT 00010013)
[    0.000000] ACPI: HPET 0x00000000DBC59138 000038 (v01 ALASKA A M I    01072009 AMI  00000005)
[    0.000000] ACPI: UEFI 0x00000000DBC59170 000042 (v01 ALASKA A M I    00000002      01000013)
[    0.000000] ACPI: IVRS 0x00000000DBC591B8 0000D0 (v02 AMD    AMD IVRS 00000001 AMD  00000000)
[    0.000000] ACPI: PCCT 0x00000000DBC59288 00006E (v01 AMD    AMD PCCT 00000001 AMD  00000000)
[    0.000000] ACPI: SSDT 0x00000000DBC592F8 003EC9 (v01 AMD    AMD CPU  00000001 AMD  00000001)
[    0.000000] ACPI: CRAT 0x00000000DBC5D1C8 001558 (v01 AMD    AMD CRAT 00000001 AMD  00000001)
[    0.000000] ACPI: CDIT 0x00000000DBC5E720 000029 (v01 AMD    AMD CDIT 00000001 AMD  00000001)
[    0.000000] ACPI: BGRT 0x00000000DBC5E750 000038 (v01 ALASKA A M I    01072009 AMI  00010013)
[    0.000000] ACPI: SSDT 0x00000000DBC5E788 001D4A (v01 AMD    AmdTable 00000001 INTL 20120913)
[    0.000000] ACPI: SSDT 0x00000000DBC604D8 0000BF (v01 AMD    AMD PT   00001000 INTL 20120913)
[    0.000000] ACPI: WSMT 0x00000000DBC60598 000028 (v01 ALASKA A M I    01072009 AMI  00010013)
[    0.000000] ACPI: Reserving FACP table memory at [mem 0xdbc4cd10-0xdbc4ce23]
[    0.000000] ACPI: Reserving DSDT table memory at [mem 0xdbc451f0-0xdbc4cd0f]
[    0.000000] ACPI: Reserving FACS table memory at [mem 0xdbcb1e00-0xdbcb1e3f]
[    0.000000] ACPI: Reserving APIC table memory at [mem 0xdbc4ce28-0xdbc4cf85]
[    0.000000] ACPI: Reserving FPDT table memory at [mem 0xdbc4cf88-0xdbc4cfcb]
[    0.000000] ACPI: Reserving FIDT table memory at [mem 0xdbc4cfd0-0xdbc4d06b]
[    0.000000] ACPI: Reserving SSDT table memory at [mem 0xdbc4d070-0xdbc4d16b]
[    0.000000] ACPI: Reserving SSDT table memory at [mem 0xdbc4d170-0xdbc55e07]
[    0.000000] ACPI: Reserving SSDT table memory at [mem 0xdbc55e08-0xdbc590f4]
[    0.000000] ACPI: Reserving MCFG table memory at [mem 0xdbc590f8-0xdbc59133]
[    0.000000] ACPI: Reserving HPET table memory at [mem 0xdbc59138-0xdbc5916f]
[    0.000000] ACPI: Reserving UEFI table memory at [mem 0xdbc59170-0xdbc591b1]
[    0.000000] ACPI: Reserving IVRS table memory at [mem 0xdbc591b8-0xdbc59287]
[    0.000000] ACPI: Reserving PCCT table memory at [mem 0xdbc59288-0xdbc592f5]
[    0.000000] ACPI: Reserving SSDT table memory at [mem 0xdbc592f8-0xdbc5d1c0]
[    0.000000] ACPI: Reserving CRAT table memory at [mem 0xdbc5d1c8-0xdbc5e71f]
[    0.000000] ACPI: Reserving CDIT table memory at [mem 0xdbc5e720-0xdbc5e748]
[    0.000000] ACPI: Reserving BGRT table memory at [mem 0xdbc5e750-0xdbc5e787]
[    0.000000] ACPI: Reserving SSDT table memory at [mem 0xdbc5e788-0xdbc604d1]
[    0.000000] ACPI: Reserving SSDT table memory at [mem 0xdbc604d8-0xdbc60596]
[    0.000000] ACPI: Reserving WSMT table memory at [mem 0xdbc60598-0xdbc605bf]
[    0.000000] No NUMA configuration found
[    0.000000] Faking a node at [mem 0x0000000000000000-0x000000081f37ffff]
[    0.000000] NODE_DATA(0) allocated [mem 0x81f37a000-0x81f37ffff]
[    0.000000] Zone ranges:
[    0.000000]   DMA      [mem 0x0000000000001000-0x0000000000ffffff]
[    0.000000]   DMA32    [mem 0x0000000001000000-0x00000000ffffffff]
[    0.000000]   Normal   [mem 0x0000000100000000-0x000000081f37ffff]
[    0.000000]   Device   empty
[    0.000000] Movable zone start for each node
[    0.000000] Early memory node ranges
[    0.000000]   node   0: [mem 0x0000000000001000-0x000000000009ffff]
[    0.000000]   node   0: [mem 0x0000000000100000-0x0000000009d81fff]
[    0.000000]   node   0: [mem 0x000000000a000000-0x000000000a1fffff]
[    0.000000]   node   0: [mem 0x000000000a20c000-0x000000000affffff]
[    0.000000]   node   0: [mem 0x000000000b020000-0x00000000db5c2fff]
[    0.000000]   node   0: [mem 0x00000000db730000-0x00000000dbbb1fff]
[    0.000000]   node   0: [mem 0x00000000dcaad000-0x00000000deffffff]
[    0.000000]   node   0: [mem 0x0000000100000000-0x000000081f37ffff]
[    0.000000] Initmem setup node 0 [mem 0x0000000000001000-0x000000081f37ffff]
[    0.000000] On node 0, zone DMA: 1 pages in unavailable ranges
[    0.000000] On node 0, zone DMA: 96 pages in unavailable ranges
[    0.000000] On node 0, zone DMA32: 638 pages in unavailable ranges
[    0.000000] On node 0, zone DMA32: 12 pages in unavailable ranges
[    0.000000] On node 0, zone DMA32: 32 pages in unavailable ranges
[    0.000000] On node 0, zone DMA32: 365 pages in unavailable ranges
[    0.000000] On node 0, zone DMA32: 3835 pages in unavailable ranges
[    0.000000] On node 0, zone Normal: 4096 pages in unavailable ranges
[    0.000000] On node 0, zone Normal: 3200 pages in unavailable ranges
[    0.000000] ACPI: PM-Timer IO Port: 0x808
[    0.000000] ACPI: LAPIC_NMI (acpi_id[0xff] high edge lint[0x1])
[    0.000000] IOAPIC[0]: apic_id 17, version 33, address 0xfec00000, GSI 0-23
[    0.000000] IOAPIC[1]: apic_id 18, version 33, address 0xfec01000, GSI 24-55
[    0.000000] ACPI: INT_SRC_OVR (bus 0 bus_irq 0 global_irq 2 dfl dfl)
[    0.000000] ACPI: INT_SRC_OVR (bus 0 bus_irq 9 global_irq 9 low level)
[    0.000000] ACPI: Using ACPI (MADT) for SMP configuration information
[    0.000000] ACPI: HPET id: 0x10228201 base: 0xfed00000
[    0.000000] e820: update [mem 0xd7f21000-0xd7f7dfff] usable ==> reserved
[    0.000000] smpboot: Allowing 16 CPUs, 0 hotplug CPUs
[    0.000000] PM: hibernation: Registered nosave memory: [mem 0x00000000-0x00000fff]
[    0.000000] PM: hibernation: Registered nosave memory: [mem 0x000a0000-0x000fffff]
[    0.000000] PM: hibernation: Registered nosave memory: [mem 0x09d82000-0x09ffffff]
[    0.000000] PM: hibernation: Registered nosave memory: [mem 0x0a200000-0x0a20bfff]
[    0.000000] PM: hibernation: Registered nosave memory: [mem 0x0b000000-0x0b01ffff]
[    0.000000] PM: hibernation: Registered nosave memory: [mem 0xd7f21000-0xd7f7dfff]
[    0.000000] PM: hibernation: Registered nosave memory: [mem 0xd7fbc000-0xd7fbcfff]
[    0.000000] PM: hibernation: Registered nosave memory: [mem 0xdb5c3000-0xdb72ffff]
[    0.000000] PM: hibernation: Registered nosave memory: [mem 0xdbbb2000-0xdbcc8fff]
[    0.000000] PM: hibernation: Registered nosave memory: [mem 0xdbcc9000-0xdca01fff]
[    0.000000] PM: hibernation: Registered nosave memory: [mem 0xdca02000-0xdcaacfff]
[    0.000000] PM: hibernation: Registered nosave memory: [mem 0xdf000000-0xdfffffff]
[    0.000000] PM: hibernation: Registered nosave memory: [mem 0xe0000000-0xffffffff]
[    0.000000] [mem 0xe0000000-0xffffffff] available for PCI devices
[    0.000000] Booting paravirtualized kernel on bare hardware
[    0.000000] clocksource: refined-jiffies: mask: 0xffffffff max_cycles: 0xffffffff, max_idle_ns: 7645519600211568 ns
[    0.000000] setup_percpu: NR_CPUS:256 nr_cpumask_bits:16 nr_cpu_ids:16 nr_node_ids:1
[    0.000000] percpu: Embedded 57 pages/cpu s194792 r8192 d30488 u262144
[    0.000000] pcpu-alloc: s194792 r8192 d30488 u262144 alloc=1*2097152
[    0.000000] pcpu-alloc: [0] 00 01 02 03 04 05 06 07 [0] 08 09 10 11 12 13 14 15 
[    0.000000] Fallback order for Node 0: 0 
[    0.000000] Built 1 zonelists, mobility grouping on.  Total pages: 8245292
[    0.000000] Policy zone: Normal
[    0.000000] Kernel command line: BOOT_IMAGE=/gnu/store/nm7gpkdcfi5v2x3ygpch6frq71vfbjig-linux-6.2.10/bzImage root=5fdf4f83-3625-4a63-a65b-361da87376f0 gnu.system=/gnu/store/5d4q21s338q1i9v5pgcxadv9knf4vdd0-system gnu.load=/gnu/store/5d4q21s338q1i9v5pgcxadv9knf4vdd0-system/boot modprobe.blacklist=nouveau modprobe.blacklist=usbmouse,usbkbd quiet
[    0.000000] Unknown kernel command line parameters "BOOT_IMAGE=/gnu/store/nm7gpkdcfi5v2x3ygpch6frq71vfbjig-linux-6.2.10/bzImage", will be passed to user space.
[    0.000000] random: crng init done
[    0.000000] Dentry cache hash table entries: 4194304 (order: 13, 33554432 bytes, linear)
[    0.000000] Inode-cache hash table entries: 2097152 (order: 12, 16777216 bytes, linear)
[    0.000000] mem auto-init: stack:byref_all(zero), heap alloc:on, heap free:off
[    0.000000] software IO TLB: area num 16.
[    0.000000] Memory: 32701664K/33505332K available (18432K kernel code, 2768K rwdata, 6364K rodata, 3964K init, 3348K bss, 803408K reserved, 0K cma-reserved)
[    0.000000] SLUB: HWalign=64, Order=0-3, MinObjects=0, CPUs=16, Nodes=1
[    0.000000] ftrace: allocating 48088 entries in 188 pages
[    0.000000] ftrace: allocated 188 pages with 5 groups
[    0.000000] Dynamic Preempt: voluntary
[    0.000000] rcu: Preemptible hierarchical RCU implementation.
[    0.000000] rcu: 	RCU restricting CPUs from NR_CPUS=256 to nr_cpu_ids=16.
[    0.000000] 	Trampoline variant of Tasks RCU enabled.
[    0.000000] 	Rude variant of Tasks RCU enabled.
[    0.000000] 	Tracing variant of Tasks RCU enabled.
[    0.000000] rcu: RCU calculated value of scheduler-enlistment delay is 25 jiffies.
[    0.000000] rcu: Adjusting geometry for rcu_fanout_leaf=16, nr_cpu_ids=16
[    0.000000] NR_IRQS: 16640, nr_irqs: 1096, preallocated irqs: 16
[    0.000000] rcu: srcu_init: Setting srcu_struct sizes based on contention.
[    0.000000] Console: colour dummy device 80x25
[    0.000000] printk: console [tty0] enabled
[    0.000000] ACPI: Core revision 20221020
[    0.000000] clocksource: hpet: mask: 0xffffffff max_cycles: 0xffffffff, max_idle_ns: 133484873504 ns
[    0.000000] APIC: Switch to symmetric I/O mode setup
[    0.000000] AMD-Vi: Using global IVHD EFR:0x58f77ef22294ade, EFR2:0x0
[    0.000000] Switched APIC routing to physical flat.
[    0.000000] ..TIMER: vector=0x30 apic1=0 pin1=2 apic2=-1 pin2=-1
[    0.024000] tsc: PIT calibration matches HPET. 1 loops
[    0.024000] tsc: Detected 3599.699 MHz processor
[    0.000002] clocksource: tsc-early: mask: 0xffffffffffffffff max_cycles: 0x33e337a94b4, max_idle_ns: 440795387852 ns
[    0.000005] Calibrating delay loop (skipped), value calculated using timer frequency.. 7199.39 BogoMIPS (lpj=14398796)
[    0.000006] pid_max: default: 32768 minimum: 301
[    0.004912] LSM: initializing lsm=capability,yama,integrity,apparmor,tomoyo
[    0.004918] Yama: becoming mindful.
[    0.004933] AppArmor: AppArmor initialized
[    0.004934] TOMOYO Linux initialized
[    0.004991] Mount-cache hash table entries: 65536 (order: 7, 524288 bytes, linear)
[    0.005031] Mountpoint-cache hash table entries: 65536 (order: 7, 524288 bytes, linear)
[    0.005178] x86/cpu: User Mode Instruction Prevention (UMIP) activated
[    0.005274] LVT offset 2 assigned for vector 0xf4
[    0.005301] process: using mwait in idle threads
[    0.005302] Last level iTLB entries: 4KB 1024, 2MB 1024, 4MB 512
[    0.005302] Last level dTLB entries: 4KB 2048, 2MB 2048, 4MB 1024, 1GB 0
[    0.005305] Spectre V1 : Mitigation: usercopy/swapgs barriers and __user pointer sanitization
[    0.005307] Spectre V2 : Mitigation: Retpolines
[    0.005308] Spectre V2 : Spectre v2 / SpectreRSB mitigation: Filling RSB on context switch
[    0.005309] Spectre V2 : Spectre v2 / SpectreRSB : Filling RSB on VMEXIT
[    0.005309] Spectre V2 : Enabling Speculation Barrier for firmware calls
[    0.005310] RETBleed: Mitigation: untrained return thunk
[    0.005311] Spectre V2 : mitigation: Enabling conditional Indirect Branch Prediction Barrier
[    0.005312] Spectre V2 : User space: Mitigation: STIBP always-on protection
[    0.005313] Speculative Store Bypass: Mitigation: Speculative Store Bypass disabled via prctl
[    0.012520] Freeing SMP alternatives memory: 40K
[    0.126101] smpboot: CPU0: AMD Ryzen 7 3700X 8-Core Processor (family: 0x17, model: 0x71, stepping: 0x0)
[    0.126172] cblist_init_generic: Setting adjustable number of callback queues.
[    0.126175] cblist_init_generic: Setting shift to 4 and lim to 1.
[    0.126184] cblist_init_generic: Setting shift to 4 and lim to 1.
[    0.126192] cblist_init_generic: Setting shift to 4 and lim to 1.
[    0.126199] Performance Events: Fam17h+ core perfctr, AMD PMU driver.
[    0.126203] ... version:                0
[    0.126203] ... bit width:              48
[    0.126204] ... generic registers:      6
[    0.126204] ... value mask:             0000ffffffffffff
[    0.126205] ... max period:             00007fffffffffff
[    0.126205] ... fixed-purpose events:   0
[    0.126205] ... event mask:             000000000000003f
[    0.126264] rcu: Hierarchical SRCU implementation.
[    0.126264] rcu: 	Max phase no-delay instances is 1000.
[    0.126481] NMI watchdog: Enabled. Permanently consumes one hw-PMU counter.
[    0.126562] smp: Bringing up secondary CPUs ...
[    0.126612] x86: Booting SMP configuration:
[    0.126612] .... node  #0, CPUs:        #1  #2  #3  #4  #5  #6  #7  #8
[    0.142230] Spectre V2 : Update user space SMT mitigation: STIBP always-on
[    0.142230]   #9 #10 #11 #12 #13 #14 #15
[    0.158197] smp: Brought up 1 node, 16 CPUs
[    0.158197] smpboot: Max logical packages: 1
[    0.158197] smpboot: Total of 16 processors activated (115190.36 BogoMIPS)
[    0.160886] devtmpfs: initialized
[    0.160886] x86/mm: Memory block size: 128MB
[    0.161513] ACPI: PM: Registering ACPI NVS region [mem 0x0a200000-0x0a20bfff] (49152 bytes)
[    0.161513] ACPI: PM: Registering ACPI NVS region [mem 0xdbbb2000-0xdbcc8fff] (1142784 bytes)
[    0.161513] clocksource: jiffies: mask: 0xffffffff max_cycles: 0xffffffff, max_idle_ns: 7645041785100000 ns
[    0.161513] futex hash table entries: 4096 (order: 6, 262144 bytes, linear)
[    0.161513] pinctrl core: initialized pinctrl subsystem
[    0.161513] PM: RTC time: 13:21:42, date: 2023-04-08
[    0.161513] NET: Registered PF_NETLINK/PF_ROUTE protocol family
[    0.161513] audit: initializing netlink subsys (disabled)
[    0.161513] audit: type=2000 audit(1680960102.184:1): state=initialized audit_enabled=0 res=1
[    0.161513] thermal_sys: Registered thermal governor 'fair_share'
[    0.161513] thermal_sys: Registered thermal governor 'bang_bang'
[    0.161513] thermal_sys: Registered thermal governor 'step_wise'
[    0.161513] thermal_sys: Registered thermal governor 'user_space'
[    0.161513] cpuidle: using governor ladder
[    0.161513] cpuidle: using governor menu
[    0.161513] Detected 1 PCC Subspaces
[    0.161513] Registering PCC driver as Mailbox controller
[    0.161513] acpiphp: ACPI Hot Plug PCI Controller Driver version: 0.5
[    0.161513] PCI: MMCONFIG for domain 0000 [bus 00-3f] at [mem 0xf8000000-0xfbffffff] (base 0xf8000000)
[    0.161513] PCI: not using MMCONFIG
[    0.161513] PCI: Using configuration type 1 for base access
[    0.161513] PCI: Using configuration type 1 for extended access
[    0.161513] kprobes: kprobe jump-optimization is enabled. All kprobes are optimized if possible.
[    0.161513] HugeTLB: registered 1.00 GiB page size, pre-allocated 0 pages
[    0.161513] HugeTLB: 16380 KiB vmemmap can be freed for a 1.00 GiB page
[    0.161513] HugeTLB: registered 2.00 MiB page size, pre-allocated 0 pages
[    0.161513] HugeTLB: 28 KiB vmemmap can be freed for a 2.00 MiB page
[    0.164081] ACPI: Added _OSI(Module Device)
[    0.164082] ACPI: Added _OSI(Processor Device)
[    0.164083] ACPI: Added _OSI(3.0 _SCP Extensions)
[    0.164084] ACPI: Added _OSI(Processor Aggregator Device)
[    0.170396] ACPI: 7 ACPI AML tables successfully acquired and loaded
[    0.171159] ACPI: [Firmware Bug]: BIOS _OSI(Linux) query ignored
[    0.182250] ACPI: Interpreter enabled
[    0.182250] ACPI: PM: (supports S0 S3 S4 S5)
[    0.182250] ACPI: Using IOAPIC for interrupt routing
[    0.182250] PCI: MMCONFIG for domain 0000 [bus 00-3f] at [mem 0xf8000000-0xfbffffff] (base 0xf8000000)
[    0.182250] PCI: MMCONFIG at [mem 0xf8000000-0xfbffffff] reserved as ACPI motherboard resource
[    0.182250] PCI: Using host bridge windows from ACPI; if necessary, use "pci=nocrs" and report a bug
[    0.182250] PCI: Using E820 reservations for host bridge windows
[    0.182250] ACPI: Enabled 2 GPEs in block 00 to 1F
[    0.186220] ACPI: PCI Root Bridge [PCI0] (domain 0000 [bus 00-ff])
[    0.186224] acpi PNP0A08:00: _OSC: OS supports [ExtendedConfig ASPM ClockPM Segments MSI HPX-Type3]
[    0.186268] acpi PNP0A08:00: _OSC: platform does not support [SHPCHotplug PME LTR]
[    0.186352] acpi PNP0A08:00: _OSC: OS now controls [PCIeHotplug AER PCIeCapability]
[    0.186358] acpi PNP0A08:00: [Firmware Info]: MMCONFIG for domain 0000 [bus 00-3f] only partially covers this bridge
[    0.186596] PCI host bridge to bus 0000:00
[    0.186597] pci_bus 0000:00: root bus resource [io  0x0000-0x03af window]
[    0.186599] pci_bus 0000:00: root bus resource [io  0x03e0-0x0cf7 window]
[    0.186600] pci_bus 0000:00: root bus resource [io  0x03b0-0x03df window]
[    0.186600] pci_bus 0000:00: root bus resource [io  0x0d00-0xffff window]
[    0.186601] pci_bus 0000:00: root bus resource [mem 0x000a0000-0x000dffff window]
[    0.186602] pci_bus 0000:00: root bus resource [mem 0xe0000000-0xfec2ffff window]
[    0.186603] pci_bus 0000:00: root bus resource [mem 0xfee00000-0xffffffff window]
[    0.186604] pci_bus 0000:00: root bus resource [bus 00-ff]
[    0.186617] pci 0000:00:00.0: [1022:1480] type 00 class 0x060000
[    0.186698] pci 0000:00:00.2: [1022:1481] type 00 class 0x080600
[    0.186775] pci 0000:00:01.0: [1022:1482] type 00 class 0x060000
[    0.186828] pci 0000:00:01.1: [1022:1483] type 01 class 0x060400
[    0.186857] pci 0000:00:01.1: enabling Extended Tags
[    0.186915] pci 0000:00:01.1: PME# supported from D0 D3hot D3cold
[    0.187079] pci 0000:00:01.3: [1022:1483] type 01 class 0x060400
[    0.187109] pci 0000:00:01.3: enabling Extended Tags
[    0.187165] pci 0000:00:01.3: PME# supported from D0 D3hot D3cold
[    0.187341] pci 0000:00:02.0: [1022:1482] type 00 class 0x060000
[    0.187397] pci 0000:00:03.0: [1022:1482] type 00 class 0x060000
[    0.187452] pci 0000:00:03.2: [1022:1483] type 01 class 0x060400
[    0.187536] pci 0000:00:03.2: PME# supported from D0 D3hot D3cold
[    0.187696] pci 0000:00:04.0: [1022:1482] type 00 class 0x060000
[    0.187750] pci 0000:00:05.0: [1022:1482] type 00 class 0x060000
[    0.187805] pci 0000:00:07.0: [1022:1482] type 00 class 0x060000
[    0.187855] pci 0000:00:07.1: [1022:1484] type 01 class 0x060400
[    0.187879] pci 0000:00:07.1: enabling Extended Tags
[    0.187914] pci 0000:00:07.1: PME# supported from D0 D3hot D3cold
[    0.187992] pci 0000:00:08.0: [1022:1482] type 00 class 0x060000
[    0.188045] pci 0000:00:08.1: [1022:1484] type 01 class 0x060400
[    0.188070] pci 0000:00:08.1: enabling Extended Tags
[    0.188108] pci 0000:00:08.1: PME# supported from D0 D3hot D3cold
[    0.188192] pci 0000:00:08.2: [1022:1484] type 01 class 0x060400
[    0.188218] pci 0000:00:08.2: enabling Extended Tags
[    0.188256] pci 0000:00:08.2: PME# supported from D0 D3hot D3cold
[    0.188337] pci 0000:00:08.3: [1022:1484] type 01 class 0x060400
[    0.188363] pci 0000:00:08.3: enabling Extended Tags
[    0.188400] pci 0000:00:08.3: PME# supported from D0 D3hot D3cold
[    0.188495] pci 0000:00:14.0: [1022:790b] type 00 class 0x0c0500
[    0.188593] pci 0000:00:14.3: [1022:790e] type 00 class 0x060100
[    0.188701] pci 0000:00:18.0: [1022:1440] type 00 class 0x060000
[    0.188727] pci 0000:00:18.1: [1022:1441] type 00 class 0x060000
[    0.188751] pci 0000:00:18.2: [1022:1442] type 00 class 0x060000
[    0.188777] pci 0000:00:18.3: [1022:1443] type 00 class 0x060000
[    0.188805] pci 0000:00:18.4: [1022:1444] type 00 class 0x060000
[    0.188833] pci 0000:00:18.5: [1022:1445] type 00 class 0x060000
[    0.188857] pci 0000:00:18.6: [1022:1446] type 00 class 0x060000
[    0.188882] pci 0000:00:18.7: [1022:1447] type 00 class 0x060000
[    0.188957] pci 0000:01:00.0: [144d:a808] type 00 class 0x010802
[    0.188976] pci 0000:01:00.0: reg 0x10: [mem 0xf7900000-0xf7903fff 64bit]
[    0.189232] pci 0000:00:01.1: PCI bridge to [bus 01]
[    0.189237] pci 0000:00:01.1:   bridge window [mem 0xf7900000-0xf79fffff]
[    0.189291] pci 0000:03:00.0: [1022:43d5] type 00 class 0x0c0330
[    0.189311] pci 0000:03:00.0: reg 0x10: [mem 0xf76a0000-0xf76a7fff 64bit]
[    0.189356] pci 0000:03:00.0: enabling Extended Tags
[    0.189414] pci 0000:03:00.0: PME# supported from D3hot D3cold
[    0.189548] pci 0000:03:00.1: [1022:43c8] type 00 class 0x010601
[    0.189600] pci 0000:03:00.1: reg 0x24: [mem 0xf7680000-0xf769ffff]
[    0.189609] pci 0000:03:00.1: reg 0x30: [mem 0xf7600000-0xf767ffff pref]
[    0.189616] pci 0000:03:00.1: enabling Extended Tags
[    0.189659] pci 0000:03:00.1: PME# supported from D3hot D3cold
[    0.189732] pci 0000:03:00.2: [1022:43c6] type 01 class 0x060400
[    0.189781] pci 0000:03:00.2: enabling Extended Tags
[    0.189828] pci 0000:03:00.2: PME# supported from D3hot D3cold
[    0.189924] pci 0000:00:01.3: PCI bridge to [bus 03-25]
[    0.189928] pci 0000:00:01.3:   bridge window [io  0xf000-0xffff]
[    0.189930] pci 0000:00:01.3:   bridge window [mem 0xf7500000-0xf76fffff]
[    0.190009] pci 0000:20:00.0: [1022:43c7] type 01 class 0x060400
[    0.190060] pci 0000:20:00.0: enabling Extended Tags
[    0.190122] pci 0000:20:00.0: PME# supported from D3hot D3cold
[    0.190232] pci 0000:20:01.0: [1022:43c7] type 01 class 0x060400
[    0.190284] pci 0000:20:01.0: enabling Extended Tags
[    0.190345] pci 0000:20:01.0: PME# supported from D3hot D3cold
[    0.190458] pci 0000:20:04.0: [1022:43c7] type 01 class 0x060400
[    0.190510] pci 0000:20:04.0: enabling Extended Tags
[    0.190571] pci 0000:20:04.0: PME# supported from D3hot D3cold
[    0.190691] pci 0000:03:00.2: PCI bridge to [bus 20-25]
[    0.190697] pci 0000:03:00.2:   bridge window [io  0xf000-0xffff]
[    0.190699] pci 0000:03:00.2:   bridge window [mem 0xf7500000-0xf75fffff]
[    0.190741] pci 0000:20:00.0: PCI bridge to [bus 21]
[    0.190813] pci 0000:22:00.0: [10ec:8168] type 00 class 0x020000
[    0.190837] pci 0000:22:00.0: reg 0x10: [io  0xf000-0xf0ff]
[    0.190868] pci 0000:22:00.0: reg 0x18: [mem 0xf7504000-0xf7504fff 64bit]
[    0.190888] pci 0000:22:00.0: reg 0x20: [mem 0xf7500000-0xf7503fff 64bit]
[    0.191041] pci 0000:22:00.0: supports D1 D2
[    0.191042] pci 0000:22:00.0: PME# supported from D0 D1 D2 D3hot D3cold
[    0.191301] pci 0000:20:01.0: PCI bridge to [bus 22]
[    0.191307] pci 0000:20:01.0:   bridge window [io  0xf000-0xffff]
[    0.191310] pci 0000:20:01.0:   bridge window [mem 0xf7500000-0xf75fffff]
[    0.191351] pci 0000:20:04.0: PCI bridge to [bus 25]
[    0.191427] pci 0000:26:00.0: [10de:1e84] type 00 class 0x030000
[    0.191442] pci 0000:26:00.0: reg 0x10: [mem 0xf6000000-0xf6ffffff]
[    0.191454] pci 0000:26:00.0: reg 0x14: [mem 0xe0000000-0xefffffff 64bit pref]
[    0.191466] pci 0000:26:00.0: reg 0x1c: [mem 0xf0000000-0xf1ffffff 64bit pref]
[    0.191475] pci 0000:26:00.0: reg 0x24: [io  0xe000-0xe07f]
[    0.191483] pci 0000:26:00.0: reg 0x30: [mem 0xf7000000-0xf707ffff pref]
[    0.191501] pci 0000:26:00.0: BAR 1: assigned to efifb
[    0.191554] pci 0000:26:00.0: PME# supported from D0 D3hot D3cold
[    0.191645] pci 0000:26:00.0: 16.000 Gb/s available PCIe bandwidth, limited by 2.5 GT/s PCIe x8 link at 0000:00:03.2 (capable of 126.016 Gb/s with 8.0 GT/s PCIe x16 link)
[    0.191749] pci 0000:26:00.1: [10de:10f8] type 00 class 0x040300
[    0.191762] pci 0000:26:00.1: reg 0x10: [mem 0xf7080000-0xf7083fff]
[    0.191897] pci 0000:26:00.2: [10de:1ad8] type 00 class 0x0c0330
[    0.191916] pci 0000:26:00.2: reg 0x10: [mem 0xf2000000-0xf203ffff 64bit pref]
[    0.191936] pci 0000:26:00.2: reg 0x1c: [mem 0xf2040000-0xf204ffff 64bit pref]
[    0.191998] pci 0000:26:00.2: PME# supported from D0 D3hot D3cold
[    0.192061] pci 0000:26:00.3: [10de:1ad9] type 00 class 0x0c8000
[    0.192074] pci 0000:26:00.3: reg 0x10: [mem 0xf7084000-0xf7084fff]
[    0.192153] pci 0000:26:00.3: PME# supported from D0 D3hot D3cold
[    0.192243] pci 0000:00:03.2: PCI bridge to [bus 26]
[    0.192246] pci 0000:00:03.2:   bridge window [io  0xe000-0xefff]
[    0.192248] pci 0000:00:03.2:   bridge window [mem 0xf6000000-0xf70fffff]
[    0.192252] pci 0000:00:03.2:   bridge window [mem 0xe0000000-0xf20fffff 64bit pref]
[    0.192287] pci 0000:27:00.0: [1022:148a] type 00 class 0x130000
[    0.192316] pci 0000:27:00.0: enabling Extended Tags
[    0.192428] pci 0000:00:07.1: PCI bridge to [bus 27]
[    0.192475] pci 0000:28:00.0: [1022:1485] type 00 class 0x130000
[    0.192509] pci 0000:28:00.0: enabling Extended Tags
[    0.192626] pci 0000:28:00.1: [1022:1486] type 00 class 0x108000
[    0.192642] pci 0000:28:00.1: reg 0x18: [mem 0xf7300000-0xf73fffff]
[    0.192654] pci 0000:28:00.1: reg 0x24: [mem 0xf7408000-0xf7409fff]
[    0.192663] pci 0000:28:00.1: enabling Extended Tags
[    0.192752] pci 0000:28:00.3: [1022:149c] type 00 class 0x0c0330
[    0.192765] pci 0000:28:00.3: reg 0x10: [mem 0xf7200000-0xf72fffff 64bit]
[    0.192795] pci 0000:28:00.3: enabling Extended Tags
[    0.192835] pci 0000:28:00.3: PME# supported from D0 D3hot D3cold
[    0.192903] pci 0000:28:00.4: [1022:1487] type 00 class 0x040300
[    0.192912] pci 0000:28:00.4: reg 0x10: [mem 0xf7400000-0xf7407fff]
[    0.192938] pci 0000:28:00.4: enabling Extended Tags
[    0.192975] pci 0000:28:00.4: PME# supported from D0 D3hot D3cold
[    0.193046] pci 0000:00:08.1: PCI bridge to [bus 28]
[    0.193050] pci 0000:00:08.1:   bridge window [mem 0xf7200000-0xf74fffff]
[    0.193090] pci 0000:30:00.0: [1022:7901] type 00 class 0x010601
[    0.193126] pci 0000:30:00.0: reg 0x24: [mem 0xf7800000-0xf78007ff]
[    0.193136] pci 0000:30:00.0: enabling Extended Tags
[    0.193187] pci 0000:30:00.0: PME# supported from D3hot D3cold
[    0.193289] pci 0000:00:08.2: PCI bridge to [bus 30]
[    0.193293] pci 0000:00:08.2:   bridge window [mem 0xf7800000-0xf78fffff]
[    0.193334] pci 0000:31:00.0: [1022:7901] type 00 class 0x010601
[    0.193370] pci 0000:31:00.0: reg 0x24: [mem 0xf7700000-0xf77007ff]
[    0.193380] pci 0000:31:00.0: enabling Extended Tags
[    0.193431] pci 0000:31:00.0: PME# supported from D3hot D3cold
[    0.193529] pci 0000:00:08.3: PCI bridge to [bus 31]
[    0.193533] pci 0000:00:08.3:   bridge window [mem 0xf7700000-0xf77fffff]
[    0.193774] ACPI: PCI: Interrupt link LNKA configured for IRQ 0
[    0.193802] ACPI: PCI: Interrupt link LNKB configured for IRQ 0
[    0.193825] ACPI: PCI: Interrupt link LNKC configured for IRQ 0
[    0.193855] ACPI: PCI: Interrupt link LNKD configured for IRQ 0
[    0.193881] ACPI: PCI: Interrupt link LNKE configured for IRQ 0
[    0.193902] ACPI: PCI: Interrupt link LNKF configured for IRQ 0
[    0.193923] ACPI: PCI: Interrupt link LNKG configured for IRQ 0
[    0.193944] ACPI: PCI: Interrupt link LNKH configured for IRQ 0
[    0.194262] iommu: Default domain type: Translated 
[    0.194262] iommu: DMA domain TLB invalidation policy: lazy mode 
[    0.194262] SCSI subsystem initialized
[    0.194262] libata version 3.00 loaded.
[    0.194262] ACPI: bus type USB registered
[    0.194262] usbcore: registered new interface driver usbfs
[    0.194262] usbcore: registered new interface driver hub
[    0.194262] usbcore: registered new device driver usb
[    0.194262] EDAC MC: Ver: 3.0.0
[    0.194262] Registered efivars operations
[    0.197343] NetLabel: Initializing
[    0.197344] NetLabel:  domain hash size = 128
[    0.197344] NetLabel:  protocols = UNLABELED CIPSOv4 CALIPSO
[    0.197355] NetLabel:  unlabeled traffic allowed by default
[    0.197364] mctp: management component transport protocol core
[    0.197364] NET: Registered PF_MCTP protocol family
[    0.197364] PCI: Using ACPI for IRQ routing
[    0.197712] PCI: pci_cache_line_size set to 64 bytes
[    0.197783] e820: reserve RAM buffer [mem 0x09d82000-0x0bffffff]
[    0.197784] e820: reserve RAM buffer [mem 0x0a200000-0x0bffffff]
[    0.197785] e820: reserve RAM buffer [mem 0x0b000000-0x0bffffff]
[    0.197786] e820: reserve RAM buffer [mem 0xd7f21000-0xd7ffffff]
[    0.197786] e820: reserve RAM buffer [mem 0xd7fbc000-0xd7ffffff]
[    0.197787] e820: reserve RAM buffer [mem 0xdb5c3000-0xdbffffff]
[    0.197788] e820: reserve RAM buffer [mem 0xdbbb2000-0xdbffffff]
[    0.197788] e820: reserve RAM buffer [mem 0xdf000000-0xdfffffff]
[    0.197789] e820: reserve RAM buffer [mem 0x81f380000-0x81fffffff]
[    0.197807] pci 0000:26:00.0: vgaarb: setting as boot VGA device
[    0.197807] pci 0000:26:00.0: vgaarb: bridge control possible
[    0.197807] pci 0000:26:00.0: vgaarb: VGA device added: decodes=io+mem,owns=none,locks=none
[    0.197807] vgaarb: loaded
[    0.197807] hpet0: at MMIO 0xfed00000, IRQs 2, 8, 0
[    0.197807] hpet0: 3 comparators, 32-bit 14.318180 MHz counter
[    0.200005] clocksource: Switched to clocksource tsc-early
[    0.200021] VFS: Disk quotas dquot_6.6.0
[    0.200021] VFS: Dquot-cache hash table entries: 512 (order 0, 4096 bytes)
[    0.200166] AppArmor: AppArmor Filesystem Enabled
[    0.200180] pnp: PnP ACPI init
[    0.200224] system 00:00: [mem 0xf8000000-0xfbffffff] has been reserved
[    0.200269] system 00:01: [mem 0xfd000000-0xfd0fffff] has been reserved
[    0.200389] system 00:03: [io  0x0a00-0x0a0f] has been reserved
[    0.200391] system 00:03: [io  0x0a10-0x0a1f] has been reserved
[    0.200392] system 00:03: [io  0x0a20-0x0a2f] has been reserved
[    0.200393] system 00:03: [io  0x0a30-0x0a3f] has been reserved
[    0.200530] pnp 00:04: [dma 0 disabled]
[    0.200654] system 00:05: [io  0x04d0-0x04d1] has been reserved
[    0.200656] system 00:05: [io  0x040b] has been reserved
[    0.200657] system 00:05: [io  0x04d6] has been reserved
[    0.200657] system 00:05: [io  0x0c00-0x0c01] has been reserved
[    0.200658] system 00:05: [io  0x0c14] has been reserved
[    0.200659] system 00:05: [io  0x0c50-0x0c51] has been reserved
[    0.200660] system 00:05: [io  0x0c52] has been reserved
[    0.200661] system 00:05: [io  0x0c6c] has been reserved
[    0.200662] system 00:05: [io  0x0c6f] has been reserved
[    0.200663] system 00:05: [io  0x0cd0-0x0cd1] has been reserved
[    0.200664] system 00:05: [io  0x0cd2-0x0cd3] has been reserved
[    0.200665] system 00:05: [io  0x0cd4-0x0cd5] has been reserved
[    0.200666] system 00:05: [io  0x0cd6-0x0cd7] has been reserved
[    0.200667] system 00:05: [io  0x0cd8-0x0cdf] has been reserved
[    0.200668] system 00:05: [io  0x0800-0x089f] has been reserved
[    0.200669] system 00:05: [io  0x0b00-0x0b0f] has been reserved
[    0.200670] system 00:05: [io  0x0b20-0x0b3f] has been reserved
[    0.200671] system 00:05: [io  0x0900-0x090f] has been reserved
[    0.200672] system 00:05: [io  0x0910-0x091f] has been reserved
[    0.200673] system 00:05: [mem 0xfec00000-0xfec00fff] could not be reserved
[    0.200674] system 00:05: [mem 0xfec01000-0xfec01fff] could not be reserved
[    0.200676] system 00:05: [mem 0xfedc0000-0xfedc0fff] has been reserved
[    0.200677] system 00:05: [mem 0xfee00000-0xfee00fff] has been reserved
[    0.200678] system 00:05: [mem 0xfed80000-0xfed8ffff] could not be reserved
[    0.200679] system 00:05: [mem 0xfec10000-0xfec10fff] has been reserved
[    0.200680] system 00:05: [mem 0xff000000-0xffffffff] has been reserved
[    0.200883] pnp: PnP ACPI: found 6 devices
[    0.206275] clocksource: acpi_pm: mask: 0xffffff max_cycles: 0xffffff, max_idle_ns: 2085701024 ns
[    0.206323] NET: Registered PF_INET protocol family
[    0.206486] IP idents hash table entries: 262144 (order: 9, 2097152 bytes, linear)
[    0.208497] tcp_listen_portaddr_hash hash table entries: 16384 (order: 6, 262144 bytes, linear)
[    0.208532] Table-perturb hash table entries: 65536 (order: 6, 262144 bytes, linear)
[    0.208689] TCP established hash table entries: 262144 (order: 9, 2097152 bytes, linear)
[    0.209087] TCP bind hash table entries: 65536 (order: 9, 2097152 bytes, linear)
[    0.209179] TCP: Hash tables configured (established 262144 bind 65536)
[    0.209299] MPTCP token hash table entries: 32768 (order: 7, 786432 bytes, linear)
[    0.209368] UDP hash table entries: 16384 (order: 7, 524288 bytes, linear)
[    0.209444] UDP-Lite hash table entries: 16384 (order: 7, 524288 bytes, linear)
[    0.209509] NET: Registered PF_UNIX/PF_LOCAL protocol family
[    0.209512] NET: Registered PF_XDP protocol family
[    0.209531] pci 0000:00:01.1: PCI bridge to [bus 01]
[    0.209536] pci 0000:00:01.1:   bridge window [mem 0xf7900000-0xf79fffff]
[    0.209542] pci 0000:20:00.0: PCI bridge to [bus 21]
[    0.209553] pci 0000:20:01.0: PCI bridge to [bus 22]
[    0.209556] pci 0000:20:01.0:   bridge window [io  0xf000-0xffff]
[    0.209560] pci 0000:20:01.0:   bridge window [mem 0xf7500000-0xf75fffff]
[    0.209567] pci 0000:20:04.0: PCI bridge to [bus 25]
[    0.209579] pci 0000:03:00.2: PCI bridge to [bus 20-25]
[    0.209580] pci 0000:03:00.2:   bridge window [io  0xf000-0xffff]
[    0.209584] pci 0000:03:00.2:   bridge window [mem 0xf7500000-0xf75fffff]
[    0.209592] pci 0000:00:01.3: PCI bridge to [bus 03-25]
[    0.209593] pci 0000:00:01.3:   bridge window [io  0xf000-0xffff]
[    0.209596] pci 0000:00:01.3:   bridge window [mem 0xf7500000-0xf76fffff]
[    0.209602] pci 0000:00:03.2: PCI bridge to [bus 26]
[    0.209603] pci 0000:00:03.2:   bridge window [io  0xe000-0xefff]
[    0.209606] pci 0000:00:03.2:   bridge window [mem 0xf6000000-0xf70fffff]
[    0.209608] pci 0000:00:03.2:   bridge window [mem 0xe0000000-0xf20fffff 64bit pref]
[    0.209612] pci 0000:00:07.1: PCI bridge to [bus 27]
[    0.209619] pci 0000:00:08.1: PCI bridge to [bus 28]
[    0.209621] pci 0000:00:08.1:   bridge window [mem 0xf7200000-0xf74fffff]
[    0.209626] pci 0000:00:08.2: PCI bridge to [bus 30]
[    0.209628] pci 0000:00:08.2:   bridge window [mem 0xf7800000-0xf78fffff]
[    0.209633] pci 0000:00:08.3: PCI bridge to [bus 31]
[    0.209636] pci 0000:00:08.3:   bridge window [mem 0xf7700000-0xf77fffff]
[    0.209641] pci_bus 0000:00: resource 4 [io  0x0000-0x03af window]
[    0.209642] pci_bus 0000:00: resource 5 [io  0x03e0-0x0cf7 window]
[    0.209643] pci_bus 0000:00: resource 6 [io  0x03b0-0x03df window]
[    0.209644] pci_bus 0000:00: resource 7 [io  0x0d00-0xffff window]
[    0.209645] pci_bus 0000:00: resource 8 [mem 0x000a0000-0x000dffff window]
[    0.209646] pci_bus 0000:00: resource 9 [mem 0xe0000000-0xfec2ffff window]
[    0.209647] pci_bus 0000:00: resource 10 [mem 0xfee00000-0xffffffff window]
[    0.209648] pci_bus 0000:01: resource 1 [mem 0xf7900000-0xf79fffff]
[    0.209649] pci_bus 0000:03: resource 0 [io  0xf000-0xffff]
[    0.209650] pci_bus 0000:03: resource 1 [mem 0xf7500000-0xf76fffff]
[    0.209651] pci_bus 0000:20: resource 0 [io  0xf000-0xffff]
[    0.209652] pci_bus 0000:20: resource 1 [mem 0xf7500000-0xf75fffff]
[    0.209653] pci_bus 0000:22: resource 0 [io  0xf000-0xffff]
[    0.209654] pci_bus 0000:22: resource 1 [mem 0xf7500000-0xf75fffff]
[    0.209655] pci_bus 0000:26: resource 0 [io  0xe000-0xefff]
[    0.209656] pci_bus 0000:26: resource 1 [mem 0xf6000000-0xf70fffff]
[    0.209656] pci_bus 0000:26: resource 2 [mem 0xe0000000-0xf20fffff 64bit pref]
[    0.209658] pci_bus 0000:28: resource 1 [mem 0xf7200000-0xf74fffff]
[    0.209658] pci_bus 0000:30: resource 1 [mem 0xf7800000-0xf78fffff]
[    0.209659] pci_bus 0000:31: resource 1 [mem 0xf7700000-0xf77fffff]
[    0.209861] pci 0000:26:00.1: D0 power state depends on 0000:26:00.0
[    0.209917] pci 0000:26:00.2: D0 power state depends on 0000:26:00.0
[    0.210051] pci 0000:26:00.3: D0 power state depends on 0000:26:00.0
[    0.210188] PCI: CLS 64 bytes, default 64
[    0.210196] pci 0000:00:00.2: AMD-Vi: IOMMU performance counters supported
[    0.210228] pci 0000:00:01.0: Adding to iommu group 0
[    0.210231] Trying to unpack rootfs image as initramfs...
[    0.210236] pci 0000:00:01.1: Adding to iommu group 1
[    0.210243] pci 0000:00:01.3: Adding to iommu group 2
[    0.210252] pci 0000:00:02.0: Adding to iommu group 3
[    0.210261] pci 0000:00:03.0: Adding to iommu group 4
[    0.210268] pci 0000:00:03.2: Adding to iommu group 5
[    0.210276] pci 0000:00:04.0: Adding to iommu group 6
[    0.210285] pci 0000:00:05.0: Adding to iommu group 7
[    0.210295] pci 0000:00:07.0: Adding to iommu group 8
[    0.210301] pci 0000:00:07.1: Adding to iommu group 8
[    0.210316] pci 0000:00:08.0: Adding to iommu group 9
[    0.210322] pci 0000:00:08.1: Adding to iommu group 9
[    0.210328] pci 0000:00:08.2: Adding to iommu group 9
[    0.210333] pci 0000:00:08.3: Adding to iommu group 9
[    0.210344] pci 0000:00:14.0: Adding to iommu group 10
[    0.210350] pci 0000:00:14.3: Adding to iommu group 10
[    0.210375] pci 0000:00:18.0: Adding to iommu group 11
[    0.210381] pci 0000:00:18.1: Adding to iommu group 11
[    0.210388] pci 0000:00:18.2: Adding to iommu group 11
[    0.210394] pci 0000:00:18.3: Adding to iommu group 11
[    0.210400] pci 0000:00:18.4: Adding to iommu group 11
[    0.210406] pci 0000:00:18.5: Adding to iommu group 11
[    0.210412] pci 0000:00:18.6: Adding to iommu group 11
[    0.210417] pci 0000:00:18.7: Adding to iommu group 11
[    0.210425] pci 0000:01:00.0: Adding to iommu group 12
[    0.210439] pci 0000:03:00.0: Adding to iommu group 13
[    0.210447] pci 0000:03:00.1: Adding to iommu group 13
[    0.210454] pci 0000:03:00.2: Adding to iommu group 13
[    0.210458] pci 0000:20:00.0: Adding to iommu group 13
[    0.210461] pci 0000:20:01.0: Adding to iommu group 13
[    0.210463] pci 0000:20:04.0: Adding to iommu group 13
[    0.210467] pci 0000:22:00.0: Adding to iommu group 13
[    0.210483] pci 0000:26:00.0: Adding to iommu group 14
[    0.210491] pci 0000:26:00.1: Adding to iommu group 14
[    0.210499] pci 0000:26:00.2: Adding to iommu group 14
[    0.210506] pci 0000:26:00.3: Adding to iommu group 14
[    0.210509] pci 0000:27:00.0: Adding to iommu group 8
[    0.210513] pci 0000:28:00.0: Adding to iommu group 9
[    0.210516] pci 0000:28:00.1: Adding to iommu group 9
[    0.210519] pci 0000:28:00.3: Adding to iommu group 9
[    0.210523] pci 0000:28:00.4: Adding to iommu group 9
[    0.210526] pci 0000:30:00.0: Adding to iommu group 9
[    0.210529] pci 0000:31:00.0: Adding to iommu group 9
[    0.211863] pci 0000:00:00.2: AMD-Vi: Found IOMMU cap 0x40
[    0.211865] AMD-Vi: Extended features (0x58f77ef22294ade, 0x0): PPR X2APIC NX GT IA GA PC GA_vAPIC
[    0.211869] AMD-Vi: Interrupt remapping enabled
[    0.211869] AMD-Vi: X2APIC enabled
[    0.211878] AMD-Vi: Virtual APIC enabled
[    0.211941] PCI-DMA: Using software bounce buffering for IO (SWIOTLB)
[    0.211943] software IO TLB: mapped [mem 0x00000000d2c3f000-0x00000000d6c3f000] (64MB)
[    0.212094] RAPL PMU: API unit is 2^-32 Joules, 1 fixed counters, 163840 ms ovfl timer
[    0.212096] RAPL PMU: hw unit of domain package 2^-16 Joules
[    0.212098] LVT offset 0 assigned for vector 0x400
[    0.212202] perf: AMD IBS detected (0x000003ff)
[    0.212208] perf/amd_iommu: Detected AMD IOMMU #0 (2 banks, 4 counters/bank).
[    0.212637] Initialise system trusted keyrings
[    0.212666] workingset: timestamp_bits=40 max_order=23 bucket_order=0
[    0.212675] zbud: loaded
[    0.212957] Allocating IMA blacklist keyring.
[    0.215769] Key type asymmetric registered
[    0.215771] Asymmetric key parser 'x509' registered
[    0.215784] Block layer SCSI generic (bsg) driver version 0.4 loaded (major 247)
[    0.215813] io scheduler mq-deadline registered
[    0.219850] pcieport 0000:00:01.1: AER: enabled with IRQ 26
[    0.220011] pcieport 0000:00:01.3: AER: enabled with IRQ 27
[    0.220158] pcieport 0000:00:03.2: AER: enabled with IRQ 28
[    0.221116] shpchp: Standard Hot Plug PCI Controller Driver version: 0.4
[    0.221196] input: Power Button as /devices/LNXSYSTM:00/LNXSYBUS:00/PNP0C0C:00/input/input0
[    0.221212] ACPI: button: Power Button [PWRB]
[    0.221246] input: Power Button as /devices/LNXSYSTM:00/LNXPWRBN:00/input/input1
[    0.221273] ACPI: button: Power Button [PWRF]
[    0.222696] Estimated ratio of average max frequency by base frequency (times 1024): 1141
[    0.222705] Monitor-Mwait will be used to enter C-1 state
[    0.222708] ACPI: \_PR_.C000: Found 2 idle states
[    0.222819] ACPI: \_PR_.C002: Found 2 idle states
[    0.222893] ACPI: \_PR_.C004: Found 2 idle states
[    0.222981] ACPI: \_PR_.C006: Found 2 idle states
[    0.223077] ACPI: \_PR_.C008: Found 2 idle states
[    0.223182] ACPI: \_PR_.C00A: Found 2 idle states
[    0.223282] ACPI: \_PR_.C00C: Found 2 idle states
[    0.223382] ACPI: \_PR_.C00E: Found 2 idle states
[    0.223477] ACPI: \_PR_.C001: Found 2 idle states
[    0.223714] ACPI: \_PR_.C003: Found 2 idle states
[    0.223785] ACPI: \_PR_.C005: Found 2 idle states
[    0.223881] ACPI: \_PR_.C007: Found 2 idle states
[    0.223981] ACPI: \_PR_.C009: Found 2 idle states
[    0.224090] ACPI: \_PR_.C00B: Found 2 idle states
[    0.224190] ACPI: \_PR_.C00D: Found 2 idle states
[    0.224297] ACPI: \_PR_.C00F: Found 2 idle states
[    0.224468] Serial: 8250/16550 driver, 32 ports, IRQ sharing enabled
[    0.224530] 00:04: ttyS0 at I/O 0x3f8 (irq = 4, base_baud = 115200) is a 16550A
[    0.225971] Linux agpgart interface v0.103
[    0.228587] brd: module loaded
[    0.229791] loop: module loaded
[    0.230001] nvme nvme0: pci function 0000:01:00.0
[    0.230038] tun: Universal TUN/TAP device driver, 1.6
[    0.230060] PPP generic driver version 2.4.2
[    0.230162] i8042: PNP: No PS/2 controller found.
[    0.230226] mousedev: PS/2 mouse device common for all mice
[    0.230278] xhci_hcd 0000:03:00.0: xHCI Host Controller
[    0.230285] xhci_hcd 0000:03:00.0: new USB bus registered, assigned bus number 1
[    0.230289] rtc_cmos 00:02: RTC can wake from S4
[    0.230341] xhci_hcd 0000:28:00.3: xHCI Host Controller
[    0.230346] xhci_hcd 0000:28:00.3: new USB bus registered, assigned bus number 2
[    0.230347] xhci_hcd 0000:26:00.2: xHCI Host Controller
[    0.230352] xhci_hcd 0000:26:00.2: new USB bus registered, assigned bus number 3
[    0.230526] xhci_hcd 0000:28:00.3: hcc params 0x0278ffe5 hci version 0x110 quirks 0x0000000000000410
[    0.230624] rtc_cmos 00:02: registered as rtc0
[    0.230681] rtc_cmos 00:02: setting system clock to 2023-04-08T13:21:42 UTC (1680960102)
[    0.230713] rtc_cmos 00:02: alarms up to one month, y3k, 114 bytes nvram, hpet irqs
[    0.230719] i2c_dev: i2c /dev entries driver
[    0.230735] device-mapper: uevent: version 1.0.3
[    0.230773] device-mapper: ioctl: 4.47.0-ioctl (2022-07-28) initialised: dm-devel@redhat.com
[    0.230925] xhci_hcd 0000:28:00.3: xHCI Host Controller
[    0.230927] xhci_hcd 0000:28:00.3: new USB bus registered, assigned bus number 4
[    0.230929] xhci_hcd 0000:28:00.3: Host supports USB 3.1 Enhanced SuperSpeed
[    0.230962] xhci_hcd 0000:26:00.2: hcc params 0x0180ff05 hci version 0x110 quirks 0x0000000000000010
[    0.230963] usb usb2: New USB device found, idVendor=1d6b, idProduct=0002, bcdDevice= 6.02
[    0.230965] usb usb2: New USB device strings: Mfr=3, Product=2, SerialNumber=1
[    0.230967] usb usb2: Product: xHCI Host Controller
[    0.230968] usb usb2: Manufacturer: Linux 6.2.10 xhci-hcd
[    0.230969] usb usb2: SerialNumber: 0000:28:00.3
[    0.231046] hub 2-0:1.0: USB hub found
[    0.231053] hub 2-0:1.0: 4 ports detected
[    0.231132] xhci_hcd 0000:26:00.2: xHCI Host Controller
[    0.231171] xhci_hcd 0000:26:00.2: new USB bus registered, assigned bus number 5
[    0.231172] xhci_hcd 0000:26:00.2: Host supports USB 3.1 Enhanced SuperSpeed
[    0.231177] usb usb4: We don't know the algorithms for LPM for this host, disabling LPM.
[    0.231191] usb usb4: New USB device found, idVendor=1d6b, idProduct=0003, bcdDevice= 6.02
[    0.231193] usb usb4: New USB device strings: Mfr=3, Product=2, SerialNumber=1
[    0.231194] usb usb4: Product: xHCI Host Controller
[    0.231195] usb usb4: Manufacturer: Linux 6.2.10 xhci-hcd
[    0.231196] usb usb4: SerialNumber: 0000:28:00.3
[    0.231262] hub 4-0:1.0: USB hub found
[    0.231268] hub 4-0:1.0: 4 ports detected
[    0.231414] usb usb3: New USB device found, idVendor=1d6b, idProduct=0002, bcdDevice= 6.02
[    0.231417] usb usb3: New USB device strings: Mfr=3, Product=2, SerialNumber=1
[    0.231419] usb usb3: Product: xHCI Host Controller
[    0.231420] usb usb3: Manufacturer: Linux 6.2.10 xhci-hcd
[    0.231421] usb usb3: SerialNumber: 0000:26:00.2
[    0.231485] hub 3-0:1.0: USB hub found
[    0.231490] hub 3-0:1.0: 2 ports detected
[    0.231548] usb usb5: We don't know the algorithms for LPM for this host, disabling LPM.
[    0.231559] usb usb5: New USB device found, idVendor=1d6b, idProduct=0003, bcdDevice= 6.02
[    0.231560] usb usb5: New USB device strings: Mfr=3, Product=2, SerialNumber=1
[    0.231561] usb usb5: Product: xHCI Host Controller
[    0.231562] usb usb5: Manufacturer: Linux 6.2.10 xhci-hcd
[    0.231563] usb usb5: SerialNumber: 0000:26:00.2
[    0.231613] hub 5-0:1.0: USB hub found
[    0.231620] hub 5-0:1.0: 4 ports detected
[    0.285621] xhci_hcd 0000:03:00.0: hcc params 0x0200ef81 hci version 0x110 quirks 0x0000000000000410
[    0.285701] ledtrig-cpu: registered to indicate activity on CPUs
[    0.285750] efifb: probing for efifb
[    0.285772] efifb: framebuffer at 0xe0000000, using 3072k, total 3072k
[    0.285774] efifb: mode is 1024x768x32, linelength=4096, pages=1
[    0.285775] efifb: scrolling: redraw
[    0.285776] efifb: Truecolor: size=8:8:8:8, shift=24:16:8:0
[    0.285783] xhci_hcd 0000:03:00.0: xHCI Host Controller
[    0.285785] xhci_hcd 0000:03:00.0: new USB bus registered, assigned bus number 6
[    0.285789] xhci_hcd 0000:03:00.0: Host supports USB 3.1 Enhanced SuperSpeed
[    0.285838] usb usb1: New USB device found, idVendor=1d6b, idProduct=0002, bcdDevice= 6.02
[    0.285840] usb usb1: New USB device strings: Mfr=3, Product=2, SerialNumber=1
[    0.285841] usb usb1: Product: xHCI Host Controller
[    0.285841] usb usb1: Manufacturer: Linux 6.2.10 xhci-hcd
[    0.285842] usb usb1: SerialNumber: 0000:03:00.0
[    0.285889] Console: switching to colour frame buffer device 128x48
[    0.285939] hub 1-0:1.0: USB hub found
[    0.285966] hub 1-0:1.0: 10 ports detected
[    0.286331] usb usb6: We don't know the algorithms for LPM for this host, disabling LPM.
[    0.286341] usb usb6: New USB device found, idVendor=1d6b, idProduct=0003, bcdDevice= 6.02
[    0.286343] usb usb6: New USB device strings: Mfr=3, Product=2, SerialNumber=1
[    0.286343] usb usb6: Product: xHCI Host Controller
[    0.286344] usb usb6: Manufacturer: Linux 6.2.10 xhci-hcd
[    0.286345] usb usb6: SerialNumber: 0000:03:00.0
[    0.286457] nvme nvme0: missing or invalid SUBNQN field.
[    0.286458] hub 6-0:1.0: USB hub found
[    0.286471] hub 6-0:1.0: 4 ports detected
[    0.286544] nvme nvme0: Shutdown timeout set to 8 seconds
[    0.287976] fb0: EFI VGA frame buffer device
[    0.288205] NET: Registered PF_INET6 protocol family
[    0.288469] Segment Routing with IPv6
[    0.288475] In-situ OAM (IOAM) with IPv6
[    0.288491] NET: Registered PF_PACKET protocol family
[    0.288544] Key type dns_resolver registered
[    0.289286] microcode: CPU2: patch_level=0x08701013
[    0.289289] microcode: CPU5: patch_level=0x08701013
[    0.289293] microcode: CPU10: patch_level=0x08701013
[    0.289295] microcode: CPU1: patch_level=0x08701013
[    0.289295] microcode: CPU9: patch_level=0x08701013
[    0.289295] microcode: CPU0: patch_level=0x08701013
[    0.289296] microcode: CPU13: patch_level=0x08701013
[    0.289298] microcode: CPU3: patch_level=0x08701013
[    0.289298] microcode: CPU11: patch_level=0x08701013
[    0.289299] microcode: CPU4: patch_level=0x08701013
[    0.289299] microcode: CPU12: patch_level=0x08701013
[    0.289301] microcode: CPU14: patch_level=0x08701013
[    0.289302] microcode: CPU15: patch_level=0x08701013
[    0.289302] microcode: CPU7: patch_level=0x08701013
[    0.289309] microcode: CPU8: patch_level=0x08701013
[    0.289345] microcode: CPU6: patch_level=0x08701013
[    0.289356] microcode: Microcode Update Driver: v2.2.
[    0.289360] IPI shorthand broadcast: enabled
[    0.290558] sched_clock: Marking stable (313347720, -23995900)->(294771986, -5420166)
[    0.290881] registered taskstats version 1
[    0.290931] Loading compiled-in X.509 certificates
[    0.291341] zswap: loaded using pool lzo/zbud
[    0.302931] nvme nvme0: 16/0/0 default/read/poll queues
[    0.306874]  nvme0n1: p1 p2 p3
[    0.363829] Freeing initrd memory: 14340K
[    0.364072] Key type encrypted registered
[    0.364078] AppArmor: AppArmor sha1 policy hashing enabled
[    0.364084] ima: No TPM chip found, activating TPM-bypass!
[    0.364089] ima: Allocated hash algorithm: sha1
[    0.364097] ima: No architecture policies found
[    0.364108] evm: Initialising EVM extended attributes:
[    0.364108] evm: security.selinux
[    0.364110] evm: security.SMACK64
[    0.364110] evm: security.SMACK64EXEC
[    0.364111] evm: security.SMACK64TRANSMUTE
[    0.364111] evm: security.SMACK64MMAP
[    0.364112] evm: security.apparmor
[    0.364112] evm: security.ima
[    0.364113] evm: security.capability
[    0.364114] evm: HMAC attrs: 0x1
[    0.364388] PM:   Magic number: 3:788:381
[    0.364396] usb usb6-port1: hash matches
[    0.364652] acpi_cpufreq: overriding BIOS provided _PSD data
[    0.429934] Freeing unused kernel image (initmem) memory: 3964K
[    0.429938] Write protecting the kernel read-only data: 26624k
[    0.430407] Freeing unused kernel image (rodata/data gap) memory: 1828K
[    0.430415] Run /init as init process
[    0.430416]   with arguments:
[    0.430417]     /init
[    0.430418]   with environment:
[    0.430419]     HOME=/
[    0.430420]     TERM=linux
[    0.430421]     BOOT_IMAGE=/gnu/store/nm7gpkdcfi5v2x3ygpch6frq71vfbjig-linux-6.2.10/bzImage
[    0.463778] ahci 0000:03:00.1: version 3.0
[    0.463908] ahci 0000:03:00.1: SSS flag set, parallel bus scan disabled
[    0.463949] ahci 0000:03:00.1: AHCI 0001.0301 32 slots 8 ports 6 Gbps 0x33 impl SATA mode
[    0.463951] ahci 0000:03:00.1: flags: 64bit ncq sntf stag pm led clo only pmp pio slum part sxs deso sadm sds apst 
[    0.464303] scsi host0: ahci
[    0.464386] scsi host1: ahci
[    0.464447] scsi host2: ahci
[    0.464498] scsi host3: ahci
[    0.464554] scsi host4: ahci
[    0.464607] scsi host5: ahci
[    0.464657] scsi host6: ahci
[    0.464707] scsi host7: ahci
[    0.464727] ata1: SATA max UDMA/133 abar m131072@0xf7680000 port 0xf7680100 irq 69
[    0.464729] ata2: SATA max UDMA/133 abar m131072@0xf7680000 port 0xf7680180 irq 69
[    0.464730] ata3: DUMMY
[    0.464730] ata4: DUMMY
[    0.464732] ata5: SATA max UDMA/133 abar m131072@0xf7680000 port 0xf7680300 irq 69
[    0.464734] ata6: SATA max UDMA/133 abar m131072@0xf7680000 port 0xf7680380 irq 69
[    0.464734] ata7: DUMMY
[    0.464735] ata8: DUMMY
[    0.464845] ahci 0000:30:00.0: AHCI 0001.0301 32 slots 1 ports 6 Gbps 0x1 impl SATA mode
[    0.464847] ahci 0000:30:00.0: flags: 64bit ncq sntf ilck pm led clo only pmp fbs pio slum part 
[    0.464943] scsi host8: ahci
[    0.464964] ata9: SATA max UDMA/133 abar m2048@0xf7800000 port 0xf7800100 irq 71
[    0.465058] ahci 0000:31:00.0: AHCI 0001.0301 32 slots 1 ports 6 Gbps 0x1 impl SATA mode
[    0.465060] ahci 0000:31:00.0: flags: 64bit ncq sntf ilck pm led clo only pmp fbs pio slum part 
[    0.465158] scsi host9: ahci
[    0.465179] ata10: SATA max UDMA/133 abar m2048@0xf7700000 port 0xf7700100 irq 73
[    0.488114] usb 2-1: new high-speed USB device number 2 using xhci_hcd
[    0.641641] usb 2-1: New USB device found, idVendor=05e3, idProduct=0610, bcdDevice= 6.54
[    0.641644] usb 2-1: New USB device strings: Mfr=1, Product=2, SerialNumber=0
[    0.641645] usb 2-1: Product: USB2.1 Hub
[    0.641647] usb 2-1: Manufacturer: GenesysLogic
[    0.679402] hub 2-1:1.0: USB hub found
[    0.680111] hub 2-1:1.0: 4 ports detected
[    0.780647] ata10: SATA link down (SStatus 0 SControl 300)
[    0.781599] ata9: SATA link down (SStatus 0 SControl 300)
[    0.949120] ata1: SATA link up 6.0 Gbps (SStatus 133 SControl 300)
[    0.949859] ata1.00: ATA-10: WDC WD10EZEX-08WN4A0, 02.01A02, max UDMA/100
[    0.951202] ata1.00: 1953525168 sectors, multi 16: LBA48 NCQ (depth 32), AA
[    0.951206] ata1.00: Features: NCQ-prio
[    0.953420] ata1.00: configured for UDMA/100
[    0.953581] scsi 0:0:0:0: Direct-Access     ATA      WDC WD10EZEX-08W 1A02 PQ: 0 ANSI: 5
[    0.953858] sd 0:0:0:0: Attached scsi generic sg0 type 0
[    0.953972] sd 0:0:0:0: [sda] 1953525168 512-byte logical blocks: (1.00 TB/932 GiB)
[    0.953975] sd 0:0:0:0: [sda] 4096-byte physical blocks
[    0.953986] sd 0:0:0:0: [sda] Write Protect is off
[    0.953987] sd 0:0:0:0: [sda] Mode Sense: 00 3a 00 00
[    0.953996] sd 0:0:0:0: [sda] Write cache: enabled, read cache: enabled, doesn't support DPO or FUA
[    0.954006] sd 0:0:0:0: [sda] Preferred minimum I/O size 4096 bytes
[    0.998210] sd 0:0:0:0: [sda] Attached SCSI disk
[    1.001591] usb 2-1.1: new full-speed USB device number 3 using xhci_hcd
[    1.144180] usb 2-1.1: New USB device found, idVendor=2516, idProduct=009f, bcdDevice= 1.10
[    1.144186] usb 2-1.1: New USB device strings: Mfr=3, Product=1, SerialNumber=0
[    1.144187] usb 2-1.1: Product: CK530
[    1.144189] usb 2-1.1: Manufacturer: Cooler Master Technology Inc.
[    1.220616] tsc: Refined TSC clocksource calibration: 3599.997 MHz
[    1.220628] clocksource: tsc: mask: 0xffffffffffffffff max_cycles: 0x33e4505a81e, max_idle_ns: 440795320847 ns
[    1.220674] clocksource: Switched to clocksource tsc
[    1.267466] ata2: SATA link down (SStatus 0 SControl 300)
[    1.396532] usb 2-1.2: new low-speed USB device number 4 using xhci_hcd
[    1.537254] usb 2-1.2: New USB device found, idVendor=046d, idProduct=c077, bcdDevice=72.00
[    1.537262] usb 2-1.2: New USB device strings: Mfr=1, Product=2, SerialNumber=0
[    1.537264] usb 2-1.2: Product: USB Optical Mouse
[    1.537266] usb 2-1.2: Manufacturer: Logitech
[    1.584694] ata5: SATA link down (SStatus 0 SControl 330)
[    1.898603] ata6: SATA link down (SStatus 0 SControl 330)
[    1.901352] usbcore: registered new interface driver usb-storage
[    1.903735] usbcore: registered new interface driver uas
[    1.911849] hid: raw HID events driver (C) Jiri Kosina
[    1.928162] usbcore: registered new interface driver usbhid
[    1.928165] usbhid: USB HID core driver
[    1.929224] input: Cooler Master Technology Inc. CK530 as /devices/pci0000:00/0000:00:08.1/0000:28:00.3/usb2/2-1/2-1.1/2-1.1:1.0/0003:2516:009F.0001/input/input2
[    1.988695] hid-generic 0003:2516:009F.0001: input,hidraw0: USB HID v1.11 Keyboard [Cooler Master Technology Inc. CK530] on usb-0000:28:00.3-1.1/input0
[    1.988856] hid-generic 0003:2516:009F.0002: hiddev0,hidraw1: USB HID v1.11 Device [Cooler Master Technology Inc. CK530] on usb-0000:28:00.3-1.1/input1
[    1.989141] input: Cooler Master Technology Inc. CK530 System Control as /devices/pci0000:00/0000:00:08.1/0000:28:00.3/usb2/2-1/2-1.1/2-1.1:1.2/0003:2516:009F.0003/input/input3
[    2.048702] input: Cooler Master Technology Inc. CK530 Consumer Control as /devices/pci0000:00/0000:00:08.1/0000:28:00.3/usb2/2-1/2-1.1/2-1.1:1.2/0003:2516:009F.0003/input/input4
[    2.048794] input: Cooler Master Technology Inc. CK530 Mouse as /devices/pci0000:00/0000:00:08.1/0000:28:00.3/usb2/2-1/2-1.1/2-1.1:1.2/0003:2516:009F.0003/input/input5
[    2.049023] input: Cooler Master Technology Inc. CK530 Keyboard as /devices/pci0000:00/0000:00:08.1/0000:28:00.3/usb2/2-1/2-1.1/2-1.1:1.2/0003:2516:009F.0003/input/input6
[    2.049115] hid-generic 0003:2516:009F.0003: input,hidraw2: USB HID v1.11 Mouse [Cooler Master Technology Inc. CK530] on usb-0000:28:00.3-1.1/input2
[    2.049233] input: Logitech USB Optical Mouse as /devices/pci0000:00/0000:00:08.1/0000:28:00.3/usb2/2-1/2-1.2/2-1.2:1.0/0003:046D:C077.0004/input/input7
[    2.049334] hid-generic 0003:046D:C077.0004: input,hidraw3: USB HID v1.11 Mouse [Logitech USB Optical Mouse] on usb-0000:28:00.3-1.2/input0
[    2.057444] isci: Intel(R) C600 SAS Controller Driver - version 1.2.0
[    2.121246] EXT4-fs (nvme0n1p3): mounted filesystem 5fdf4f83-3625-4a63-a65b-361da87376f0 with ordered data mode. Quota mode: none.
[    2.317317] shepherd[1]: Service root has been started.
[    2.382700] shepherd[1]: starting services...
[    2.383032] shepherd[1]: Service root-file-system has been started.
[    2.386279] shepherd[1]: waiting for udevd...
[    2.393074] udevd[222]: starting version 3.2.11
[    2.417054] udevd[222]: starting eudev-3.2.11
[    2.887443] udevd[222]: no sender credentials received, message ignored
[    2.937479] nvidia-gpu 0000:26:00.3: enabling device (0000 -> 0002)
[    2.937538] piix4_smbus 0000:00:14.0: SMBus Host Controller at 0xb00, revision 0
[    2.937543] piix4_smbus 0000:00:14.0: Using register 0x02 for SMBus port selection
[    2.937823] piix4_smbus 0000:00:14.0: Auxiliary SMBus Host Controller at 0xb20
[    2.938958] ccp 0000:28:00.1: enabling device (0000 -> 0002)
[    2.939364] ccp 0000:28:00.1: ccp: unable to access the device: you might be running a broken BIOS.
[    2.939366] ccp 0000:28:00.1: psp: unable to access the device: you might be running a broken BIOS.
[    2.940432] input: PC Speaker as /devices/platform/pcspkr/input/input8
[    2.940877] sp5100_tco: SP5100/SB800 TCO WatchDog Timer Driver
[    2.940957] sp5100-tco sp5100-tco: Using 0xfeb00000 for watchdog MMIO address
[    2.941124] sp5100-tco sp5100-tco: initialized. heartbeat=60 sec (nowayout=0)
[    2.943016] r8169 0000:22:00.0: enabling device (0000 -> 0003)
[    2.944669] cryptd: max_cpu_qlen set to 1000
[    2.950201] AVX2 version of gcm_enc/dec engaged.
[    2.950249] AES CTR mode by8 optimization enabled
[    2.953300] Error: Driver 'pcspkr' is already registered, aborting...
[    2.961929] snd_hda_intel 0000:26:00.1: enabling device (0000 -> 0002)
[    2.962027] snd_hda_intel 0000:26:00.1: Disabling MSI
[    2.962036] snd_hda_intel 0000:26:00.1: Handle vga_switcheroo audio client
[    2.962147] snd_hda_intel 0000:28:00.4: enabling device (0000 -> 0002)
[    2.978817] r8169 0000:22:00.0 eth0: RTL8168h/8111h, 00:d8:61:ab:1a:f1, XID 541, IRQ 79
[    2.978824] r8169 0000:22:00.0 eth0: jumbo features [frames: 9194 bytes, tx checksumming: ko]
[    3.026992] r8169 0000:22:00.0 enp34s0: renamed from eth0
[    3.055918] SVM: TSC scaling supported
[    3.055922] kvm: Nested Virtualization enabled
[    3.055923] SVM: kvm: Nested Paging enabled
[    3.055924] SEV supported: 509 ASIDs
[    3.055937] SVM: Virtual VMLOAD VMSAVE supported
[    3.055938] SVM: Virtual GIF supported
[    3.055938] SVM: LBR virtualization supported
[    3.056760] snd_hda_codec_realtek hdaudioC1D0: autoconfig for ALC892: line_outs=4 (0x14/0x15/0x16/0x17/0x0) type:line
[    3.056764] snd_hda_codec_realtek hdaudioC1D0:    speaker_outs=0 (0x0/0x0/0x0/0x0/0x0)
[    3.056766] snd_hda_codec_realtek hdaudioC1D0:    hp_outs=1 (0x1b/0x0/0x0/0x0/0x0)
[    3.056768] snd_hda_codec_realtek hdaudioC1D0:    mono: mono_out=0x0
[    3.056769] snd_hda_codec_realtek hdaudioC1D0:    inputs:
[    3.056770] snd_hda_codec_realtek hdaudioC1D0:      Front Mic=0x19
[    3.056772] snd_hda_codec_realtek hdaudioC1D0:      Rear Mic=0x18
[    3.056773] snd_hda_codec_realtek hdaudioC1D0:      Line=0x1a
[    3.061958] input: HDA NVidia HDMI/DP,pcm=3 as /devices/pci0000:00/0000:00:03.2/0000:26:00.1/sound/card0/input9
[    3.061998] input: HDA NVidia HDMI/DP,pcm=7 as /devices/pci0000:00/0000:00:03.2/0000:26:00.1/sound/card0/input10
[    3.062027] input: HDA NVidia HDMI/DP,pcm=8 as /devices/pci0000:00/0000:00:03.2/0000:26:00.1/sound/card0/input11
[    3.062054] input: HDA NVidia HDMI/DP,pcm=9 as /devices/pci0000:00/0000:00:03.2/0000:26:00.1/sound/card0/input12
[    3.062393] MCE: In-kernel MCE decoding enabled.
[    3.064438] pstore: Using crash dump compression: deflate
[    3.064442] pstore: Registered efi_pstore as persistent store backend
[    3.066261] intel_rapl_common: Found RAPL domain package
[    3.066264] intel_rapl_common: Found RAPL domain core
[    3.070982] input: HD-Audio Generic Front Mic as /devices/pci0000:00/0000:00:08.1/0000:28:00.4/sound/card1/input13
[    3.071013] input: HD-Audio Generic Rear Mic as /devices/pci0000:00/0000:00:08.1/0000:28:00.4/sound/card1/input14
[    3.071035] input: HD-Audio Generic Line as /devices/pci0000:00/0000:00:08.1/0000:28:00.4/sound/card1/input15
[    3.071068] input: HD-Audio Generic Line Out Front as /devices/pci0000:00/0000:00:08.1/0000:28:00.4/sound/card1/input16
[    3.071094] input: HD-Audio Generic Line Out Surround as /devices/pci0000:00/0000:00:08.1/0000:28:00.4/sound/card1/input17
[    3.071117] input: HD-Audio Generic Line Out CLFE as /devices/pci0000:00/0000:00:08.1/0000:28:00.4/sound/card1/input18
[    3.071147] input: HD-Audio Generic Line Out Side as /devices/pci0000:00/0000:00:08.1/0000:28:00.4/sound/card1/input19
[    3.071169] input: HD-Audio Generic Front Headphone as /devices/pci0000:00/0000:00:08.1/0000:28:00.4/sound/card1/input20
[    4.056009] nvidia-gpu 0000:26:00.3: i2c timeout error e0000000
[    4.056042] ucsi_ccg 1-0008: i2c_transfer failed -110
[    4.056065] ucsi_ccg 1-0008: ucsi_ccg_init failed - -110
[    4.056088] ucsi_ccg: probe of 1-0008 failed with error -110
[    4.075120] shepherd[1]: Service udev has been started.
[    4.079498] Adding 3905532k swap on /dev/nvme0n1p2.  Priority:-2 extents:1 across:3905532k SSFS
[    4.080111] shepherd[1]: Service swap-f95df01e-5e58-4d7a-945d-1e1c4db969d3 has been started.
[    4.080271] shepherd[1]: Service user-file-systems has been started.
[    4.091304] shepherd[1]: Service file-system-/boot/efi has been started.
[    4.091586] shepherd[1]: Service file-system-/dev/pts has been started.
[    4.091849] shepherd[1]: Service file-system-/sys/kernel/debug has been started.
[    4.092111] shepherd[1]: Service file-system-/dev/shm has been started.
[    4.125826] shepherd[1]: Service file-system-/sys/firmware/efi/efivars has been started.
[    4.126107] shepherd[1]: Service file-system-/gnu/store has been started.
[    4.126361] shepherd[1]: Service file-system-/run/systemd has been started.
[    4.126601] shepherd[1]: Service file-system-/run/user has been started.
[    4.126854] shepherd[1]: Service file-system-/sys/fs/cgroup has been started.
[    4.127127] shepherd[1]: Service file-system-/sys/fs/cgroup/elogind has been started.
[    4.160203] shepherd[1]: Service file-system-/sys/fs/cgroup/cpuset has been started.
[    4.160557] shepherd[1]: Service file-system-/sys/fs/cgroup/cpu has been started.
[    4.160854] shepherd[1]: Service file-system-/sys/fs/cgroup/cpuacct has been started.
[    4.180298] shepherd[1]: Service file-system-/sys/fs/cgroup/memory has been started.
[    4.180631] shepherd[1]: Service file-system-/sys/fs/cgroup/devices has been started.
[    4.180897] shepherd[1]: Service file-system-/sys/fs/cgroup/freezer has been started.
[    4.196218] shepherd[1]: Service file-system-/sys/fs/cgroup/blkio has been started.
[    4.196532] shepherd[1]: Service file-system-/sys/fs/cgroup/perf_event has been started.
[    4.196793] shepherd[1]: Service file-system-/sys/fs/cgroup/pids has been started.
[    4.197926] shepherd[1]: Service file-system-/var/cache/fontconfig has been started.
[    4.198124] shepherd[1]: Service file-system-/var/lib/gdm has been started.
[    4.198242] shepherd[1]: Service file-systems has been started.
[    4.198699] shepherd[1]: Service user-homes has been started.
[    4.199133] shepherd[1]: Service urandom-seed has been started.
[    4.199272] shepherd[1]: Service user-processes has been started.
[    4.199415] shepherd[1]: Service host-name has been started.
[    4.199625] shepherd[1]: Service user-homes has been started.
[    4.204034] shepherd[1]: 
[    4.204083] [
[    4.204121] sysctl
[    4.204159] ] 
[    4.204224] fs.protected_hardlinks = 1

[    4.204327] shepherd[1]: 
[    4.204366] [
[    4.204409] sysctl
[    4.204447] ] 
[    4.204492] fs.protected_symlinks = 1

[    4.204750] shepherd[1]: Service sysctl has been started.
[    5.206716] shepherd[1]: Service nscd has been started.
[    5.209162] shepherd[1]: Service guix-daemon has been started.
[    5.238090] shepherd[1]: Service loopback has been started.
[    5.238239] shepherd[1]: Service host-name has been started.
[    5.238418] shepherd[1]: Service virtual-terminal has been started.
[    5.239419] shepherd[1]: Service term-tty6 has been started.
[    5.239563] shepherd[1]: Service host-name has been started.
[    5.240423] shepherd[1]: Service term-tty5 has been started.
[    5.240573] shepherd[1]: Service host-name has been started.
[    5.241576] shepherd[1]: Service term-tty4 has been started.
[    5.241714] shepherd[1]: Service host-name has been started.
[    5.242656] shepherd[1]: Service term-tty3 has been started.
[    5.242798] shepherd[1]: Service host-name has been started.
[    5.243792] shepherd[1]: Service term-tty2 has been started.
[    5.243941] shepherd[1]: Service host-name has been started.
[    5.245008] shepherd[1]: Service term-tty1 has been started.
[    5.245149] shepherd[1]: Service host-name has been started.
[    8.365640] r8169 0000:22:00.0: Direct firmware load for rtl_nic/rtl8168h-2.fw failed with error -2
[    8.365644] r8169 0000:22:00.0: Unable to load firmware rtl_nic/rtl8168h-2.fw (-2)
[    8.396010] Generic FE-GE Realtek PHY r8169-0-2200:00: attached PHY driver (mii_bus:phy_addr=r8169-0-2200:00, irq=MAC)
[    8.520629] r8169 0000:22:00.0 enp34s0: Link is Down
[   12.070470] r8169 0000:22:00.0 enp34s0: Link is Up - 1Gbps/Full - flow control rx/tx
[   12.070493] IPv6: ADDRCONF(NETDEV_CHANGE): enp34s0: link becomes ready
