[    46.007] (--) Log file renamed from "/var/lib/gdm/.local/share/xorg/Xorg.pid-985.log" to "/var/lib/gdm/.local/share/xorg/Xorg.0.log"
[    46.007] 
X.Org X Server 1.21.1.4
X Protocol Version 11, Revision 0
[    46.007] Current Operating System: Linux desktop 6.2.10 #1 SMP PREEMPT_DYNAMIC 1 x86_64
[    46.007] Kernel command line: BOOT_IMAGE=/gnu/store/nm7gpkdcfi5v2x3ygpch6frq71vfbjig-linux-6.2.10/bzImage root=5fdf4f83-3625-4a63-a65b-361da87376f0 gnu.system=/gnu/store/5d4q21s338q1i9v5pgcxadv9knf4vdd0-system gnu.load=/gnu/store/5d4q21s338q1i9v5pgcxadv9knf4vdd0-system/boot modprobe.blacklist=nouveau modprobe.blacklist=usbmouse,usbkbd quiet
[    46.007]  
[    46.007] Current version of pixman: 0.40.0
[    46.007] 	Before reporting problems, check http://wiki.x.org
	to make sure that you have the latest version.
[    46.007] Markers: (--) probed, (**) from config file, (==) default setting,
	(++) from command line, (!!) notice, (II) informational,
	(WW) warning, (EE) error, (NI) not implemented, (??) unknown.
[    46.007] (==) Log file: "/var/lib/gdm/.local/share/xorg/Xorg.0.log", Time: Sat Apr  8 08:22:28 2023
[    46.007] (++) Using config file: "/gnu/store/by1l47wl779yr4czzf7rmav2ppkjckv1-xserver.conf"
[    46.007] (++) Using config directory: "/gnu/store/xx0zn095xwqlw8p35w3khkfliki85ww5-xorg.conf.d"
[    46.007] (==) Using system config directory "/gnu/store/7gscf7hxwc4qr78ih2s1anyz1pk7lx7c-xorg-server-21.1.4/share/X11/xorg.conf.d"
[    46.007] (==) No Layout section.  Using the first Screen section.
[    46.007] (==) No screen section available. Using defaults.
[    46.007] (**) |-->Screen "Default Screen Section" (0)
[    46.007] (**) |   |-->Monitor "<default monitor>"
[    46.008] (==) No monitor specified for screen "Default Screen Section".
	Using a default monitor configuration.
[    46.008] (**) Option "AllowMouseOpenFail" "on"
[    46.008] (==) Automatically adding devices
[    46.008] (==) Automatically enabling devices
[    46.008] (==) Automatically adding GPU devices
[    46.008] (==) Automatically binding GPU devices
[    46.008] (==) Max clients allowed: 256, resource mask: 0x1fffff
[    46.008] (**) FontPath set to:
	/gnu/store/mhs4wss4yi51wcb9hqg5lag6liv24bd7-font-alias-1.0.4/share/fonts/X11/75dpi,
	/gnu/store/mhs4wss4yi51wcb9hqg5lag6liv24bd7-font-alias-1.0.4/share/fonts/X11/100dpi,
	/gnu/store/mhs4wss4yi51wcb9hqg5lag6liv24bd7-font-alias-1.0.4/share/fonts/X11/misc,
	/gnu/store/mhs4wss4yi51wcb9hqg5lag6liv24bd7-font-alias-1.0.4/share/fonts/X11/cyrillic,
	/gnu/store/m4ggkiz0qrc97gyz9i2xsyvvlx0s310v-font-misc-misc-1.1.2/share/fonts/X11/misc,
	/gnu/store/yia882nfzcajv2gz5riarip820r0jn7y-font-adobe75dpi-1.0.3/share/fonts/X11/75dpi
[    46.008] (**) ModulePath set to "/gnu/store/qabg4sw93acij4sbn1r65di80ic5baaq-xf86-video-vesa-2.6.0/lib/xorg/modules/drivers,/gnu/store/nqrb2khahnziyf7jvrss3qcgbpr4hcdh-xf86-video-fbdev-0.5.0/lib/xorg/modules/drivers,/gnu/store/31bm96d0wcsb9ifn2zsca2mqbfgxr6pv-xf86-video-amdgpu-22.0.0/lib/xorg/modules/drivers,/gnu/store/vn7rqg5s5hkqxkbwwq2vnrpz2ph6x2bl-xf86-video-ati-19.1.0-1.5eba006/lib/xorg/modules/drivers,/gnu/store/zx2imsnbdwaiw5mhwm533wnk2063gapp-xf86-video-cirrus-1.6.0/lib/xorg/modules/drivers,/gnu/store/vx9ly3bzd6vhx7f4wa5iqqir44p0mmm5-xf86-video-intel-2.99.917-18.31486f4/lib/xorg/modules/drivers,/gnu/store/d2m9r1gx05h3lq49ihvmmgh502ifv2a4-xf86-video-mach64-6.9.7/lib/xorg/modules/drivers,/gnu/store/rnrpgmfm6k270s746zk7rfif3lh4c684-xf86-video-nouveau-1.0.17/lib/xorg/modules/drivers,/gnu/store/zn7xcksvxkp294nc9vldrx77ifcdxz09-xf86-video-nv-2.1.22/lib/xorg/modules/drivers,/gnu/store/6ngm1lczxixps18ms8r26xf6a0pbl1fm-xf86-video-sis-0.12.0/lib/xorg/modules/drivers,/gnu/store/6ifdphlzjk1yrj65lqzdbcxjxhwrfs8p-xf86-inp
[    46.008] (II) The server relies on udev to provide the list of input devices.
	If no devices become available, reconfigure udev or disable AutoAddDevices.
[    46.008] (II) Loader magic: 0x634dc0
[    46.008] (II) Module ABI versions:
[    46.008] 	X.Org ANSI C Emulation: 0.4
[    46.008] 	X.Org Video Driver: 25.2
[    46.008] 	X.Org XInput driver : 24.4
[    46.008] 	X.Org Server Extension : 10.0
[    46.008] (++) using VT number 7

[    46.009] (II) systemd-logind: took control of session /org/freedesktop/login1/session/c2
[    46.014] (--) PCI:*(38@0:0:0) 10de:1e84:1458:4001 rev 161, Mem @ 0xf6000000/16777216, 0xe0000000/268435456, 0xf0000000/33554432, I/O @ 0x0000e000/128, BIOS @ 0x????????/524288
[    46.014] (WW) Open ACPI failed (/var/run/acpid.socket) (No such file or directory)
[    46.014] (II) LoadModule: "glx"
[    46.014] (II) Loading /gnu/store/7gscf7hxwc4qr78ih2s1anyz1pk7lx7c-xorg-server-21.1.4/lib/xorg/modules/extensions/libglx.so
[    46.017] (II) Module glx: vendor="X.Org Foundation"
[    46.017] 	compiled for 1.21.1.4, module version = 1.0.0
[    46.017] 	ABI class: X.Org Server Extension, version 10.0
[    46.017] (==) Matched nouveau as autoconfigured driver 0
[    46.017] (==) Matched nv as autoconfigured driver 1
[    46.017] (==) Matched modesetting as autoconfigured driver 2
[    46.017] (==) Matched fbdev as autoconfigured driver 3
[    46.017] (==) Matched vesa as autoconfigured driver 4
[    46.017] (==) Assigned the driver to the xf86ConfigLayout
[    46.017] (II) LoadModule: "nouveau"
[    46.017] (II) Loading /gnu/store/rnrpgmfm6k270s746zk7rfif3lh4c684-xf86-video-nouveau-1.0.17/lib/xorg/modules/drivers/nouveau_drv.so
[    46.017] (II) Module nouveau: vendor="X.Org Foundation"
[    46.017] 	compiled for 1.21.1.4, module version = 1.0.17
[    46.017] 	Module class: X.Org Video Driver
[    46.017] 	ABI class: X.Org Video Driver, version 25.2
[    46.017] (II) LoadModule: "nv"
[    46.017] (II) Loading /gnu/store/zn7xcksvxkp294nc9vldrx77ifcdxz09-xf86-video-nv-2.1.22/lib/xorg/modules/drivers/nv_drv.so
[    46.017] (II) Module nv: vendor="X.Org Foundation"
[    46.017] 	compiled for 1.21.1.4, module version = 2.1.22
[    46.017] 	Module class: X.Org Video Driver
[    46.017] 	ABI class: X.Org Video Driver, version 25.2
[    46.017] (II) LoadModule: "modesetting"
[    46.018] (II) Loading /gnu/store/7gscf7hxwc4qr78ih2s1anyz1pk7lx7c-xorg-server-21.1.4/lib/xorg/modules/drivers/modesetting_drv.so
[    46.018] (II) Module modesetting: vendor="X.Org Foundation"
[    46.018] 	compiled for 1.21.1.4, module version = 1.21.1
[    46.018] 	Module class: X.Org Video Driver
[    46.018] 	ABI class: X.Org Video Driver, version 25.2
[    46.018] (II) LoadModule: "fbdev"
[    46.018] (II) Loading /gnu/store/nqrb2khahnziyf7jvrss3qcgbpr4hcdh-xf86-video-fbdev-0.5.0/lib/xorg/modules/drivers/fbdev_drv.so
[    46.018] (II) Module fbdev: vendor="X.Org Foundation"
[    46.018] 	compiled for 1.21.1.4, module version = 0.5.0
[    46.018] 	Module class: X.Org Video Driver
[    46.018] 	ABI class: X.Org Video Driver, version 25.2
[    46.018] (II) LoadModule: "vesa"
[    46.018] (II) Loading /gnu/store/qabg4sw93acij4sbn1r65di80ic5baaq-xf86-video-vesa-2.6.0/lib/xorg/modules/drivers/vesa_drv.so
[    46.018] (II) Module vesa: vendor="X.Org Foundation"
[    46.018] 	compiled for 1.21.1.4, module version = 2.6.0
[    46.018] 	Module class: X.Org Video Driver
[    46.018] 	ABI class: X.Org Video Driver, version 25.2
[    46.018] (II) NOUVEAU driver 
[    46.018] (II) NOUVEAU driver for NVIDIA chipset families :
[    46.018] 	RIVA TNT            (NV04)
[    46.018] 	RIVA TNT2           (NV05)
[    46.018] 	GeForce 256         (NV10)
[    46.018] 	GeForce 2           (NV11, NV15)
[    46.018] 	GeForce 4MX         (NV17, NV18)
[    46.018] 	GeForce 3           (NV20)
[    46.018] 	GeForce 4Ti         (NV25, NV28)
[    46.018] 	GeForce FX          (NV3x)
[    46.018] 	GeForce 6           (NV4x)
[    46.018] 	GeForce 7           (G7x)
[    46.018] 	GeForce 8           (G8x)
[    46.018] 	GeForce 9           (G9x)
[    46.018] 	GeForce GTX 2xx/3xx (GT2xx)
[    46.018] 	GeForce GTX 4xx/5xx (GFxxx)
[    46.018] 	GeForce GTX 6xx/7xx (GKxxx)
[    46.018] 	GeForce GTX 9xx     (GMxxx)
[    46.018] 	GeForce GTX 10xx    (GPxxx)
[    46.018] (II) NOUVEAU driver 
[    46.018] (II) NOUVEAU driver for NVIDIA chipset families :
[    46.018] 	RIVA TNT            (NV04)
[    46.019] 	RIVA TNT2           (NV05)
[    46.019] 	GeForce 256         (NV10)
[    46.019] 	GeForce 2           (NV11, NV15)
[    46.019] 	GeForce 4MX         (NV17, NV18)
[    46.019] 	GeForce 3           (NV20)
[    46.019] 	GeForce 4Ti         (NV25, NV28)
[    46.019] 	GeForce FX          (NV3x)
[    46.019] 	GeForce 6           (NV4x)
[    46.019] 	GeForce 7           (G7x)
[    46.019] 	GeForce 8           (G8x)
[    46.019] 	GeForce 9           (G9x)
[    46.019] 	GeForce GTX 2xx/3xx (GT2xx)
[    46.019] 	GeForce GTX 4xx/5xx (GFxxx)
[    46.019] 	GeForce GTX 6xx/7xx (GKxxx)
[    46.019] 	GeForce GTX 9xx     (GMxxx)
[    46.019] 	GeForce GTX 10xx    (GPxxx)
[    46.019] (II) modesetting: Driver for Modesetting Kernel Drivers: kms
[    46.019] (II) FBDEV: driver for framebuffer: fbdev
[    46.019] (II) VESA: driver for VESA chipsets: vesa
[    46.019] xf86EnableIO: failed to enable I/O ports 0000-03ff (Operation not permitted)
[    46.019] (EE) [drm] Failed to open DRM device for pci:0000:26:00.0: -19
[    46.019] (EE) [drm] Failed to open DRM device for pci:0000:26:00.0: -19
[    46.019] (EE) open /dev/dri/card0: No such file or directory
[    46.019] (WW) Falling back to old probe method for modesetting
[    46.019] (EE) open /dev/dri/card0: No such file or directory
[    46.019] (II) Loading sub module "fbdevhw"
[    46.019] (II) LoadModule: "fbdevhw"
[    46.020] (II) Loading /gnu/store/7gscf7hxwc4qr78ih2s1anyz1pk7lx7c-xorg-server-21.1.4/lib/xorg/modules/libfbdevhw.so
[    46.020] (II) Module fbdevhw: vendor="X.Org Foundation"
[    46.020] 	compiled for 1.21.1.4, module version = 0.0.2
[    46.020] 	ABI class: X.Org Video Driver, version 25.2
[    46.020] (EE) Unable to find a valid framebuffer device
[    46.020] (WW) Falling back to old probe method for fbdev
[    46.020] (II) Loading sub module "fbdevhw"
[    46.020] (II) LoadModule: "fbdevhw"
[    46.020] (II) Loading /gnu/store/7gscf7hxwc4qr78ih2s1anyz1pk7lx7c-xorg-server-21.1.4/lib/xorg/modules/libfbdevhw.so
[    46.020] (II) Module fbdevhw: vendor="X.Org Foundation"
[    46.020] 	compiled for 1.21.1.4, module version = 0.0.2
[    46.020] 	ABI class: X.Org Video Driver, version 25.2
[    46.020] (II) FBDEV(2): using default device
[    46.020] vesa: Refusing to run, Framebuffer or dri device present
[    46.020] (WW) VGA arbiter: cannot open kernel arbiter, no multi-card support
[    46.020] (EE) Screen 0 deleted because of no matching config section.
[    46.020] (II) UnloadModule: "modesetting"
[    46.020] (EE) Screen 0 deleted because of no matching config section.
[    46.020] (II) UnloadModule: "fbdev"
[    46.020] (II) UnloadSubModule: "fbdevhw"
[    46.020] (II) FBDEV(0): Creating default Display subsection in Screen section
	"Default Screen Section" for depth/fbbpp 24/32
[    46.020] (==) FBDEV(0): Depth 24, (==) framebuffer bpp 32
[    46.020] (==) FBDEV(0): RGB weight 888
[    46.020] (==) FBDEV(0): Default visual is TrueColor
[    46.020] (==) FBDEV(0): Using gamma correction (1.0, 1.0, 1.0)
[    46.020] (II) FBDEV(0): hardware: EFI VGA (video memory: 3072kB)
[    46.020] (DB) xf86MergeOutputClassOptions unsupported bus type 0
[    46.020] (II) FBDEV(0): checking modes against framebuffer device...
[    46.020] (II) FBDEV(0): checking modes against monitor...
[    46.020] (II) FBDEV(0): Virtual size is 1024x768 (pitch 1024)
[    46.020] (**) FBDEV(0):  Built-in mode "current": 78.7 MHz, 59.9 kHz, 75.7 Hz
[    46.020] (II) FBDEV(0): Modeline "current"x0.0   78.65  1024 1056 1184 1312  768 772 776 792 -hsync -vsync -csync (59.9 kHz b)
[    46.020] (==) FBDEV(0): DPI set to (96, 96)
[    46.020] (II) Loading sub module "fb"
[    46.020] (II) LoadModule: "fb"
[    46.021] (II) Module "fb" already built-in
[    46.021] (**) FBDEV(0): using shadow framebuffer
[    46.021] (II) Loading sub module "shadow"
[    46.021] (II) LoadModule: "shadow"
[    46.021] (II) Loading /gnu/store/7gscf7hxwc4qr78ih2s1anyz1pk7lx7c-xorg-server-21.1.4/lib/xorg/modules/libshadow.so
[    46.021] (II) Module shadow: vendor="X.Org Foundation"
[    46.021] 	compiled for 1.21.1.4, module version = 1.1.0
[    46.021] 	ABI class: X.Org ANSI C Emulation, version 0.4
[    46.021] (II) FBDEV(0): FBIOBLANK: Invalid argument (Screen blanking not supported by kernel - disabling)
[    46.021] (==) FBDEV(0): Backing store enabled
[    46.021] (==) FBDEV(0): DPMS enabled
[    46.021] (II) Initializing extension Generic Event Extension
[    46.022] (II) Initializing extension SHAPE
[    46.022] (II) Initializing extension MIT-SHM
[    46.022] (II) Initializing extension XInputExtension
[    46.022] (II) Initializing extension XTEST
[    46.022] (II) Initializing extension BIG-REQUESTS
[    46.022] (II) Initializing extension SYNC
[    46.022] (II) Initializing extension XKEYBOARD
[    46.022] (II) Initializing extension XC-MISC
[    46.022] (II) Initializing extension SECURITY
[    46.022] (II) Initializing extension XFIXES
[    46.023] (II) Initializing extension RENDER
[    46.023] (II) Initializing extension RANDR
[    46.023] (II) Initializing extension COMPOSITE
[    46.023] (II) Initializing extension DAMAGE
[    46.023] (II) Initializing extension MIT-SCREEN-SAVER
[    46.023] (II) Initializing extension DOUBLE-BUFFER
[    46.023] (II) Initializing extension RECORD
[    46.023] (II) Initializing extension DPMS
[    46.023] (II) Initializing extension Present
[    46.023] (II) Initializing extension DRI3
[    46.023] (II) Initializing extension X-Resource
[    46.024] (II) Initializing extension XVideo
[    46.024] (II) Initializing extension XVideo-MotionCompensation
[    46.024] (II) Initializing extension GLX
[    46.024] (II) AIGLX: Screen 0 is not DRI2 capable
[    46.042] (II) IGLX: Loaded and initialized swrast
[    46.042] (II) GLX: Initialized DRISWRAST GL provider for screen 0
[    46.042] (II) Initializing extension XFree86-VidModeExtension
[    46.042] (II) Initializing extension XFree86-DGA
[    46.042] (II) Initializing extension XFree86-DRI
[    46.042] (II) Initializing extension DRI2
[    46.063] (II) config/udev: Adding input device Power Button (/dev/input/event1)
[    46.063] (**) Power Button: Applying InputClass "evdev keyboard catchall"
[    46.063] (**) Power Button: Applying InputClass "libinput keyboard catchall"
[    46.063] (**) Power Button: Applying InputClass "evdev keyboard catchall"
[    46.063] (II) LoadModule: "evdev"
[    46.063] (II) Loading /gnu/store/ysjpdxnb3lqr3h98rqbv4am1ycwdp9p8-xf86-input-evdev-2.10.6/lib/xorg/modules/input/evdev_drv.so
[    46.063] (II) Module evdev: vendor="X.Org Foundation"
[    46.063] 	compiled for 1.21.1.4, module version = 2.10.6
[    46.063] 	Module class: X.Org XInput Driver
[    46.063] 	ABI class: X.Org XInput driver, version 24.4
[    46.063] (II) Using input driver 'evdev' for 'Power Button'
[    46.064] (II) systemd-logind: got fd for /dev/input/event1 13:65 fd 20 paused 0
[    46.064] (**) Power Button: always reports core events
[    46.064] (**) evdev: Power Button: Device: "/dev/input/event1"
[    46.064] (--) evdev: Power Button: Vendor 0 Product 0x1
[    46.064] (--) evdev: Power Button: Found keys
[    46.064] (II) evdev: Power Button: Configuring as keyboard
[    46.064] (**) Option "config_info" "udev:/sys/devices/LNXSYSTM:00/LNXPWRBN:00/input/input1/event1"
[    46.064] (II) XINPUT: Adding extended input device "Power Button" (type: KEYBOARD, id 6)
[    46.064] (**) Option "xkb_rules" "evdev"
[    46.064] (**) Option "xkb_layout" "us"
[    46.064] (II) config/udev: Adding input device Power Button (/dev/input/event0)
[    46.064] (**) Power Button: Applying InputClass "evdev keyboard catchall"
[    46.064] (**) Power Button: Applying InputClass "libinput keyboard catchall"
[    46.064] (**) Power Button: Applying InputClass "evdev keyboard catchall"
[    46.064] (II) Using input driver 'evdev' for 'Power Button'
[    46.064] (II) systemd-logind: got fd for /dev/input/event0 13:64 fd 21 paused 0
[    46.064] (**) Power Button: always reports core events
[    46.064] (**) evdev: Power Button: Device: "/dev/input/event0"
[    46.064] (--) evdev: Power Button: Vendor 0 Product 0x1
[    46.064] (--) evdev: Power Button: Found keys
[    46.064] (II) evdev: Power Button: Configuring as keyboard
[    46.064] (**) Option "config_info" "udev:/sys/devices/LNXSYSTM:00/LNXSYBUS:00/PNP0C0C:00/input/input0/event0"
[    46.064] (II) XINPUT: Adding extended input device "Power Button" (type: KEYBOARD, id 7)
[    46.064] (**) Option "xkb_rules" "evdev"
[    46.064] (**) Option "xkb_layout" "us"
[    46.065] (II) config/udev: Adding input device HDA NVidia HDMI/DP,pcm=7 (/dev/input/event10)
[    46.065] (II) No input driver specified, ignoring this device.
[    46.065] (II) This device may have been added with another device file.
[    46.065] (II) config/udev: Adding input device HDA NVidia HDMI/DP,pcm=8 (/dev/input/event11)
[    46.065] (II) No input driver specified, ignoring this device.
[    46.065] (II) This device may have been added with another device file.
[    46.065] (II) config/udev: Adding input device HDA NVidia HDMI/DP,pcm=9 (/dev/input/event12)
[    46.065] (II) No input driver specified, ignoring this device.
[    46.065] (II) This device may have been added with another device file.
[    46.065] (II) config/udev: Adding input device HDA NVidia HDMI/DP,pcm=3 (/dev/input/event9)
[    46.065] (II) No input driver specified, ignoring this device.
[    46.065] (II) This device may have been added with another device file.
[    46.065] (II) config/udev: Adding input device Cooler Master Technology Inc. CK530 (/dev/input/event2)
[    46.065] (**) Cooler Master Technology Inc. CK530: Applying InputClass "evdev keyboard catchall"
[    46.065] (**) Cooler Master Technology Inc. CK530: Applying InputClass "libinput keyboard catchall"
[    46.065] (**) Cooler Master Technology Inc. CK530: Applying InputClass "evdev keyboard catchall"
[    46.065] (II) Using input driver 'evdev' for 'Cooler Master Technology Inc. CK530'
[    46.066] (II) systemd-logind: got fd for /dev/input/event2 13:66 fd 22 paused 0
[    46.066] (**) Cooler Master Technology Inc. CK530: always reports core events
[    46.066] (**) evdev: Cooler Master Technology Inc. CK530: Device: "/dev/input/event2"
[    46.066] (--) evdev: Cooler Master Technology Inc. CK530: Vendor 0x2516 Product 0x9f
[    46.066] (--) evdev: Cooler Master Technology Inc. CK530: Found keys
[    46.066] (II) evdev: Cooler Master Technology Inc. CK530: Configuring as keyboard
[    46.066] (**) Option "config_info" "udev:/sys/devices/pci0000:00/0000:00:08.1/0000:28:00.3/usb2/2-1/2-1.1/2-1.1:1.0/0003:2516:009F.0001/input/input2/event2"
[    46.066] (II) XINPUT: Adding extended input device "Cooler Master Technology Inc. CK530" (type: KEYBOARD, id 8)
[    46.066] (**) Option "xkb_rules" "evdev"
[    46.066] (**) Option "xkb_layout" "us"
[    46.066] (II) config/udev: Adding input device Cooler Master Technology Inc. CK530 System Control (/dev/input/event3)
[    46.066] (**) Cooler Master Technology Inc. CK530 System Control: Applying InputClass "evdev keyboard catchall"
[    46.066] (**) Cooler Master Technology Inc. CK530 System Control: Applying InputClass "libinput keyboard catchall"
[    46.066] (**) Cooler Master Technology Inc. CK530 System Control: Applying InputClass "evdev keyboard catchall"
[    46.066] (II) Using input driver 'evdev' for 'Cooler Master Technology Inc. CK530 System Control'
[    46.066] (II) systemd-logind: got fd for /dev/input/event3 13:67 fd 23 paused 0
[    46.066] (**) Cooler Master Technology Inc. CK530 System Control: always reports core events
[    46.066] (**) evdev: Cooler Master Technology Inc. CK530 System Control: Device: "/dev/input/event3"
[    46.066] (--) evdev: Cooler Master Technology Inc. CK530 System Control: Vendor 0x2516 Product 0x9f
[    46.066] (--) evdev: Cooler Master Technology Inc. CK530 System Control: Found keys
[    46.066] (II) evdev: Cooler Master Technology Inc. CK530 System Control: Configuring as keyboard
[    46.066] (**) Option "config_info" "udev:/sys/devices/pci0000:00/0000:00:08.1/0000:28:00.3/usb2/2-1/2-1.1/2-1.1:1.2/0003:2516:009F.0003/input/input3/event3"
[    46.066] (II) XINPUT: Adding extended input device "Cooler Master Technology Inc. CK530 System Control" (type: KEYBOARD, id 9)
[    46.066] (**) Option "xkb_rules" "evdev"
[    46.066] (**) Option "xkb_layout" "us"
[    46.067] (II) config/udev: Adding input device Cooler Master Technology Inc. CK530 Consumer Control (/dev/input/event4)
[    46.067] (**) Cooler Master Technology Inc. CK530 Consumer Control: Applying InputClass "evdev keyboard catchall"
[    46.067] (**) Cooler Master Technology Inc. CK530 Consumer Control: Applying InputClass "libinput keyboard catchall"
[    46.067] (**) Cooler Master Technology Inc. CK530 Consumer Control: Applying InputClass "evdev keyboard catchall"
[    46.067] (II) Using input driver 'evdev' for 'Cooler Master Technology Inc. CK530 Consumer Control'
[    46.067] (II) systemd-logind: got fd for /dev/input/event4 13:68 fd 24 paused 0
[    46.067] (**) Cooler Master Technology Inc. CK530 Consumer Control: always reports core events
[    46.067] (**) evdev: Cooler Master Technology Inc. CK530 Consumer Control: Device: "/dev/input/event4"
[    46.067] (--) evdev: Cooler Master Technology Inc. CK530 Consumer Control: Vendor 0x2516 Product 0x9f
[    46.067] (--) evdev: Cooler Master Technology Inc. CK530 Consumer Control: Found keys
[    46.067] (II) evdev: Cooler Master Technology Inc. CK530 Consumer Control: Configuring as keyboard
[    46.067] (**) Option "config_info" "udev:/sys/devices/pci0000:00/0000:00:08.1/0000:28:00.3/usb2/2-1/2-1.1/2-1.1:1.2/0003:2516:009F.0003/input/input4/event4"
[    46.067] (II) XINPUT: Adding extended input device "Cooler Master Technology Inc. CK530 Consumer Control" (type: KEYBOARD, id 10)
[    46.067] (**) Option "xkb_rules" "evdev"
[    46.067] (**) Option "xkb_layout" "us"
[    46.067] (II) config/udev: Adding input device Cooler Master Technology Inc. CK530 Mouse (/dev/input/event5)
[    46.067] (**) Cooler Master Technology Inc. CK530 Mouse: Applying InputClass "evdev pointer catchall"
[    46.067] (**) Cooler Master Technology Inc. CK530 Mouse: Applying InputClass "libinput pointer catchall"
[    46.067] (II) LoadModule: "libinput"
[    46.067] (II) Loading /gnu/store/6ifdphlzjk1yrj65lqzdbcxjxhwrfs8p-xf86-input-libinput-1.2.1/lib/xorg/modules/input/libinput_drv.so
[    46.068] (II) Module libinput: vendor="X.Org Foundation"
[    46.068] 	compiled for 1.21.1.4, module version = 1.2.1
[    46.068] 	Module class: X.Org XInput Driver
[    46.068] 	ABI class: X.Org XInput driver, version 24.4
[    46.068] (II) Using input driver 'libinput' for 'Cooler Master Technology Inc. CK530 Mouse'
[    46.068] (II) systemd-logind: got fd for /dev/input/event5 13:69 fd 25 paused 0
[    46.068] (**) Cooler Master Technology Inc. CK530 Mouse: always reports core events
[    46.068] (**) Option "Device" "/dev/input/event5"
[    46.069] (II) event5  - Cooler Master Technology Inc. CK530 Mouse: is tagged by udev as: Mouse
[    46.069] (II) event5  - Cooler Master Technology Inc. CK530 Mouse: device is a pointer
[    46.069] (II) event5  - Cooler Master Technology Inc. CK530 Mouse: device removed
[    46.069] (**) Option "config_info" "udev:/sys/devices/pci0000:00/0000:00:08.1/0000:28:00.3/usb2/2-1/2-1.1/2-1.1:1.2/0003:2516:009F.0003/input/input5/event5"
[    46.069] (II) XINPUT: Adding extended input device "Cooler Master Technology Inc. CK530 Mouse" (type: MOUSE, id 11)
[    46.069] (**) Option "AccelerationScheme" "none"
[    46.069] (**) Cooler Master Technology Inc. CK530 Mouse: (accel) selected scheme none/0
[    46.069] (**) Cooler Master Technology Inc. CK530 Mouse: (accel) acceleration factor: 2.000
[    46.069] (**) Cooler Master Technology Inc. CK530 Mouse: (accel) acceleration threshold: 4
[    46.070] (II) event5  - Cooler Master Technology Inc. CK530 Mouse: is tagged by udev as: Mouse
[    46.070] (II) event5  - Cooler Master Technology Inc. CK530 Mouse: device is a pointer
[    46.070] (II) config/udev: Adding input device Cooler Master Technology Inc. CK530 Mouse (/dev/input/mouse0)
[    46.070] (II) No input driver specified, ignoring this device.
[    46.070] (II) This device may have been added with another device file.
[    46.070] (II) config/udev: Adding input device Cooler Master Technology Inc. CK530 Keyboard (/dev/input/event6)
[    46.070] (**) Cooler Master Technology Inc. CK530 Keyboard: Applying InputClass "evdev keyboard catchall"
[    46.070] (**) Cooler Master Technology Inc. CK530 Keyboard: Applying InputClass "libinput keyboard catchall"
[    46.070] (**) Cooler Master Technology Inc. CK530 Keyboard: Applying InputClass "evdev keyboard catchall"
[    46.070] (II) Using input driver 'evdev' for 'Cooler Master Technology Inc. CK530 Keyboard'
[    46.070] (II) systemd-logind: got fd for /dev/input/event6 13:70 fd 28 paused 0
[    46.070] (**) Cooler Master Technology Inc. CK530 Keyboard: always reports core events
[    46.071] (**) evdev: Cooler Master Technology Inc. CK530 Keyboard: Device: "/dev/input/event6"
[    46.071] (--) evdev: Cooler Master Technology Inc. CK530 Keyboard: Vendor 0x2516 Product 0x9f
[    46.071] (--) evdev: Cooler Master Technology Inc. CK530 Keyboard: Found keys
[    46.071] (II) evdev: Cooler Master Technology Inc. CK530 Keyboard: Configuring as keyboard
[    46.071] (**) Option "config_info" "udev:/sys/devices/pci0000:00/0000:00:08.1/0000:28:00.3/usb2/2-1/2-1.1/2-1.1:1.2/0003:2516:009F.0003/input/input6/event6"
[    46.071] (II) XINPUT: Adding extended input device "Cooler Master Technology Inc. CK530 Keyboard" (type: KEYBOARD, id 12)
[    46.071] (**) Option "xkb_rules" "evdev"
[    46.071] (**) Option "xkb_layout" "us"
[    46.071] (II) config/udev: Adding input device Logitech USB Optical Mouse (/dev/input/event7)
[    46.071] (**) Logitech USB Optical Mouse: Applying InputClass "evdev pointer catchall"
[    46.071] (**) Logitech USB Optical Mouse: Applying InputClass "libinput pointer catchall"
[    46.071] (II) Using input driver 'libinput' for 'Logitech USB Optical Mouse'
[    46.071] (II) systemd-logind: got fd for /dev/input/event7 13:71 fd 29 paused 0
[    46.071] (**) Logitech USB Optical Mouse: always reports core events
[    46.071] (**) Option "Device" "/dev/input/event7"
[    46.072] (II) event7  - Logitech USB Optical Mouse: is tagged by udev as: Mouse
[    46.072] (II) event7  - Logitech USB Optical Mouse: device is a pointer
[    46.072] (II) event7  - Logitech USB Optical Mouse: device removed
[    46.072] (**) Option "config_info" "udev:/sys/devices/pci0000:00/0000:00:08.1/0000:28:00.3/usb2/2-1/2-1.2/2-1.2:1.0/0003:046D:C077.0004/input/input7/event7"
[    46.072] (II) XINPUT: Adding extended input device "Logitech USB Optical Mouse" (type: MOUSE, id 13)
[    46.072] (**) Option "AccelerationScheme" "none"
[    46.072] (**) Logitech USB Optical Mouse: (accel) selected scheme none/0
[    46.072] (**) Logitech USB Optical Mouse: (accel) acceleration factor: 2.000
[    46.072] (**) Logitech USB Optical Mouse: (accel) acceleration threshold: 4
[    46.072] (II) event7  - Logitech USB Optical Mouse: is tagged by udev as: Mouse
[    46.072] (II) event7  - Logitech USB Optical Mouse: device is a pointer
[    46.072] (II) config/udev: Adding input device Logitech USB Optical Mouse (/dev/input/mouse1)
[    46.072] (II) No input driver specified, ignoring this device.
[    46.072] (II) This device may have been added with another device file.
[    46.072] (II) config/udev: Adding input device HD-Audio Generic Front Mic (/dev/input/event13)
[    46.072] (II) No input driver specified, ignoring this device.
[    46.072] (II) This device may have been added with another device file.
[    46.072] (II) config/udev: Adding input device HD-Audio Generic Rear Mic (/dev/input/event14)
[    46.072] (II) No input driver specified, ignoring this device.
[    46.072] (II) This device may have been added with another device file.
[    46.073] (II) config/udev: Adding input device HD-Audio Generic Line (/dev/input/event15)
[    46.073] (II) No input driver specified, ignoring this device.
[    46.073] (II) This device may have been added with another device file.
[    46.073] (II) config/udev: Adding input device HD-Audio Generic Line Out Front (/dev/input/event16)
[    46.073] (II) No input driver specified, ignoring this device.
[    46.073] (II) This device may have been added with another device file.
[    46.073] (II) config/udev: Adding input device HD-Audio Generic Line Out Surround (/dev/input/event17)
[    46.073] (II) No input driver specified, ignoring this device.
[    46.073] (II) This device may have been added with another device file.
[    46.073] (II) config/udev: Adding input device HD-Audio Generic Line Out CLFE (/dev/input/event18)
[    46.073] (II) No input driver specified, ignoring this device.
[    46.073] (II) This device may have been added with another device file.
[    46.073] (II) config/udev: Adding input device HD-Audio Generic Line Out Side (/dev/input/event19)
[    46.073] (II) No input driver specified, ignoring this device.
[    46.073] (II) This device may have been added with another device file.
[    46.073] (II) config/udev: Adding input device HD-Audio Generic Front Headphone (/dev/input/event20)
[    46.073] (II) No input driver specified, ignoring this device.
[    46.073] (II) This device may have been added with another device file.
[    46.073] (II) config/udev: Adding input device PC Speaker (/dev/input/event8)
[    46.073] (II) No input driver specified, ignoring this device.
[    46.073] (II) This device may have been added with another device file.
[    49.073] (**) Option "fd" "25"
[    49.073] (II) event5  - Cooler Master Technology Inc. CK530 Mouse: device removed
[    49.073] (**) Option "fd" "29"
[    49.073] (II) event7  - Logitech USB Optical Mouse: device removed
[    49.073] (II) systemd-logind: got pause for 13:67
[    49.073] (II) systemd-logind: got pause for 13:68
[    49.073] (II) systemd-logind: got pause for 13:70
[    49.073] (II) systemd-logind: got pause for 13:71
[    49.073] (II) systemd-logind: got pause for 13:64
[    49.073] (II) systemd-logind: got pause for 13:69
[    49.073] (II) systemd-logind: got pause for 13:66
[    49.074] (II) systemd-logind: got pause for 13:65
[    56.015] (II) UnloadModule: "libinput"
[    56.015] (II) systemd-logind: releasing fd for 13:71
[    56.040] (II) evdev: Cooler Master Technology Inc. CK530 Keyboard: Close
[    56.040] (II) UnloadModule: "evdev"
[    56.040] (II) systemd-logind: releasing fd for 13:70
[    56.072] (II) UnloadModule: "libinput"
[    56.072] (II) systemd-logind: releasing fd for 13:69
[    56.096] (II) evdev: Cooler Master Technology Inc. CK530 Consumer Control: Close
[    56.096] (II) UnloadModule: "evdev"
[    56.096] (II) systemd-logind: releasing fd for 13:68
[    56.124] (II) evdev: Cooler Master Technology Inc. CK530 System Control: Close
[    56.124] (II) UnloadModule: "evdev"
[    56.124] (II) systemd-logind: releasing fd for 13:67
[    56.140] (II) evdev: Cooler Master Technology Inc. CK530: Close
[    56.140] (II) UnloadModule: "evdev"
[    56.140] (II) systemd-logind: releasing fd for 13:66
[    56.156] (II) evdev: Power Button: Close
[    56.156] (II) UnloadModule: "evdev"
[    56.156] (II) systemd-logind: releasing fd for 13:64
[    56.189] (II) evdev: Power Button: Close
[    56.189] (II) UnloadModule: "evdev"
[    56.189] (II) systemd-logind: releasing fd for 13:65
[    56.214] (II) Server terminated successfully (0). Closing log file.
