Sat Apr  8 09:24:34 2023
+-----------------------------------------------------------------------------+
| NVIDIA-SMI 515.76       Driver Version: 515.76       CUDA Version: 11.7     |
|-------------------------------+----------------------+----------------------+
| GPU  Name        Persistence-M| Bus-Id        Disp.A | Volatile Uncorr. ECC |
| Fan  Temp  Perf  Pwr:Usage/Cap|         Memory-Usage | GPU-Util  Compute M. |
|                               |                      |               MIG M. |
|===============================+======================+======================|
|   0  NVIDIA GeForce ...  Off  | 00000000:26:00.0 Off |                  N/A |
| 30%   46C    P0    48W / 215W |      0MiB /  8192MiB |      0%      Default |
|                               |                      |                  N/A |
+-------------------------------+----------------------+----------------------+

+-----------------------------------------------------------------------------+
| No running processes found                                                  |
+-----------------------------------------------------------------------------+

