Sat Apr  8 09:34:14 2023
+-----------------------------------------------------------------------------+
| NVIDIA-SMI 515.76       Driver Version: 515.76       CUDA Version: 11.7     |
|-------------------------------+----------------------+----------------------+
| GPU  Name        Persistence-M| Bus-Id        Disp.A | Volatile Uncorr. ECC |
| Fan  Temp  Perf  Pwr:Usage/Cap|         Memory-Usage | GPU-Util  Compute M. |
|                               |                      |               MIG M. |
|===============================+======================+======================|
|   0  NVIDIA GeForce ...  Off  | 00000000:26:00.0  On |                  N/A |
|  0%   43C    P8    26W / 215W |     68MiB /  8192MiB |      4%      Default |
|                               |                      |                  N/A |
+-------------------------------+----------------------+----------------------+

+-----------------------------------------------------------------------------+
|  GPU   PID     USER    GPU MEM  %CPU  %MEM      TIME  COMMAND               |
|    0  1106     rdrg      66MiB   1.8   0.2     01:01  /gnu/store/7gscf7hxw  |
+-----------------------------------------------------------------------------+
