Screen 0: minimum 8 x 8, current 2560 x 1080, maximum 32767 x 32767
DP-0 disconnected primary (normal left inverted right x axis y axis)
DP-1 disconnected (normal left inverted right x axis y axis)
HDMI-0 disconnected (normal left inverted right x axis y axis)
DP-2 disconnected (normal left inverted right x axis y axis)
DP-3 disconnected (normal left inverted right x axis y axis)
DP-4 connected 2560x1080+0+0 (normal left inverted right x axis y axis) 798mm x 334mm
   2560x1080     59.98*+  74.99  
   1920x1080     74.91    60.00    59.99    59.94    50.00  
   1680x1050     59.95  
   1600x900      60.00  
   1280x1024     75.02    60.02  
   1280x800      59.81  
   1280x720      60.00    59.94    50.00  
   1152x864      59.96  
   1024x768      75.03    60.00  
   800x600       75.00    60.32  
   720x576       50.00  
   720x480       59.94  
   640x480       75.00    59.94    59.93  
DP-5 disconnected (normal left inverted right x axis y axis)
